0.059816854215267376	290054.9569467666
0.06461428214022889	312784.72136895143
0.0695726006277509	336949.63042352576
0.07515251874583154	363690.05907209485
0.08117990400803213	392230.3974696932
0.08769060392710959	422489.6974111814
0.09472350154558688	455270.2921460541
0.10199228507772304	490267.0890715017
0.11017233334156967	529066.2153341303
0.1186265163244097	569209.6459666746
0.1281406506031438	614130.098932516
0.13841769325193293	661779.8996518016
0.1495190211389379	713419.6637958246
0.1615109822260581	770669.4615403991
0.17390492783277997	830465.0102794528
0.1878523235402294	894900.041737671
0.2022673483852679	962752.0689419843
0.21848991426721792	1.0400100476916045e6
0.2360134195011338	1.1225455721827168e6
0.2541240292916804	1.2071001667357723e6
0.2745050128832417	1.3002907531212466e6
0.295569624471525	1.4000290101210503e6
0.3192751391117971	1.5111357527045398e6
0.3448819026553178	1.6310599613249986e6
0.3725420015467387	1.7583342284218073e6
0.4024203424193669	1.8947617960134824e6
0.4346951193257206	2.0426131470544e6
0.4680523597926352	2.200194110385836e6
0.5055912263781669	2.3734618847107734e6
0.5461407956661708	2.560374692207014e6
0.5880493711324049	2.7542215972827077e6
0.6352114494796087	2.9667008389609135e6
0.6861569481167862	3.2008246744309617e6
0.7411886639373467	3.4548431273244005e6
0.7980656134707284	3.7229012909277617e6
0.8620714875439904	4.0117578457825533e6
0.928223685916401	4.317704906041412e6
1.0026701925002417	4.662273185749309e6
1.0796104551590915	5.012682277883114e6
