%!PS-Adobe-3.0
%%BoundingBox: 0 0 612 792
%%LanguageLevel: 2
%%Creator: Grace-5.1.25
%%CreationDate: Sun Apr 29 19:02:48 2018
%%DocumentData: Clean8Bit
%%Orientation: Landscape
%%Pages: 1
%%PageOrder: Ascend
%%Title: /home/bseymour/bh-pulsar/Paper_Graphs/Xmgrace Files/dCS-EdGB.agr
%%For: bseymour
%%DocumentNeededResources: (atend)
%%EndComments
%%BeginProlog
/PAGE_OFFSET_X 0 def
/PAGE_OFFSET_Y 0 def
/m {moveto} def
/l {lineto} def
/s {stroke} def
/n {newpath} def
/c {closepath} def
/RL {rlineto} def
/SLW {setlinewidth} def
/GS {gsave} def
/GR {grestore} def
/SC {setcolor} def
/SGRY {setgray} def
/SRGB {setrgbcolor} def
/SD {setdash} def
/SLC {setlinecap} def
/SLJ {setlinejoin} def
/SCS {setcolorspace} def
/FFSF {findfont setfont} def
/CC {concat} def
/PXL {n m 0 0 RL s} def
/Color0 {1.0000 1.0000 1.0000} def
/Color1 {0.0000 0.0000 0.0000} def
/Color2 {1.0000 0.0000 0.0000} def
/Color3 {0.0000 1.0000 0.0000} def
/Color4 {0.0000 0.0000 1.0000} def
/Color5 {1.0000 1.0000 0.0000} def
/Color6 {0.7373 0.5608 0.5608} def
/Color7 {0.8627 0.8627 0.8627} def
/Color8 {0.5804 0.0000 0.8275} def
/Color9 {0.0000 1.0000 1.0000} def
/Color10 {1.0000 0.0000 1.0000} def
/Color11 {1.0000 0.6471 0.0000} def
/Color12 {0.4471 0.1294 0.7373} def
/Color13 {0.4039 0.0275 0.2824} def
/Color14 {0.2510 0.8784 0.8157} def
/Color15 {0.0000 0.5451 0.0000} def
/Color16 {0.7529 0.7529 0.7529} def
/Color17 {0.5059 0.5059 0.5059} def
/Color18 {0.2588 0.2588 0.2588} def
/PTRN {
 /pat_bits exch def 
 <<
  /PaintType 2
  /PatternType 1 /TilingType 1
  /BBox[0 0 16 16]
  /XStep 16 /YStep 16
  /PaintProc {
   pop
   16 16 true [-1 0 0 -1 16 16] pat_bits imagemask
  }
 >>
 [0.0016 0 0 0.0016 0 0]
 makepattern
} def
/Pattern0 {<0000000000000000000000000000000000000000000000000000000000000000> PTRN} bind def
/Pattern1 {<ffffffffffffffffffffffffffffffffffffffffffffffffffffffffffffffff> PTRN} bind def
/Pattern2 {<eeeeffffbbbbffffeeeeffffbbbbffffeeeeffffbbbbffffeeeeffffbbbbffff> PTRN} bind def
/Pattern3 {<eeeebbbbeeeebbbbeeeebbbbeeeebbbbeeeebbbbeeeebbbbeeeebbbbeeeebbbb> PTRN} bind def
/Pattern4 {<5555aaaa5555aaaa5555aaaa5555aaaa5555aaaa5555aaaa5555aaaa5555aaaa> PTRN} bind def
/Pattern5 {<1111444411114444111144441111444411114444111144441111444411114444> PTRN} bind def
/Pattern6 {<1111000044440000111100004444000011110000444400001111000044440000> PTRN} bind def
/Pattern7 {<1010000000000000010100000000000010100000000000000101000000000000> PTRN} bind def
/Pattern8 {<0000000000000000000000000000000000000000000000000000000000000000> PTRN} bind def
/Pattern9 {<1e1e0f0f8787c3c3e1e1f0f078783c3c1e1e0f0f8787c3c3e1e1f0f078783c3c> PTRN} bind def
/Pattern10 {<7878f0f0e1e1c3c387870f0f1e1e3c3c7878f0f0e1e1c3c387870f0f1e1e3c3c> PTRN} bind def
/Pattern11 {<3333333333333333333333333333333333333333333333333333333333333333> PTRN} bind def
/Pattern12 {<ffffffff00000000ffffffff00000000ffffffff00000000ffffffff00000000> PTRN} bind def
/Pattern13 {<8181424224241818181824244242818181814242242418181818242442428181> PTRN} bind def
/Pattern14 {<8080404020201010080804040202010180804040202010100808040402020101> PTRN} bind def
/Pattern15 {<0101020204040808101020204040808001010202040408081010202040408080> PTRN} bind def
/Pattern16 {<2222222222222222222222222222222222222222222222222222222222222222> PTRN} bind def
/Pattern17 {<0000ffff000000000000ffff000000000000ffff000000000000ffff00000000> PTRN} bind def
/Pattern18 {<2222ffff222222222222ffff222222222222ffff222222222222ffff22222222> PTRN} bind def
/Pattern19 {<ffffffff33333333ffffffff33333333ffffffff33333333ffffffff33333333> PTRN} bind def
/Pattern20 {<0f0f0f0f0f0f0f0ff0f0f0f0f0f0f0f00f0f0f0f0f0f0f0ff0f0f0f0f0f0f0f0> PTRN} bind def
/Pattern21 {<ff00ff00ff00ff00ff00ff00ff00ff0000ff00ff00ff00ff00ff00ff00ff00ff> PTRN} bind def
/Pattern22 {<8001800180018001800180018001ffffffff8001800180018001800180018001> PTRN} bind def
/Pattern23 {<c003c003c003c003c003c003ffffffffffffffffc003c003c003c003c003c003> PTRN} bind def
/Pattern24 {<040404040404ffff404040404040ffff040404040404ffff404040404040ffff> PTRN} bind def
/Pattern25 {<180018001800180018001800ffffffff001800180018001800180018ffffffff> PTRN} bind def
/Pattern26 {<1111b8b87c7c3a3a1111a3a3c7c78b8b1111b8b87c7c3a3a1111a3a3c7c78b8b> PTRN} bind def
/Pattern27 {<101010102828c7c70101010182827c7c101010102828c7c70101010182827c7c> PTRN} bind def
/Pattern28 {<1c1c121211112121c1c12121111112121c1c121211112121c1c1212111111212> PTRN} bind def
/Pattern29 {<3e3e414180808080e3e31414080808083e3e414180808080e3e3141408080808> PTRN} bind def
/Pattern30 {<4848888884848383848488884848383848488888848483838484888848483838> PTRN} bind def
/Pattern31 {<03030404080808080c0c12122121c0c003030404080808080c0c12122121c0c0> PTRN} bind def
/ellipsedict 8 dict def
ellipsedict /mtrx matrix put
/EARC {
 ellipsedict begin
  /endangle exch def
  /startangle exch def
  /yrad exch def
  /xrad exch def
  /y exch def
  /x exch def
  /savematrix mtrx currentmatrix def
  x y translate
  xrad yrad scale
  0 0 1 startangle endangle arc
  savematrix setmatrix
 end
} def
/TL {
  /kcomp exch def
  /linewidth exch def
  /offset exch def
  GS
  0 offset rmoveto
  linewidth SLW
  dup stringwidth exch kcomp add exch RL s
  GR
} def
/KINIT
{
 /kvector exch def
 /kid 0 def
} def
/KPROC
{
 pop pop
 kvector kid get
 0 rmoveto
 /kid 1 kid add def
} def
/DefEncoding [
 /.notdef
 /.notdef
 /.notdef
 /.notdef
 /.notdef
 /.notdef
 /.notdef
 /.notdef
 /.notdef
 /.notdef
 /.notdef
 /.notdef
 /.notdef
 /.notdef
 /.notdef
 /.notdef
 /.notdef
 /.notdef
 /.notdef
 /.notdef
 /.notdef
 /.notdef
 /.notdef
 /.notdef
 /.notdef
 /.notdef
 /.notdef
 /.notdef
 /.notdef
 /.notdef
 /.notdef
 /.notdef
 /space
 /exclam
 /quotedbl
 /numbersign
 /dollar
 /percent
 /ampersand
 /quoteright
 /parenleft
 /parenright
 /asterisk
 /plus
 /comma
 /hyphen
 /period
 /slash
 /zero
 /one
 /two
 /three
 /four
 /five
 /six
 /seven
 /eight
 /nine
 /colon
 /semicolon
 /less
 /equal
 /greater
 /question
 /at
 /A
 /B
 /C
 /D
 /E
 /F
 /G
 /H
 /I
 /J
 /K
 /L
 /M
 /N
 /O
 /P
 /Q
 /R
 /S
 /T
 /U
 /V
 /W
 /X
 /Y
 /Z
 /bracketleft
 /backslash
 /bracketright
 /asciicircum
 /underscore
 /grave
 /a
 /b
 /c
 /d
 /e
 /f
 /g
 /h
 /i
 /j
 /k
 /l
 /m
 /n
 /o
 /p
 /q
 /r
 /s
 /t
 /u
 /v
 /w
 /x
 /y
 /z
 /braceleft
 /bar
 /braceright
 /asciitilde
 /.notdef
 /.notdef
 /.notdef
 /.notdef
 /.notdef
 /.notdef
 /.notdef
 /.notdef
 /.notdef
 /.notdef
 /.notdef
 /.notdef
 /.notdef
 /.notdef
 /.notdef
 /.notdef
 /.notdef
 /.notdef
 /.notdef
 /.notdef
 /.notdef
 /.notdef
 /.notdef
 /.notdef
 /.notdef
 /.notdef
 /.notdef
 /.notdef
 /.notdef
 /.notdef
 /.notdef
 /.notdef
 /.notdef
 /space
 /exclamdown
 /cent
 /sterling
 /currency
 /yen
 /brokenbar
 /section
 /dieresis
 /copyright
 /ordfeminine
 /guillemotleft
 /logicalnot
 /hyphen
 /registered
 /macron
 /degree
 /plusminus
 /twosuperior
 /threesuperior
 /acute
 /mu
 /paragraph
 /periodcentered
 /cedilla
 /onesuperior
 /ordmasculine
 /guillemotright
 /onequarter
 /onehalf
 /threequarters
 /questiondown
 /Agrave
 /Aacute
 /Acircumflex
 /Atilde
 /Adieresis
 /Aring
 /AE
 /Ccedilla
 /Egrave
 /Eacute
 /Ecircumflex
 /Edieresis
 /Igrave
 /Iacute
 /Icircumflex
 /Idieresis
 /Eth
 /Ntilde
 /Ograve
 /Oacute
 /Ocircumflex
 /Otilde
 /Odieresis
 /multiply
 /Oslash
 /Ugrave
 /Uacute
 /Ucircumflex
 /Udieresis
 /Yacute
 /Thorn
 /germandbls
 /agrave
 /aacute
 /acircumflex
 /atilde
 /adieresis
 /aring
 /ae
 /ccedilla
 /egrave
 /eacute
 /ecircumflex
 /edieresis
 /igrave
 /iacute
 /icircumflex
 /idieresis
 /eth
 /ntilde
 /ograve
 /oacute
 /ocircumflex
 /otilde
 /odieresis
 /divide
 /oslash
 /ugrave
 /uacute
 /ucircumflex
 /udieresis
 /yacute
 /thorn
 /ydieresis
] def
%%EndProlog
%%BeginSetup
%%EndSetup
%%Page: 1 1
PAGE_OFFSET_X PAGE_OFFSET_Y translate
612.00 612.00 scale
90 rotate
0.0 -1.0 translate
n
0.0000 0.0000 m
0.0000 1.0000 l
1.2941 1.0000 l
1.2941 0.0000 l
c
[/DeviceRGB] SCS
Color0 SC
fill
[/DeviceRGB] SCS
Color2 SC
[] 0 SD
0.0030 SLW
0 SLC
0 SLJ
n
0.6520 0.6868 m
0.7017 0.6975 l
0.7513 0.7080 l
0.8017 0.7184 l
0.8530 0.7293 l
0.9026 0.7393 l
0.9531 0.7493 l
1.0027 0.7590 l
1.0532 0.7684 l
1.1028 0.7778 l
s
n
0.6520 0.6868 0.0100 0.0100 0 360 EARC c
fill
[] 0 SD
0.0015 SLW
n 0.6520 0.6868 0.0100 0.0100 0 360 EARC s
n
0.7017 0.6975 0.0100 0.0100 0 360 EARC c
fill
n 0.7017 0.6975 0.0100 0.0100 0 360 EARC s
n
0.7513 0.7080 0.0100 0.0100 0 360 EARC c
fill
n 0.7513 0.7080 0.0100 0.0100 0 360 EARC s
n
0.8017 0.7184 0.0100 0.0100 0 360 EARC c
fill
n 0.8017 0.7184 0.0100 0.0100 0 360 EARC s
n
0.8530 0.7293 0.0100 0.0100 0 360 EARC c
fill
n 0.8530 0.7293 0.0100 0.0100 0 360 EARC s
n
0.9026 0.7393 0.0100 0.0100 0 360 EARC c
fill
n 0.9026 0.7393 0.0100 0.0100 0 360 EARC s
n
0.9531 0.7493 0.0100 0.0100 0 360 EARC c
fill
n 0.9531 0.7493 0.0100 0.0100 0 360 EARC s
n
1.0027 0.7590 0.0100 0.0100 0 360 EARC c
fill
n 1.0027 0.7590 0.0100 0.0100 0 360 EARC s
n
1.0532 0.7684 0.0100 0.0100 0 360 EARC c
fill
n 1.0532 0.7684 0.0100 0.0100 0 360 EARC s
n
1.1028 0.7778 0.0100 0.0100 0 360 EARC c
fill
n 1.1028 0.7778 0.0100 0.0100 0 360 EARC s
[/DeviceRGB] SCS
Color4 SC
[] 0 SD
0.0030 SLW
n
0.2501 0.5440 m
0.3005 0.5548 l
0.3510 0.5650 l
0.4014 0.5751 l
0.4511 0.5847 l
0.5015 0.5944 l
0.5511 0.6038 l
0.6016 0.6134 l
0.6520 0.6225 l
0.7017 0.6314 l
0.7521 0.6404 l
0.8026 0.6491 l
0.8530 0.6580 l
0.9026 0.6662 l
0.9523 0.6745 l
1.0027 0.6824 l
1.0540 0.6911 l
1.1028 0.6985 l
s
n
0.2416 0.5355 m
0.2416 0.5525 l
0.2586 0.5525 l
0.2586 0.5355 l
c
fill
[] 0 SD
0.0015 SLW
n
0.2416 0.5355 m
0.2416 0.5525 l
0.2586 0.5525 l
0.2586 0.5355 l
0.2416 0.5355 l
c
s
n
0.2920 0.5463 m
0.2920 0.5633 l
0.3090 0.5633 l
0.3090 0.5463 l
c
fill
n
0.2920 0.5463 m
0.2920 0.5633 l
0.3090 0.5633 l
0.3090 0.5463 l
0.2920 0.5463 l
c
s
n
0.3425 0.5565 m
0.3425 0.5735 l
0.3595 0.5735 l
0.3595 0.5565 l
c
fill
n
0.3425 0.5565 m
0.3425 0.5735 l
0.3595 0.5735 l
0.3595 0.5565 l
0.3425 0.5565 l
c
s
n
0.3929 0.5666 m
0.3929 0.5836 l
0.4099 0.5836 l
0.4099 0.5666 l
c
fill
n
0.3929 0.5666 m
0.3929 0.5836 l
0.4099 0.5836 l
0.4099 0.5666 l
0.3929 0.5666 l
c
s
n
0.4426 0.5762 m
0.4426 0.5932 l
0.4596 0.5932 l
0.4596 0.5762 l
c
fill
n
0.4426 0.5762 m
0.4426 0.5932 l
0.4596 0.5932 l
0.4596 0.5762 l
0.4426 0.5762 l
c
s
n
0.4930 0.5859 m
0.4930 0.6029 l
0.5100 0.6029 l
0.5100 0.5859 l
c
fill
n
0.4930 0.5859 m
0.4930 0.6029 l
0.5100 0.6029 l
0.5100 0.5859 l
0.4930 0.5859 l
c
s
n
0.5426 0.5953 m
0.5426 0.6123 l
0.5596 0.6123 l
0.5596 0.5953 l
c
fill
n
0.5426 0.5953 m
0.5426 0.6123 l
0.5596 0.6123 l
0.5596 0.5953 l
0.5426 0.5953 l
c
s
n
0.5931 0.6049 m
0.5931 0.6219 l
0.6101 0.6219 l
0.6101 0.6049 l
c
fill
n
0.5931 0.6049 m
0.5931 0.6219 l
0.6101 0.6219 l
0.6101 0.6049 l
0.5931 0.6049 l
c
s
n
0.6435 0.6140 m
0.6435 0.6310 l
0.6605 0.6310 l
0.6605 0.6140 l
c
fill
n
0.6435 0.6140 m
0.6435 0.6310 l
0.6605 0.6310 l
0.6605 0.6140 l
0.6435 0.6140 l
c
s
n
0.6932 0.6229 m
0.6932 0.6399 l
0.7102 0.6399 l
0.7102 0.6229 l
c
fill
n
0.6932 0.6229 m
0.6932 0.6399 l
0.7102 0.6399 l
0.7102 0.6229 l
0.6932 0.6229 l
c
s
n
0.7436 0.6319 m
0.7436 0.6489 l
0.7606 0.6489 l
0.7606 0.6319 l
c
fill
n
0.7436 0.6319 m
0.7436 0.6489 l
0.7606 0.6489 l
0.7606 0.6319 l
0.7436 0.6319 l
c
s
n
0.7941 0.6406 m
0.7941 0.6576 l
0.8111 0.6576 l
0.8111 0.6406 l
c
fill
n
0.7941 0.6406 m
0.7941 0.6576 l
0.8111 0.6576 l
0.8111 0.6406 l
0.7941 0.6406 l
c
s
n
0.8445 0.6495 m
0.8445 0.6665 l
0.8615 0.6665 l
0.8615 0.6495 l
c
fill
n
0.8445 0.6495 m
0.8445 0.6665 l
0.8615 0.6665 l
0.8615 0.6495 l
0.8445 0.6495 l
c
s
n
0.8941 0.6577 m
0.8941 0.6747 l
0.9111 0.6747 l
0.9111 0.6577 l
c
fill
n
0.8941 0.6577 m
0.8941 0.6747 l
0.9111 0.6747 l
0.9111 0.6577 l
0.8941 0.6577 l
c
s
n
0.9438 0.6660 m
0.9438 0.6830 l
0.9608 0.6830 l
0.9608 0.6660 l
c
fill
n
0.9438 0.6660 m
0.9438 0.6830 l
0.9608 0.6830 l
0.9608 0.6660 l
0.9438 0.6660 l
c
s
n
0.9942 0.6739 m
0.9942 0.6909 l
1.0112 0.6909 l
1.0112 0.6739 l
c
fill
n
0.9942 0.6739 m
0.9942 0.6909 l
1.0112 0.6909 l
1.0112 0.6739 l
0.9942 0.6739 l
c
s
n
1.0455 0.6826 m
1.0455 0.6996 l
1.0625 0.6996 l
1.0625 0.6826 l
c
fill
n
1.0455 0.6826 m
1.0455 0.6996 l
1.0625 0.6996 l
1.0625 0.6826 l
1.0455 0.6826 l
c
s
n
1.0943 0.6900 m
1.0943 0.7070 l
1.1113 0.7070 l
1.1113 0.6900 l
c
fill
n
1.0943 0.6900 m
1.0943 0.7070 l
1.1113 0.7070 l
1.1113 0.6900 l
1.0943 0.6900 l
c
s
[/DeviceRGB] SCS
Color2 SC
[] 0 SD
0.0030 SLW
n
0.6520 0.6550 m
0.7017 0.6649 l
0.7513 0.6744 l
0.8017 0.6840 l
0.8530 0.6940 l
0.9026 0.7032 l
0.9531 0.7124 l
1.0027 0.7213 l
1.0532 0.7299 l
1.1028 0.7385 l
s
n 0.6520 0.6550 0.0100 0.0100 0 360 EARC s
n 0.7017 0.6649 0.0100 0.0100 0 360 EARC s
n 0.7513 0.6744 0.0100 0.0100 0 360 EARC s
n 0.8017 0.6840 0.0100 0.0100 0 360 EARC s
n 0.8530 0.6940 0.0100 0.0100 0 360 EARC s
n 0.9026 0.7032 0.0100 0.0100 0 360 EARC s
n 0.9531 0.7124 0.0100 0.0100 0 360 EARC s
n 1.0027 0.7213 0.0100 0.0100 0 360 EARC s
n 1.0532 0.7299 0.0100 0.0100 0 360 EARC s
n 1.1028 0.7385 0.0100 0.0100 0 360 EARC s
[/DeviceRGB] SCS
Color4 SC
n
0.2501 0.5240 m
0.3005 0.5339 l
0.3510 0.5432 l
0.4014 0.5525 l
0.4511 0.5613 l
0.5015 0.5702 l
0.5511 0.5788 l
0.6016 0.5877 l
0.6520 0.5960 l
0.7017 0.6042 l
0.7521 0.6124 l
0.8026 0.6204 l
0.8530 0.6285 l
0.9026 0.6361 l
0.9523 0.6438 l
1.0027 0.6510 l
1.0540 0.6589 l
1.1028 0.6658 l
s
n
0.2416 0.5155 m
0.2416 0.5325 l
0.2586 0.5325 l
0.2586 0.5155 l
0.2416 0.5155 l
c
s
n
0.2920 0.5254 m
0.2920 0.5424 l
0.3090 0.5424 l
0.3090 0.5254 l
0.2920 0.5254 l
c
s
n
0.3425 0.5347 m
0.3425 0.5517 l
0.3595 0.5517 l
0.3595 0.5347 l
0.3425 0.5347 l
c
s
n
0.3929 0.5440 m
0.3929 0.5610 l
0.4099 0.5610 l
0.4099 0.5440 l
0.3929 0.5440 l
c
s
n
0.4426 0.5528 m
0.4426 0.5698 l
0.4596 0.5698 l
0.4596 0.5528 l
0.4426 0.5528 l
c
s
n
0.4930 0.5617 m
0.4930 0.5787 l
0.5100 0.5787 l
0.5100 0.5617 l
0.4930 0.5617 l
c
s
n
0.5426 0.5703 m
0.5426 0.5873 l
0.5596 0.5873 l
0.5596 0.5703 l
0.5426 0.5703 l
c
s
n
0.5931 0.5792 m
0.5931 0.5962 l
0.6101 0.5962 l
0.6101 0.5792 l
0.5931 0.5792 l
c
s
n
0.6435 0.5875 m
0.6435 0.6045 l
0.6605 0.6045 l
0.6605 0.5875 l
0.6435 0.5875 l
c
s
n
0.6932 0.5957 m
0.6932 0.6127 l
0.7102 0.6127 l
0.7102 0.5957 l
0.6932 0.5957 l
c
s
n
0.7436 0.6039 m
0.7436 0.6209 l
0.7606 0.6209 l
0.7606 0.6039 l
0.7436 0.6039 l
c
s
n
0.7941 0.6119 m
0.7941 0.6289 l
0.8111 0.6289 l
0.8111 0.6119 l
0.7941 0.6119 l
c
s
n
0.8445 0.6200 m
0.8445 0.6370 l
0.8615 0.6370 l
0.8615 0.6200 l
0.8445 0.6200 l
c
s
n
0.8941 0.6276 m
0.8941 0.6446 l
0.9111 0.6446 l
0.9111 0.6276 l
0.8941 0.6276 l
c
s
n
0.9438 0.6353 m
0.9438 0.6523 l
0.9608 0.6523 l
0.9608 0.6353 l
0.9438 0.6353 l
c
s
n
0.9942 0.6425 m
0.9942 0.6595 l
1.0112 0.6595 l
1.0112 0.6425 l
0.9942 0.6425 l
c
s
n
1.0455 0.6504 m
1.0455 0.6674 l
1.0625 0.6674 l
1.0625 0.6504 l
1.0455 0.6504 l
c
s
n
1.0943 0.6573 m
1.0943 0.6743 l
1.1113 0.6743 l
1.1113 0.6573 l
1.0943 0.6573 l
c
s
[/DeviceRGB] SCS
Color1 SC
[] 0 SD
0.0015 SLW
n
0.1500 0.5000 m
1.1500 0.5000 l
s
n
0.1500 0.9000 m
1.1500 0.9000 l
s
n
0.2500 0.5000 m
0.2500 0.5100 l
s
n
0.2500 0.9000 m
0.2500 0.8900 l
s
n
0.4500 0.5000 m
0.4500 0.5100 l
s
n
0.4500 0.9000 m
0.4500 0.8900 l
s
n
0.6500 0.5000 m
0.6500 0.5100 l
s
n
0.6500 0.9000 m
0.6500 0.8900 l
s
n
0.8500 0.5000 m
0.8500 0.5100 l
s
n
0.8500 0.9000 m
0.8500 0.8900 l
s
n
1.0500 0.5000 m
1.0500 0.5100 l
s
n
1.0500 0.9000 m
1.0500 0.8900 l
s
n
0.1500 0.5000 m
0.1500 0.5200 l
s
n
0.1500 0.9000 m
0.1500 0.8800 l
s
n
0.3500 0.5000 m
0.3500 0.5200 l
s
n
0.3500 0.9000 m
0.3500 0.8800 l
s
n
0.5500 0.5000 m
0.5500 0.5200 l
s
n
0.5500 0.9000 m
0.5500 0.8800 l
s
n
0.7500 0.5000 m
0.7500 0.5200 l
s
n
0.7500 0.9000 m
0.7500 0.8800 l
s
n
0.9500 0.5000 m
0.9500 0.5200 l
s
n
0.9500 0.9000 m
0.9500 0.8800 l
s
n
1.1500 0.5000 m
1.1500 0.5200 l
s
n
1.1500 0.9000 m
1.1500 0.8800 l
s
n
0.1500 0.5000 m
0.1500 0.9000 l
s
n
1.1500 0.5000 m
1.1500 0.9000 l
s
n
0.1500 0.5200 m
0.1600 0.5200 l
s
n
1.1500 0.5200 m
1.1400 0.5200 l
s
n
0.1500 0.5400 m
0.1600 0.5400 l
s
n
1.1500 0.5400 m
1.1400 0.5400 l
s
n
0.1500 0.5600 m
0.1600 0.5600 l
s
n
1.1500 0.5600 m
1.1400 0.5600 l
s
n
0.1500 0.5800 m
0.1600 0.5800 l
s
n
1.1500 0.5800 m
1.1400 0.5800 l
s
n
0.1500 0.6200 m
0.1600 0.6200 l
s
n
1.1500 0.6200 m
1.1400 0.6200 l
s
n
0.1500 0.6400 m
0.1600 0.6400 l
s
n
1.1500 0.6400 m
1.1400 0.6400 l
s
n
0.1500 0.6600 m
0.1600 0.6600 l
s
n
1.1500 0.6600 m
1.1400 0.6600 l
s
n
0.1500 0.6800 m
0.1600 0.6800 l
s
n
1.1500 0.6800 m
1.1400 0.6800 l
s
n
0.1500 0.7200 m
0.1600 0.7200 l
s
n
1.1500 0.7200 m
1.1400 0.7200 l
s
n
0.1500 0.7400 m
0.1600 0.7400 l
s
n
1.1500 0.7400 m
1.1400 0.7400 l
s
n
0.1500 0.7600 m
0.1600 0.7600 l
s
n
1.1500 0.7600 m
1.1400 0.7600 l
s
n
0.1500 0.7800 m
0.1600 0.7800 l
s
n
1.1500 0.7800 m
1.1400 0.7800 l
s
n
0.1500 0.8200 m
0.1600 0.8200 l
s
n
1.1500 0.8200 m
1.1400 0.8200 l
s
n
0.1500 0.8400 m
0.1600 0.8400 l
s
n
1.1500 0.8400 m
1.1400 0.8400 l
s
n
0.1500 0.8600 m
0.1600 0.8600 l
s
n
1.1500 0.8600 m
1.1400 0.8600 l
s
n
0.1500 0.8800 m
0.1600 0.8800 l
s
n
1.1500 0.8800 m
1.1400 0.8800 l
s
n
0.1500 0.6000 m
0.1700 0.6000 l
s
n
1.1500 0.6000 m
1.1300 0.6000 l
s
n
0.1500 0.7000 m
0.1700 0.7000 l
s
n
1.1500 0.7000 m
1.1300 0.7000 l
s
n
0.1500 0.8000 m
0.1700 0.8000 l
s
n
1.1500 0.8000 m
1.1300 0.8000 l
s
n
0.1500 0.9000 m
0.1700 0.9000 l
s
n
1.1500 0.9000 m
1.1300 0.9000 l
s
/Times-Roman findfont
dup length dict begin
 {1 index /FID ne {def} {pop pop} ifelse} forall
 /Encoding DefEncoding def
 currentdict
end
/Font34 exch definefont pop
/Font34 FFSF
0.1082 0.5886 m
GS
[0.0336 0.0000 0.0000 0.0336 0 0] CC
(15) show
GR
/Font34 FFSF
0.1071 0.6888 m
GS
[0.0336 0.0000 0.0000 0.0336 0 0] CC
(20) show
GR
/Font34 FFSF
0.1082 0.7886 m
GS
[0.0336 0.0000 0.0000 0.0336 0 0] CC
(25) show
GR
/Font34 FFSF
0.1071 0.8888 m
GS
[0.0336 0.0000 0.0000 0.0336 0 0] CC
(30) show
GR
/Font34 FFSF
0.0821 0.5939 m
GS
[0.0000 0.0364 -0.0364 0.0000 0 0] CC
(|) show
GR
/Symbol findfont
/Font30 exch definefont pop
/Font30 FFSF
0.0821 0.6014 m
GS
[0.0000 0.0364 -0.0364 0.0000 0 0] CC
(a) show
GR
/Font34 FFSF
0.0967 0.6245 m
GS
[0.0000 0.0257 -0.0257 0.0000 0 0] CC
(EdGB) show
GR
/Font34 FFSF
0.0821 0.6888 m
GS
[0.0000 0.0364 -0.0364 0.0000 0 0] CC
(|) show
GR
/Font34 FFSF
0.0603 0.6963 m
GS
[0.0000 0.0257 -0.0257 0.0000 0 0] CC
(1/2) show
GR
/Font34 FFSF
0.0821 0.7292 m
GS
[0.0000 0.0364 -0.0364 0.0000 0 0] CC
( [km]) show
GR
n
0.1500 0.5000 m
0.1500 0.9000 l
1.1500 0.9000 l
1.1500 0.5000 l
0.1500 0.5000 l
c
s
/Font34 FFSF
0.6300 0.8200 m
GS
[0.0423 0.0000 0.0000 0.0423 0 0] CC
(EdGB) show
GR
/Font34 FFSF
0.6300 0.4200 m
GS
[0.0423 0.0000 0.0000 0.0423 0 0] CC
(dCS) show
GR
[/DeviceRGB] SCS
Color2 SC
[] 0 SD
0.0030 SLW
n
0.6520 0.3003 m
0.7017 0.3133 l
0.7513 0.3259 l
0.8017 0.3385 l
0.8530 0.3517 l
0.9026 0.3637 l
0.9531 0.3758 l
1.0027 0.3875 l
1.0532 0.3988 l
1.1028 0.4102 l
s
n 0.6520 0.3003 0.0100 0.0100 0 360 EARC s
n 0.7017 0.3133 0.0100 0.0100 0 360 EARC s
n 0.7513 0.3259 0.0100 0.0100 0 360 EARC s
n 0.8017 0.3385 0.0100 0.0100 0 360 EARC s
n 0.8530 0.3517 0.0100 0.0100 0 360 EARC s
n 0.9026 0.3637 0.0100 0.0100 0 360 EARC s
n 0.9531 0.3758 0.0100 0.0100 0 360 EARC s
n 1.0027 0.3875 0.0100 0.0100 0 360 EARC s
n 1.0532 0.3988 0.0100 0.0100 0 360 EARC s
n 1.1028 0.4102 0.0100 0.0100 0 360 EARC s
n
0.6520 0.3416 m
0.7017 0.3557 l
0.7513 0.3694 l
0.8017 0.3831 l
0.8530 0.3975 l
0.9026 0.4106 l
0.9531 0.4238 l
1.0027 0.4364 l
1.0532 0.4488 l
1.1028 0.4612 l
s
n
0.6520 0.3416 0.0100 0.0100 0 360 EARC c
fill
[] 0 SD
0.0015 SLW
n 0.6520 0.3416 0.0100 0.0100 0 360 EARC s
n
0.7017 0.3557 0.0100 0.0100 0 360 EARC c
fill
n 0.7017 0.3557 0.0100 0.0100 0 360 EARC s
n
0.7513 0.3694 0.0100 0.0100 0 360 EARC c
fill
n 0.7513 0.3694 0.0100 0.0100 0 360 EARC s
n
0.8017 0.3831 0.0100 0.0100 0 360 EARC c
fill
n 0.8017 0.3831 0.0100 0.0100 0 360 EARC s
n
0.8530 0.3975 0.0100 0.0100 0 360 EARC c
fill
n 0.8530 0.3975 0.0100 0.0100 0 360 EARC s
n
0.9026 0.4106 0.0100 0.0100 0 360 EARC c
fill
n 0.9026 0.4106 0.0100 0.0100 0 360 EARC s
n
0.9531 0.4238 0.0100 0.0100 0 360 EARC c
fill
n 0.9531 0.4238 0.0100 0.0100 0 360 EARC s
n
1.0027 0.4364 0.0100 0.0100 0 360 EARC c
fill
n 1.0027 0.4364 0.0100 0.0100 0 360 EARC s
n
1.0532 0.4488 0.0100 0.0100 0 360 EARC c
fill
n 1.0532 0.4488 0.0100 0.0100 0 360 EARC s
n
1.1028 0.4612 0.0100 0.0100 0 360 EARC c
fill
n 1.1028 0.4612 0.0100 0.0100 0 360 EARC s
[/DeviceRGB] SCS
Color4 SC
[] 0 SD
0.0030 SLW
n
0.2501 0.1280 m
0.3005 0.1410 l
0.3510 0.1533 l
0.4014 0.1654 l
0.4511 0.1770 l
0.5015 0.1887 l
0.5511 0.2001 l
0.6016 0.2118 l
0.6520 0.2228 l
0.7017 0.2334 l
0.7521 0.2443 l
0.8026 0.2548 l
0.8530 0.2655 l
0.9026 0.2755 l
0.9523 0.2855 l
1.0027 0.2951 l
1.0540 0.3055 l
1.1028 0.3145 l
s
n
0.2412 0.1191 m
0.2412 0.1368 l
0.2589 0.1368 l
0.2589 0.1191 l
0.2412 0.1191 l
c
s
n
0.2917 0.1321 m
0.2917 0.1498 l
0.3094 0.1498 l
0.3094 0.1321 l
0.2917 0.1321 l
c
s
n
0.3421 0.1444 m
0.3421 0.1621 l
0.3598 0.1621 l
0.3598 0.1444 l
0.3421 0.1444 l
c
s
n
0.3926 0.1566 m
0.3926 0.1743 l
0.4103 0.1743 l
0.4103 0.1566 l
0.3926 0.1566 l
c
s
n
0.4422 0.1682 m
0.4422 0.1859 l
0.4599 0.1859 l
0.4599 0.1682 l
0.4422 0.1682 l
c
s
n
0.4927 0.1799 m
0.4927 0.1976 l
0.5103 0.1976 l
0.5103 0.1799 l
0.4927 0.1799 l
c
s
n
0.5423 0.1913 m
0.5423 0.2090 l
0.5600 0.2090 l
0.5600 0.1913 l
0.5423 0.1913 l
c
s
n
0.5927 0.2029 m
0.5927 0.2206 l
0.6104 0.2206 l
0.6104 0.2029 l
0.5927 0.2029 l
c
s
n
0.6432 0.2139 m
0.6432 0.2316 l
0.6609 0.2316 l
0.6609 0.2139 l
0.6432 0.2139 l
c
s
n
0.6928 0.2246 m
0.6928 0.2423 l
0.7105 0.2423 l
0.7105 0.2246 l
0.6928 0.2246 l
c
s
n
0.7433 0.2354 m
0.7433 0.2531 l
0.7610 0.2531 l
0.7610 0.2354 l
0.7433 0.2354 l
c
s
n
0.7937 0.2460 m
0.7937 0.2637 l
0.8114 0.2637 l
0.8114 0.2460 l
0.7937 0.2460 l
c
s
n
0.8442 0.2567 m
0.8442 0.2744 l
0.8619 0.2744 l
0.8619 0.2567 l
0.8442 0.2567 l
c
s
n
0.8938 0.2667 m
0.8938 0.2844 l
0.9115 0.2844 l
0.9115 0.2667 l
0.8938 0.2667 l
c
s
n
0.9434 0.2767 m
0.9434 0.2944 l
0.9611 0.2944 l
0.9611 0.2767 l
0.9434 0.2767 l
c
s
n
0.9939 0.2862 m
0.9939 0.3039 l
1.0116 0.3039 l
1.0116 0.2862 l
0.9939 0.2862 l
c
s
n
1.0451 0.2966 m
1.0451 0.3143 l
1.0628 0.3143 l
1.0628 0.2966 l
1.0451 0.2966 l
c
s
n
1.0940 0.3057 m
1.0940 0.3233 l
1.1116 0.3233 l
1.1116 0.3057 l
1.0940 0.3057 l
c
s
n
0.2501 0.1540 m
0.3005 0.1681 l
0.3510 0.1815 l
0.4014 0.1948 l
0.4511 0.2074 l
0.5015 0.2201 l
0.5511 0.2326 l
0.6016 0.2452 l
0.6520 0.2572 l
0.7017 0.2688 l
0.7521 0.2806 l
0.8026 0.2921 l
0.8530 0.3037 l
0.9026 0.3146 l
0.9523 0.3255 l
1.0027 0.3359 l
1.0540 0.3472 l
1.1028 0.3570 l
s
n
0.2416 0.1455 m
0.2416 0.1625 l
0.2586 0.1625 l
0.2586 0.1455 l
c
fill
[] 0 SD
0.0015 SLW
n
0.2416 0.1455 m
0.2416 0.1625 l
0.2586 0.1625 l
0.2586 0.1455 l
0.2416 0.1455 l
c
s
n
0.2920 0.1596 m
0.2920 0.1766 l
0.3090 0.1766 l
0.3090 0.1596 l
c
fill
n
0.2920 0.1596 m
0.2920 0.1766 l
0.3090 0.1766 l
0.3090 0.1596 l
0.2920 0.1596 l
c
s
n
0.3425 0.1730 m
0.3425 0.1900 l
0.3595 0.1900 l
0.3595 0.1730 l
c
fill
n
0.3425 0.1730 m
0.3425 0.1900 l
0.3595 0.1900 l
0.3595 0.1730 l
0.3425 0.1730 l
c
s
n
0.3929 0.1863 m
0.3929 0.2033 l
0.4099 0.2033 l
0.4099 0.1863 l
c
fill
n
0.3929 0.1863 m
0.3929 0.2033 l
0.4099 0.2033 l
0.4099 0.1863 l
0.3929 0.1863 l
c
s
n
0.4426 0.1989 m
0.4426 0.2159 l
0.4596 0.2159 l
0.4596 0.1989 l
c
fill
n
0.4426 0.1989 m
0.4426 0.2159 l
0.4596 0.2159 l
0.4596 0.1989 l
0.4426 0.1989 l
c
s
n
0.4930 0.2116 m
0.4930 0.2286 l
0.5100 0.2286 l
0.5100 0.2116 l
c
fill
n
0.4930 0.2116 m
0.4930 0.2286 l
0.5100 0.2286 l
0.5100 0.2116 l
0.4930 0.2116 l
c
s
n
0.5426 0.2241 m
0.5426 0.2411 l
0.5596 0.2411 l
0.5596 0.2241 l
c
fill
n
0.5426 0.2241 m
0.5426 0.2411 l
0.5596 0.2411 l
0.5596 0.2241 l
0.5426 0.2241 l
c
s
n
0.5931 0.2367 m
0.5931 0.2537 l
0.6101 0.2537 l
0.6101 0.2367 l
c
fill
n
0.5931 0.2367 m
0.5931 0.2537 l
0.6101 0.2537 l
0.6101 0.2367 l
0.5931 0.2367 l
c
s
n
0.6435 0.2487 m
0.6435 0.2657 l
0.6605 0.2657 l
0.6605 0.2487 l
c
fill
n
0.6435 0.2487 m
0.6435 0.2657 l
0.6605 0.2657 l
0.6605 0.2487 l
0.6435 0.2487 l
c
s
n
0.6932 0.2603 m
0.6932 0.2773 l
0.7102 0.2773 l
0.7102 0.2603 l
c
fill
n
0.6932 0.2603 m
0.6932 0.2773 l
0.7102 0.2773 l
0.7102 0.2603 l
0.6932 0.2603 l
c
s
n
0.7436 0.2721 m
0.7436 0.2891 l
0.7606 0.2891 l
0.7606 0.2721 l
c
fill
n
0.7436 0.2721 m
0.7436 0.2891 l
0.7606 0.2891 l
0.7606 0.2721 l
0.7436 0.2721 l
c
s
n
0.7941 0.2836 m
0.7941 0.3006 l
0.8111 0.3006 l
0.8111 0.2836 l
c
fill
n
0.7941 0.2836 m
0.7941 0.3006 l
0.8111 0.3006 l
0.8111 0.2836 l
0.7941 0.2836 l
c
s
n
0.8445 0.2952 m
0.8445 0.3122 l
0.8615 0.3122 l
0.8615 0.2952 l
c
fill
n
0.8445 0.2952 m
0.8445 0.3122 l
0.8615 0.3122 l
0.8615 0.2952 l
0.8445 0.2952 l
c
s
n
0.8941 0.3061 m
0.8941 0.3231 l
0.9111 0.3231 l
0.9111 0.3061 l
c
fill
n
0.8941 0.3061 m
0.8941 0.3231 l
0.9111 0.3231 l
0.9111 0.3061 l
0.8941 0.3061 l
c
s
n
0.9438 0.3170 m
0.9438 0.3340 l
0.9608 0.3340 l
0.9608 0.3170 l
c
fill
n
0.9438 0.3170 m
0.9438 0.3340 l
0.9608 0.3340 l
0.9608 0.3170 l
0.9438 0.3170 l
c
s
n
0.9942 0.3274 m
0.9942 0.3444 l
1.0112 0.3444 l
1.0112 0.3274 l
c
fill
n
0.9942 0.3274 m
0.9942 0.3444 l
1.0112 0.3444 l
1.0112 0.3274 l
0.9942 0.3274 l
c
s
n
1.0455 0.3387 m
1.0455 0.3557 l
1.0625 0.3557 l
1.0625 0.3387 l
c
fill
n
1.0455 0.3387 m
1.0455 0.3557 l
1.0625 0.3557 l
1.0625 0.3387 l
1.0455 0.3387 l
c
s
n
1.0943 0.3485 m
1.0943 0.3655 l
1.1113 0.3655 l
1.1113 0.3485 l
c
fill
n
1.0943 0.3485 m
1.0943 0.3655 l
1.1113 0.3655 l
1.1113 0.3485 l
1.0943 0.3485 l
c
s
[/DeviceRGB] SCS
Color1 SC
n
0.1500 0.1000 m
1.1500 0.1000 l
s
n
0.1500 0.5000 m
1.1500 0.5000 l
s
n
0.2500 0.1000 m
0.2500 0.1100 l
s
n
0.2500 0.5000 m
0.2500 0.4900 l
s
n
0.4500 0.1000 m
0.4500 0.1100 l
s
n
0.4500 0.5000 m
0.4500 0.4900 l
s
n
0.6500 0.1000 m
0.6500 0.1100 l
s
n
0.6500 0.5000 m
0.6500 0.4900 l
s
n
0.8500 0.1000 m
0.8500 0.1100 l
s
n
0.8500 0.5000 m
0.8500 0.4900 l
s
n
1.0500 0.1000 m
1.0500 0.1100 l
s
n
1.0500 0.5000 m
1.0500 0.4900 l
s
n
0.1500 0.1000 m
0.1500 0.1200 l
s
n
0.1500 0.5000 m
0.1500 0.4800 l
s
n
0.3500 0.1000 m
0.3500 0.1200 l
s
n
0.3500 0.5000 m
0.3500 0.4800 l
s
n
0.5500 0.1000 m
0.5500 0.1200 l
s
n
0.5500 0.5000 m
0.5500 0.4800 l
s
n
0.7500 0.1000 m
0.7500 0.1200 l
s
n
0.7500 0.5000 m
0.7500 0.4800 l
s
n
0.9500 0.1000 m
0.9500 0.1200 l
s
n
0.9500 0.5000 m
0.9500 0.4800 l
s
n
1.1500 0.1000 m
1.1500 0.1200 l
s
n
1.1500 0.5000 m
1.1500 0.4800 l
s
/Font34 FFSF
0.1335 0.0673 m
GS
[0.0336 0.0000 0.0000 0.0336 0 0] CC
(30) show
GR
/Font34 FFSF
0.3335 0.0673 m
GS
[0.0336 0.0000 0.0000 0.0336 0 0] CC
(40) show
GR
/Font34 FFSF
0.5335 0.0669 m
GS
[0.0336 0.0000 0.0000 0.0336 0 0] CC
(50) show
GR
/Font34 FFSF
0.7335 0.0669 m
GS
[0.0336 0.0000 0.0000 0.0336 0 0] CC
(60) show
GR
/Font34 FFSF
0.9335 0.0673 m
GS
[0.0336 0.0000 0.0000 0.0336 0 0] CC
(70) show
GR
/Font34 FFSF
1.1335 0.0673 m
GS
[0.0336 0.0000 0.0000 0.0336 0 0] CC
(80) show
GR
/Font34 FFSF
0.5933 0.0325 m
GS
[0.0364 0.0000 0.0000 0.0364 0 0] CC
(M [M) show
GR
/Font34 FFSF
0.6792 0.0180 m
GS
[0.0257 0.0000 0.0000 0.0257 0 0] CC
(O) show
GR
/Font34 FFSF
0.6976 0.0325 m
GS
[0.0364 0.0000 0.0000 0.0364 0 0] CC
(]) show
GR
/Font34 FFSF
0.6843 0.0253 m
GS
[0.0364 0.0000 0.0000 0.0364 0 0] CC
(.) show
GR
n
0.1500 0.1000 m
0.1500 0.5000 l
s
n
1.1500 0.1000 m
1.1500 0.5000 l
s
n
0.1500 0.1267 m
0.1600 0.1267 l
s
n
1.1500 0.1267 m
1.1400 0.1267 l
s
n
0.1500 0.1533 m
0.1600 0.1533 l
s
n
1.1500 0.1533 m
1.1400 0.1533 l
s
n
0.1500 0.1800 m
0.1600 0.1800 l
s
n
1.1500 0.1800 m
1.1400 0.1800 l
s
n
0.1500 0.2067 m
0.1600 0.2067 l
s
n
1.1500 0.2067 m
1.1400 0.2067 l
s
n
0.1500 0.2600 m
0.1600 0.2600 l
s
n
1.1500 0.2600 m
1.1400 0.2600 l
s
n
0.1500 0.2867 m
0.1600 0.2867 l
s
n
1.1500 0.2867 m
1.1400 0.2867 l
s
n
0.1500 0.3133 m
0.1600 0.3133 l
s
n
1.1500 0.3133 m
1.1400 0.3133 l
s
n
0.1500 0.3400 m
0.1600 0.3400 l
s
n
1.1500 0.3400 m
1.1400 0.3400 l
s
n
0.1500 0.3933 m
0.1600 0.3933 l
s
n
1.1500 0.3933 m
1.1400 0.3933 l
s
n
0.1500 0.4200 m
0.1600 0.4200 l
s
n
1.1500 0.4200 m
1.1400 0.4200 l
s
n
0.1500 0.4467 m
0.1600 0.4467 l
s
n
1.1500 0.4467 m
1.1400 0.4467 l
s
n
0.1500 0.4733 m
0.1600 0.4733 l
s
n
1.1500 0.4733 m
1.1400 0.4733 l
s
n
0.1500 0.1000 m
0.1700 0.1000 l
s
n
1.1500 0.1000 m
1.1300 0.1000 l
s
n
0.1500 0.2333 m
0.1700 0.2333 l
s
n
1.1500 0.2333 m
1.1300 0.2333 l
s
n
0.1500 0.3667 m
0.1700 0.3667 l
s
n
1.1500 0.3667 m
1.1300 0.3667 l
s
/Font34 FFSF
0.1071 0.0888 m
GS
[0.0336 0.0000 0.0000 0.0336 0 0] CC
(20) show
GR
/Font34 FFSF
0.1071 0.2222 m
GS
[0.0336 0.0000 0.0000 0.0336 0 0] CC
(30) show
GR
/Font34 FFSF
0.1071 0.3555 m
GS
[0.0336 0.0000 0.0000 0.0336 0 0] CC
(40) show
GR
/Font34 FFSF
0.0821 0.2039 m
GS
[0.0000 0.0364 -0.0364 0.0000 0 0] CC
(|) show
GR
/Font30 FFSF
0.0821 0.2114 m
GS
[0.0000 0.0364 -0.0364 0.0000 0 0] CC
(a) show
GR
/Font34 FFSF
0.0967 0.2345 m
GS
[0.0000 0.0257 -0.0257 0.0000 0 0] CC
(dCS) show
GR
/Font34 FFSF
0.0821 0.2788 m
GS
[0.0000 0.0364 -0.0364 0.0000 0 0] CC
(|) show
GR
/Font34 FFSF
0.0603 0.2863 m
GS
[0.0000 0.0257 -0.0257 0.0000 0 0] CC
(1/2) show
GR
/Font34 FFSF
0.0821 0.3192 m
GS
[0.0000 0.0364 -0.0364 0.0000 0 0] CC
( [km]) show
GR
n
0.1500 0.1000 m
0.1500 0.5000 l
1.1500 0.5000 l
1.1500 0.1000 l
0.1500 0.1000 l
c
s
n
0.1800 0.8700 m
0.1800 0.6197 l
0.4982 0.6197 l
0.4982 0.8700 l
c
[/DeviceRGB] SCS
Color0 SC
fill
[/DeviceRGB] SCS
Color1 SC
n
0.1800 0.8700 m
0.1800 0.6197 l
0.4982 0.6197 l
0.4982 0.8700 l
0.1800 0.8700 l
c
s
/Font30 FFSF
0.2219 0.8238 m
GS
[0.0336 0.0000 0.0000 0.0336 0 0] CC
( q ) show
GR
/Font34 FFSF
0.2560 0.8103 m
GS
[0.0238 0.0000 0.0000 0.0238 0 0] CC
(s) show
GR
/Font34 FFSF
0.2654 0.8238 m
GS
[0.0336 0.0000 0.0000 0.0336 0 0] CC
( = 20) show
GR
/Font34 FFSF
0.3348 0.8439 m
GS
[0.0238 0.0000 0.0000 0.0238 0 0] CC
(o) show
GR
/Font34 FFSF
0.3466 0.8238 m
GS
[0.0336 0.0000 0.0000 0.0336 0 0] CC
(  \() show
GR
/Font30 FFSF
0.3744 0.8238 m
GS
[0.0336 0.0000 0.0000 0.0336 0 0] CC
( c) show
GR
/Font34 FFSF
0.4011 0.8439 m
GS
[0.0238 0.0000 0.0000 0.0238 0 0] CC
(2) show
GR
/Font34 FFSF
0.4129 0.8238 m
GS
[0.0336 0.0000 0.0000 0.0336 0 0] CC
( \)) show
GR
[/DeviceRGB] SCS
Color2 SC
[] 0 SD
0.0030 SLW
n 0.2015 0.8350 0.0100 0.0100 0 360 EARC s
/Font30 FFSF
[/DeviceRGB] SCS
Color1 SC
0.2219 0.7637 m
GS
[0.0336 0.0000 0.0000 0.0336 0 0] CC
( q ) show
GR
/Font34 FFSF
0.2560 0.7503 m
GS
[0.0238 0.0000 0.0000 0.0238 0 0] CC
(s) show
GR
/Font34 FFSF
0.2654 0.7637 m
GS
[0.0336 0.0000 0.0000 0.0336 0 0] CC
( = 20) show
GR
/Font34 FFSF
0.3348 0.7839 m
GS
[0.0238 0.0000 0.0000 0.0238 0 0] CC
(o) show
GR
/Font34 FFSF
0.3466 0.7637 m
GS
[0.0336 0.0000 0.0000 0.0336 0 0] CC
( \() show
GR
/Font30 FFSF
0.3662 0.7637 m
GS
[0.0336 0.0000 0.0000 0.0336 0 0] CC
( c) show
GR
/Font34 FFSF
0.3929 0.7839 m
GS
[0.0238 0.0000 0.0000 0.0238 0 0] CC
(2) show
GR
/Font34 FFSF
0.4046 0.7637 m
GS
[0.0336 0.0000 0.0000 0.0336 0 0] CC
( + ) show
GR
/Font30 FFSF
0.4403 0.7637 m
GS
[0.0336 0.0000 0.0000 0.0336 0 0] CC
( c) show
GR
/Font34 FFSF
0.4670 0.7839 m
GS
[0.0238 0.0000 0.0000 0.0238 0 0] CC
(4) show
GR
/Font34 FFSF
0.4788 0.7637 m
GS
[0.0336 0.0000 0.0000 0.0336 0 0] CC
(\)) show
GR
n
0.2015 0.7749 0.0100 0.0100 0 360 EARC c
[/DeviceRGB] SCS
Color2 SC
fill
[] 0 SD
0.0015 SLW
n 0.2015 0.7749 0.0100 0.0100 0 360 EARC s
/Font30 FFSF
[/DeviceRGB] SCS
Color1 SC
0.2219 0.7036 m
GS
[0.0336 0.0000 0.0000 0.0336 0 0] CC
( q ) show
GR
/Font34 FFSF
0.2560 0.6902 m
GS
[0.0238 0.0000 0.0000 0.0238 0 0] CC
(s) show
GR
/Font34 FFSF
0.2654 0.7036 m
GS
[0.0336 0.0000 0.0000 0.0336 0 0] CC
( = 45) show
GR
/Font34 FFSF
0.3348 0.7238 m
GS
[0.0238 0.0000 0.0000 0.0238 0 0] CC
(o) show
GR
/Font34 FFSF
0.3466 0.7036 m
GS
[0.0336 0.0000 0.0000 0.0336 0 0] CC
(  \() show
GR
/Font30 FFSF
0.3744 0.7036 m
GS
[0.0336 0.0000 0.0000 0.0336 0 0] CC
( c) show
GR
/Font34 FFSF
0.4011 0.7238 m
GS
[0.0238 0.0000 0.0000 0.0238 0 0] CC
(2) show
GR
/Font34 FFSF
0.4129 0.7036 m
GS
[0.0336 0.0000 0.0000 0.0336 0 0] CC
( \)) show
GR
[/DeviceRGB] SCS
Color4 SC
[] 0 SD
0.0030 SLW
n
0.1927 0.7060 m
0.1927 0.7237 l
0.2103 0.7237 l
0.2103 0.7060 l
0.1927 0.7060 l
c
s
/Font30 FFSF
[/DeviceRGB] SCS
Color1 SC
0.2219 0.6435 m
GS
[0.0336 0.0000 0.0000 0.0336 0 0] CC
( q ) show
GR
/Font34 FFSF
0.2560 0.6301 m
GS
[0.0238 0.0000 0.0000 0.0238 0 0] CC
(s) show
GR
/Font34 FFSF
0.2654 0.6435 m
GS
[0.0336 0.0000 0.0000 0.0336 0 0] CC
( = 45) show
GR
/Font34 FFSF
0.3348 0.6637 m
GS
[0.0238 0.0000 0.0000 0.0238 0 0] CC
(o) show
GR
/Font34 FFSF
0.3466 0.6435 m
GS
[0.0336 0.0000 0.0000 0.0336 0 0] CC
( \() show
GR
/Font30 FFSF
0.3662 0.6435 m
GS
[0.0336 0.0000 0.0000 0.0336 0 0] CC
( c) show
GR
/Font34 FFSF
0.3929 0.6637 m
GS
[0.0238 0.0000 0.0000 0.0238 0 0] CC
(2) show
GR
/Font34 FFSF
0.4046 0.6435 m
GS
[0.0336 0.0000 0.0000 0.0336 0 0] CC
( + ) show
GR
/Font30 FFSF
0.4403 0.6435 m
GS
[0.0336 0.0000 0.0000 0.0336 0 0] CC
( c) show
GR
/Font34 FFSF
0.4670 0.6637 m
GS
[0.0238 0.0000 0.0000 0.0238 0 0] CC
(4) show
GR
/Font34 FFSF
0.4788 0.6435 m
GS
[0.0336 0.0000 0.0000 0.0336 0 0] CC
(\)) show
GR
n
0.1930 0.6463 m
0.1930 0.6633 l
0.2100 0.6633 l
0.2100 0.6463 l
c
[/DeviceRGB] SCS
Color4 SC
fill
[] 0 SD
0.0015 SLW
n
0.1930 0.6463 m
0.1930 0.6633 l
0.2100 0.6633 l
0.2100 0.6463 l
0.1930 0.6463 l
c
s
showpage
%%PageTrailer
%%Trailer
%%DocumentNeededResources: font Symbol
%%+ font Times-Roman
%%EOF
