%!PS-Adobe-3.0
%%BoundingBox: 0 0 612 792
%%LanguageLevel: 2
%%Creator: Grace-5.1.25
%%CreationDate: Fri May  4 12:45:15 2018
%%DocumentData: Clean8Bit
%%Orientation: Landscape
%%Pages: 1
%%PageOrder: Ascend
%%Title: /home/bseymour/bh-pulsar/Paper_Graphs/Xmgrace Files/Gamma_Ratio.agr
%%For: bseymour
%%DocumentNeededResources: (atend)
%%EndComments
%%BeginProlog
/PAGE_OFFSET_X 0 def
/PAGE_OFFSET_Y 0 def
/m {moveto} def
/l {lineto} def
/s {stroke} def
/n {newpath} def
/c {closepath} def
/RL {rlineto} def
/SLW {setlinewidth} def
/GS {gsave} def
/GR {grestore} def
/SC {setcolor} def
/SGRY {setgray} def
/SRGB {setrgbcolor} def
/SD {setdash} def
/SLC {setlinecap} def
/SLJ {setlinejoin} def
/SCS {setcolorspace} def
/FFSF {findfont setfont} def
/CC {concat} def
/PXL {n m 0 0 RL s} def
/Color0 {1.0000 1.0000 1.0000} def
/Color1 {0.0000 0.0000 0.0000} def
/Color2 {1.0000 0.0000 0.0000} def
/Color3 {0.0000 1.0000 0.0000} def
/Color4 {0.0000 0.0000 1.0000} def
/Color5 {1.0000 1.0000 0.0000} def
/Color6 {0.7373 0.5608 0.5608} def
/Color7 {0.8627 0.8627 0.8627} def
/Color8 {0.5804 0.0000 0.8275} def
/Color9 {0.0000 1.0000 1.0000} def
/Color10 {1.0000 0.0000 1.0000} def
/Color11 {1.0000 0.6471 0.0000} def
/Color12 {0.4471 0.1294 0.7373} def
/Color13 {0.4039 0.0275 0.2824} def
/Color14 {0.2510 0.8784 0.8157} def
/Color15 {0.0000 0.5451 0.0000} def
/Color16 {0.7529 0.7529 0.7529} def
/Color17 {0.5059 0.5059 0.5059} def
/Color18 {0.2588 0.2588 0.2588} def
/PTRN {
 /pat_bits exch def 
 <<
  /PaintType 2
  /PatternType 1 /TilingType 1
  /BBox[0 0 16 16]
  /XStep 16 /YStep 16
  /PaintProc {
   pop
   16 16 true [-1 0 0 -1 16 16] pat_bits imagemask
  }
 >>
 [0.0016 0 0 0.0016 0 0]
 makepattern
} def
/Pattern0 {<0000000000000000000000000000000000000000000000000000000000000000> PTRN} bind def
/Pattern1 {<ffffffffffffffffffffffffffffffffffffffffffffffffffffffffffffffff> PTRN} bind def
/Pattern2 {<eeeeffffbbbbffffeeeeffffbbbbffffeeeeffffbbbbffffeeeeffffbbbbffff> PTRN} bind def
/Pattern3 {<eeeebbbbeeeebbbbeeeebbbbeeeebbbbeeeebbbbeeeebbbbeeeebbbbeeeebbbb> PTRN} bind def
/Pattern4 {<5555aaaa5555aaaa5555aaaa5555aaaa5555aaaa5555aaaa5555aaaa5555aaaa> PTRN} bind def
/Pattern5 {<1111444411114444111144441111444411114444111144441111444411114444> PTRN} bind def
/Pattern6 {<1111000044440000111100004444000011110000444400001111000044440000> PTRN} bind def
/Pattern7 {<1010000000000000010100000000000010100000000000000101000000000000> PTRN} bind def
/Pattern8 {<0000000000000000000000000000000000000000000000000000000000000000> PTRN} bind def
/Pattern9 {<1e1e0f0f8787c3c3e1e1f0f078783c3c1e1e0f0f8787c3c3e1e1f0f078783c3c> PTRN} bind def
/Pattern10 {<7878f0f0e1e1c3c387870f0f1e1e3c3c7878f0f0e1e1c3c387870f0f1e1e3c3c> PTRN} bind def
/Pattern11 {<3333333333333333333333333333333333333333333333333333333333333333> PTRN} bind def
/Pattern12 {<ffffffff00000000ffffffff00000000ffffffff00000000ffffffff00000000> PTRN} bind def
/Pattern13 {<8181424224241818181824244242818181814242242418181818242442428181> PTRN} bind def
/Pattern14 {<8080404020201010080804040202010180804040202010100808040402020101> PTRN} bind def
/Pattern15 {<0101020204040808101020204040808001010202040408081010202040408080> PTRN} bind def
/Pattern16 {<2222222222222222222222222222222222222222222222222222222222222222> PTRN} bind def
/Pattern17 {<0000ffff000000000000ffff000000000000ffff000000000000ffff00000000> PTRN} bind def
/Pattern18 {<2222ffff222222222222ffff222222222222ffff222222222222ffff22222222> PTRN} bind def
/Pattern19 {<ffffffff33333333ffffffff33333333ffffffff33333333ffffffff33333333> PTRN} bind def
/Pattern20 {<0f0f0f0f0f0f0f0ff0f0f0f0f0f0f0f00f0f0f0f0f0f0f0ff0f0f0f0f0f0f0f0> PTRN} bind def
/Pattern21 {<ff00ff00ff00ff00ff00ff00ff00ff0000ff00ff00ff00ff00ff00ff00ff00ff> PTRN} bind def
/Pattern22 {<8001800180018001800180018001ffffffff8001800180018001800180018001> PTRN} bind def
/Pattern23 {<c003c003c003c003c003c003ffffffffffffffffc003c003c003c003c003c003> PTRN} bind def
/Pattern24 {<040404040404ffff404040404040ffff040404040404ffff404040404040ffff> PTRN} bind def
/Pattern25 {<180018001800180018001800ffffffff001800180018001800180018ffffffff> PTRN} bind def
/Pattern26 {<1111b8b87c7c3a3a1111a3a3c7c78b8b1111b8b87c7c3a3a1111a3a3c7c78b8b> PTRN} bind def
/Pattern27 {<101010102828c7c70101010182827c7c101010102828c7c70101010182827c7c> PTRN} bind def
/Pattern28 {<1c1c121211112121c1c12121111112121c1c121211112121c1c1212111111212> PTRN} bind def
/Pattern29 {<3e3e414180808080e3e31414080808083e3e414180808080e3e3141408080808> PTRN} bind def
/Pattern30 {<4848888884848383848488884848383848488888848483838484888848483838> PTRN} bind def
/Pattern31 {<03030404080808080c0c12122121c0c003030404080808080c0c12122121c0c0> PTRN} bind def
/ellipsedict 8 dict def
ellipsedict /mtrx matrix put
/EARC {
 ellipsedict begin
  /endangle exch def
  /startangle exch def
  /yrad exch def
  /xrad exch def
  /y exch def
  /x exch def
  /savematrix mtrx currentmatrix def
  x y translate
  xrad yrad scale
  0 0 1 startangle endangle arc
  savematrix setmatrix
 end
} def
/TL {
  /kcomp exch def
  /linewidth exch def
  /offset exch def
  GS
  0 offset rmoveto
  linewidth SLW
  dup stringwidth exch kcomp add exch RL s
  GR
} def
/KINIT
{
 /kvector exch def
 /kid 0 def
} def
/KPROC
{
 pop pop
 kvector kid get
 0 rmoveto
 /kid 1 kid add def
} def
/DefEncoding [
 /.notdef
 /.notdef
 /.notdef
 /.notdef
 /.notdef
 /.notdef
 /.notdef
 /.notdef
 /.notdef
 /.notdef
 /.notdef
 /.notdef
 /.notdef
 /.notdef
 /.notdef
 /.notdef
 /.notdef
 /.notdef
 /.notdef
 /.notdef
 /.notdef
 /.notdef
 /.notdef
 /.notdef
 /.notdef
 /.notdef
 /.notdef
 /.notdef
 /.notdef
 /.notdef
 /.notdef
 /.notdef
 /space
 /exclam
 /quotedbl
 /numbersign
 /dollar
 /percent
 /ampersand
 /quoteright
 /parenleft
 /parenright
 /asterisk
 /plus
 /comma
 /hyphen
 /period
 /slash
 /zero
 /one
 /two
 /three
 /four
 /five
 /six
 /seven
 /eight
 /nine
 /colon
 /semicolon
 /less
 /equal
 /greater
 /question
 /at
 /A
 /B
 /C
 /D
 /E
 /F
 /G
 /H
 /I
 /J
 /K
 /L
 /M
 /N
 /O
 /P
 /Q
 /R
 /S
 /T
 /U
 /V
 /W
 /X
 /Y
 /Z
 /bracketleft
 /backslash
 /bracketright
 /asciicircum
 /underscore
 /grave
 /a
 /b
 /c
 /d
 /e
 /f
 /g
 /h
 /i
 /j
 /k
 /l
 /m
 /n
 /o
 /p
 /q
 /r
 /s
 /t
 /u
 /v
 /w
 /x
 /y
 /z
 /braceleft
 /bar
 /braceright
 /asciitilde
 /.notdef
 /.notdef
 /.notdef
 /.notdef
 /.notdef
 /.notdef
 /.notdef
 /.notdef
 /.notdef
 /.notdef
 /.notdef
 /.notdef
 /.notdef
 /.notdef
 /.notdef
 /.notdef
 /.notdef
 /.notdef
 /.notdef
 /.notdef
 /.notdef
 /.notdef
 /.notdef
 /.notdef
 /.notdef
 /.notdef
 /.notdef
 /.notdef
 /.notdef
 /.notdef
 /.notdef
 /.notdef
 /.notdef
 /space
 /exclamdown
 /cent
 /sterling
 /currency
 /yen
 /brokenbar
 /section
 /dieresis
 /copyright
 /ordfeminine
 /guillemotleft
 /logicalnot
 /hyphen
 /registered
 /macron
 /degree
 /plusminus
 /twosuperior
 /threesuperior
 /acute
 /mu
 /paragraph
 /periodcentered
 /cedilla
 /onesuperior
 /ordmasculine
 /guillemotright
 /onequarter
 /onehalf
 /threequarters
 /questiondown
 /Agrave
 /Aacute
 /Acircumflex
 /Atilde
 /Adieresis
 /Aring
 /AE
 /Ccedilla
 /Egrave
 /Eacute
 /Ecircumflex
 /Edieresis
 /Igrave
 /Iacute
 /Icircumflex
 /Idieresis
 /Eth
 /Ntilde
 /Ograve
 /Oacute
 /Ocircumflex
 /Otilde
 /Odieresis
 /multiply
 /Oslash
 /Ugrave
 /Uacute
 /Ucircumflex
 /Udieresis
 /Yacute
 /Thorn
 /germandbls
 /agrave
 /aacute
 /acircumflex
 /atilde
 /adieresis
 /aring
 /ae
 /ccedilla
 /egrave
 /eacute
 /ecircumflex
 /edieresis
 /igrave
 /iacute
 /icircumflex
 /idieresis
 /eth
 /ntilde
 /ograve
 /oacute
 /ocircumflex
 /otilde
 /odieresis
 /divide
 /oslash
 /ugrave
 /uacute
 /ucircumflex
 /udieresis
 /yacute
 /thorn
 /ydieresis
] def
%%EndProlog
%%BeginSetup
%%EndSetup
%%Page: 1 1
PAGE_OFFSET_X PAGE_OFFSET_Y translate
612.00 612.00 scale
90 rotate
0.0 -1.0 translate
n
0.0000 0.0000 m
0.0000 1.0000 l
1.2941 1.0000 l
1.2941 0.0000 l
c
[/DeviceRGB] SCS
Color0 SC
fill
[/DeviceRGB] SCS
Color10 SC
[0.0300 0.0180 0.0060 0.0180 0.0300 0.0180 ] 0 SD
0.0060 SLW
0 SLC
0 SLJ
n
0.1500 0.4500 m
1.1500 0.4500 l
s
[/DeviceRGB] SCS
Color2 SC
[0.0060 0.0180 ] 0 SD
0.0060 SLW
n
0.1500 0.2645 m
0.1767 0.2784 l
0.2033 0.2923 l
0.2300 0.3062 l
0.2567 0.3201 l
0.2833 0.3340 l
0.3100 0.3479 l
0.3367 0.3618 l
0.3633 0.3757 l
0.3900 0.3896 l
0.4167 0.4035 l
0.4433 0.4174 l
0.4700 0.4313 l
0.4967 0.4452 l
0.5233 0.4591 l
0.5500 0.4730 l
0.5767 0.4869 l
0.6033 0.5008 l
0.6300 0.5147 l
0.6567 0.5286 l
0.6833 0.5425 l
0.7100 0.5564 l
0.7367 0.5703 l
0.7633 0.5842 l
0.7900 0.5981 l
0.8167 0.6120 l
0.8433 0.6258 l
0.8700 0.6397 l
0.8967 0.6536 l
0.9233 0.6675 l
0.9500 0.6814 l
1.1100 0.7648 l
1.1167 0.7683 l
1.1233 0.7718 l
1.1300 0.7752 l
1.1367 0.7787 l
1.1433 0.7822 l
1.1500 0.7857 l
1.1501 0.7857 l
s
[/DeviceRGB] SCS
Color1 SC
[0.0300 0.0180 ] 0 SD
0.0060 SLW
n
0.1500 0.1993 m
0.1767 0.2131 l
0.2033 0.2270 l
0.2300 0.2409 l
0.2567 0.2548 l
0.2833 0.2687 l
0.3100 0.2826 l
0.3367 0.2965 l
0.3633 0.3104 l
0.3900 0.3243 l
0.4167 0.3382 l
0.4433 0.3521 l
0.4700 0.3660 l
0.4967 0.3799 l
0.5233 0.3938 l
0.5500 0.4077 l
0.5767 0.4216 l
0.6033 0.4355 l
0.6300 0.4494 l
0.6567 0.4633 l
0.6833 0.4772 l
0.7100 0.4911 l
0.7367 0.5050 l
0.7633 0.5189 l
0.7900 0.5328 l
0.8167 0.5467 l
0.8433 0.5606 l
0.8700 0.5744 l
0.8967 0.5883 l
0.9233 0.6022 l
0.9500 0.6161 l
1.1100 0.6995 l
1.1167 0.7030 l
1.1233 0.7065 l
1.1300 0.7099 l
1.1367 0.7134 l
1.1433 0.7169 l
1.1500 0.7204 l
1.1501 0.7204 l
s
[] 0 SD
0.0015 SLW
n
0.1500 0.1500 m
1.1500 0.1500 l
s
n
0.1500 0.8500 m
1.1500 0.8500 l
s
n
0.2833 0.1500 m
0.2833 0.1600 l
s
n
0.2833 0.8500 m
0.2833 0.8400 l
s
n
0.5500 0.1500 m
0.5500 0.1600 l
s
n
0.5500 0.8500 m
0.5500 0.8400 l
s
n
0.8167 0.1500 m
0.8167 0.1600 l
s
n
0.8167 0.8500 m
0.8167 0.8400 l
s
n
1.0833 0.1500 m
1.0833 0.1600 l
s
n
1.0833 0.8500 m
1.0833 0.8400 l
s
n
0.1500 0.1500 m
0.1500 0.1700 l
s
n
0.1500 0.8500 m
0.1500 0.8300 l
s
n
0.4167 0.1500 m
0.4167 0.1700 l
s
n
0.4167 0.8500 m
0.4167 0.8300 l
s
n
0.6833 0.1500 m
0.6833 0.1700 l
s
n
0.6833 0.8500 m
0.6833 0.8300 l
s
n
0.9500 0.1500 m
0.9500 0.1700 l
s
n
0.9500 0.8500 m
0.9500 0.8300 l
s
/Times-Roman findfont
dup length dict begin
 {1 index /FID ne {def} {pop pop} ifelse} forall
 /Encoding DefEncoding def
 currentdict
end
/Font34 exch definefont pop
/Font34 FFSF
0.1363 0.1173 m
GS
[0.0339 0.0000 0.0000 0.0339 0 0] CC
(-4) show
GR
/Font34 FFSF
0.4029 0.1173 m
GS
[0.0339 0.0000 0.0000 0.0339 0 0] CC
(-2) show
GR
/Font34 FFSF
0.6753 0.1173 m
GS
[0.0339 0.0000 0.0000 0.0339 0 0] CC
(0) show
GR
/Font34 FFSF
0.9420 0.1173 m
GS
[0.0339 0.0000 0.0000 0.0339 0 0] CC
(2) show
GR
/Font34 FFSF
0.6025 0.0829 m
GS
[0.0364 0.0000 0.0000 0.0364 0 0] CC
(n [PN]) show
GR
n
0.1500 0.1500 m
0.1500 0.8500 l
s
n
1.1500 0.1500 m
1.1500 0.8500 l
s
n
0.1500 0.1801 m
0.1600 0.1801 l
s
n
1.1500 0.1801 m
1.1400 0.1801 l
s
n
0.1500 0.1977 m
0.1600 0.1977 l
s
n
1.1500 0.1977 m
1.1400 0.1977 l
s
n
0.1500 0.2102 m
0.1600 0.2102 l
s
n
1.1500 0.2102 m
1.1400 0.2102 l
s
n
0.1500 0.2199 m
0.1600 0.2199 l
s
n
1.1500 0.2199 m
1.1400 0.2199 l
s
n
0.1500 0.2278 m
0.1600 0.2278 l
s
n
1.1500 0.2278 m
1.1400 0.2278 l
s
n
0.1500 0.2345 m
0.1600 0.2345 l
s
n
1.1500 0.2345 m
1.1400 0.2345 l
s
n
0.1500 0.2403 m
0.1600 0.2403 l
s
n
1.1500 0.2403 m
1.1400 0.2403 l
s
n
0.1500 0.2454 m
0.1600 0.2454 l
s
n
1.1500 0.2454 m
1.1400 0.2454 l
s
n
0.1500 0.2500 m
0.1600 0.2500 l
s
n
1.1500 0.2500 m
1.1400 0.2500 l
s
n
0.1500 0.2801 m
0.1600 0.2801 l
s
n
1.1500 0.2801 m
1.1400 0.2801 l
s
n
0.1500 0.2977 m
0.1600 0.2977 l
s
n
1.1500 0.2977 m
1.1400 0.2977 l
s
n
0.1500 0.3102 m
0.1600 0.3102 l
s
n
1.1500 0.3102 m
1.1400 0.3102 l
s
n
0.1500 0.3199 m
0.1600 0.3199 l
s
n
1.1500 0.3199 m
1.1400 0.3199 l
s
n
0.1500 0.3278 m
0.1600 0.3278 l
s
n
1.1500 0.3278 m
1.1400 0.3278 l
s
n
0.1500 0.3345 m
0.1600 0.3345 l
s
n
1.1500 0.3345 m
1.1400 0.3345 l
s
n
0.1500 0.3403 m
0.1600 0.3403 l
s
n
1.1500 0.3403 m
1.1400 0.3403 l
s
n
0.1500 0.3454 m
0.1600 0.3454 l
s
n
1.1500 0.3454 m
1.1400 0.3454 l
s
n
0.1500 0.3500 m
0.1600 0.3500 l
s
n
1.1500 0.3500 m
1.1400 0.3500 l
s
n
0.1500 0.3801 m
0.1600 0.3801 l
s
n
1.1500 0.3801 m
1.1400 0.3801 l
s
n
0.1500 0.3977 m
0.1600 0.3977 l
s
n
1.1500 0.3977 m
1.1400 0.3977 l
s
n
0.1500 0.4102 m
0.1600 0.4102 l
s
n
1.1500 0.4102 m
1.1400 0.4102 l
s
n
0.1500 0.4199 m
0.1600 0.4199 l
s
n
1.1500 0.4199 m
1.1400 0.4199 l
s
n
0.1500 0.4278 m
0.1600 0.4278 l
s
n
1.1500 0.4278 m
1.1400 0.4278 l
s
n
0.1500 0.4345 m
0.1600 0.4345 l
s
n
1.1500 0.4345 m
1.1400 0.4345 l
s
n
0.1500 0.4403 m
0.1600 0.4403 l
s
n
1.1500 0.4403 m
1.1400 0.4403 l
s
n
0.1500 0.4454 m
0.1600 0.4454 l
s
n
1.1500 0.4454 m
1.1400 0.4454 l
s
n
0.1500 0.4500 m
0.1600 0.4500 l
s
n
1.1500 0.4500 m
1.1400 0.4500 l
s
n
0.1500 0.4801 m
0.1600 0.4801 l
s
n
1.1500 0.4801 m
1.1400 0.4801 l
s
n
0.1500 0.4977 m
0.1600 0.4977 l
s
n
1.1500 0.4977 m
1.1400 0.4977 l
s
n
0.1500 0.5102 m
0.1600 0.5102 l
s
n
1.1500 0.5102 m
1.1400 0.5102 l
s
n
0.1500 0.5199 m
0.1600 0.5199 l
s
n
1.1500 0.5199 m
1.1400 0.5199 l
s
n
0.1500 0.5278 m
0.1600 0.5278 l
s
n
1.1500 0.5278 m
1.1400 0.5278 l
s
n
0.1500 0.5345 m
0.1600 0.5345 l
s
n
1.1500 0.5345 m
1.1400 0.5345 l
s
n
0.1500 0.5403 m
0.1600 0.5403 l
s
n
1.1500 0.5403 m
1.1400 0.5403 l
s
n
0.1500 0.5454 m
0.1600 0.5454 l
s
n
1.1500 0.5454 m
1.1400 0.5454 l
s
n
0.1500 0.5500 m
0.1600 0.5500 l
s
n
1.1500 0.5500 m
1.1400 0.5500 l
s
n
0.1500 0.5801 m
0.1600 0.5801 l
s
n
1.1500 0.5801 m
1.1400 0.5801 l
s
n
0.1500 0.5977 m
0.1600 0.5977 l
s
n
1.1500 0.5977 m
1.1400 0.5977 l
s
n
0.1500 0.6102 m
0.1600 0.6102 l
s
n
1.1500 0.6102 m
1.1400 0.6102 l
s
n
0.1500 0.6199 m
0.1600 0.6199 l
s
n
1.1500 0.6199 m
1.1400 0.6199 l
s
n
0.1500 0.6278 m
0.1600 0.6278 l
s
n
1.1500 0.6278 m
1.1400 0.6278 l
s
n
0.1500 0.6345 m
0.1600 0.6345 l
s
n
1.1500 0.6345 m
1.1400 0.6345 l
s
n
0.1500 0.6403 m
0.1600 0.6403 l
s
n
1.1500 0.6403 m
1.1400 0.6403 l
s
n
0.1500 0.6454 m
0.1600 0.6454 l
s
n
1.1500 0.6454 m
1.1400 0.6454 l
s
n
0.1500 0.6500 m
0.1600 0.6500 l
s
n
1.1500 0.6500 m
1.1400 0.6500 l
s
n
0.1500 0.6801 m
0.1600 0.6801 l
s
n
1.1500 0.6801 m
1.1400 0.6801 l
s
n
0.1500 0.6977 m
0.1600 0.6977 l
s
n
1.1500 0.6977 m
1.1400 0.6977 l
s
n
0.1500 0.7102 m
0.1600 0.7102 l
s
n
1.1500 0.7102 m
1.1400 0.7102 l
s
n
0.1500 0.7199 m
0.1600 0.7199 l
s
n
1.1500 0.7199 m
1.1400 0.7199 l
s
n
0.1500 0.7278 m
0.1600 0.7278 l
s
n
1.1500 0.7278 m
1.1400 0.7278 l
s
n
0.1500 0.7345 m
0.1600 0.7345 l
s
n
1.1500 0.7345 m
1.1400 0.7345 l
s
n
0.1500 0.7403 m
0.1600 0.7403 l
s
n
1.1500 0.7403 m
1.1400 0.7403 l
s
n
0.1500 0.7454 m
0.1600 0.7454 l
s
n
1.1500 0.7454 m
1.1400 0.7454 l
s
n
0.1500 0.7500 m
0.1600 0.7500 l
s
n
1.1500 0.7500 m
1.1400 0.7500 l
s
n
0.1500 0.7801 m
0.1600 0.7801 l
s
n
1.1500 0.7801 m
1.1400 0.7801 l
s
n
0.1500 0.7977 m
0.1600 0.7977 l
s
n
1.1500 0.7977 m
1.1400 0.7977 l
s
n
0.1500 0.8102 m
0.1600 0.8102 l
s
n
1.1500 0.8102 m
1.1400 0.8102 l
s
n
0.1500 0.8199 m
0.1600 0.8199 l
s
n
1.1500 0.8199 m
1.1400 0.8199 l
s
n
0.1500 0.8278 m
0.1600 0.8278 l
s
n
1.1500 0.8278 m
1.1400 0.8278 l
s
n
0.1500 0.8345 m
0.1600 0.8345 l
s
n
1.1500 0.8345 m
1.1400 0.8345 l
s
n
0.1500 0.8403 m
0.1600 0.8403 l
s
n
1.1500 0.8403 m
1.1400 0.8403 l
s
n
0.1500 0.8454 m
0.1600 0.8454 l
s
n
1.1500 0.8454 m
1.1400 0.8454 l
s
n
0.1500 0.8500 m
0.1600 0.8500 l
s
n
1.1500 0.8500 m
1.1400 0.8500 l
s
n
0.1500 0.1500 m
0.1700 0.1500 l
s
n
1.1500 0.1500 m
1.1300 0.1500 l
s
n
0.1500 0.2500 m
0.1700 0.2500 l
s
n
1.1500 0.2500 m
1.1300 0.2500 l
s
n
0.1500 0.3500 m
0.1700 0.3500 l
s
n
1.1500 0.3500 m
1.1300 0.3500 l
s
n
0.1500 0.4500 m
0.1700 0.4500 l
s
n
1.1500 0.4500 m
1.1300 0.4500 l
s
n
0.1500 0.5500 m
0.1700 0.5500 l
s
n
1.1500 0.5500 m
1.1300 0.5500 l
s
n
0.1500 0.6500 m
0.1700 0.6500 l
s
n
1.1500 0.6500 m
1.1300 0.6500 l
s
n
0.1500 0.7500 m
0.1700 0.7500 l
s
n
1.1500 0.7500 m
1.1300 0.7500 l
s
n
0.1500 0.8500 m
0.1700 0.8500 l
s
n
1.1500 0.8500 m
1.1300 0.8500 l
s
/Font34 FFSF
0.0675 0.1388 m
GS
[0.0339 0.0000 0.0000 0.0339 0 0] CC
(0.001) show
GR
/Font34 FFSF
0.0843 0.2388 m
GS
[0.0339 0.0000 0.0000 0.0339 0 0] CC
(0.01) show
GR
/Font34 FFSF
0.1012 0.3388 m
GS
[0.0339 0.0000 0.0000 0.0339 0 0] CC
(0.1) show
GR
/Font34 FFSF
0.1267 0.4386 m
GS
[0.0339 0.0000 0.0000 0.0339 0 0] CC
(1) show
GR
/Font34 FFSF
0.1071 0.5388 m
GS
[0.0339 0.0000 0.0000 0.0339 0 0] CC
(10) show
GR
/Font34 FFSF
0.0902 0.6388 m
GS
[0.0339 0.0000 0.0000 0.0339 0 0] CC
(100) show
GR
/Font34 FFSF
0.0729 0.7388 m
GS
[0.0339 0.0000 0.0000 0.0339 0 0] CC
(1000) show
GR
/Font34 FFSF
0.0561 0.8388 m
GS
[0.0339 0.0000 0.0000 0.0339 0 0] CC
(10000) show
GR
/Symbol findfont
/Font30 exch definefont pop
/Font30 FFSF
0.0311 0.3849 m
GS
[0.0000 0.0364 -0.0364 0.0000 0 0] CC
(g) show
GR
/Font34 FFSF
0.0457 0.3998 m
GS
[0.0000 0.0257 -0.0257 0.0000 0 0] CC
(BH-PSR) show
GR
/Font34 FFSF
0.0311 0.4900 m
GS
[0.0000 0.0364 -0.0364 0.0000 0 0] CC
(/) show
GR
/Font30 FFSF
0.0311 0.5002 m
GS
[0.0000 0.0364 -0.0364 0.0000 0 0] CC
(g) show
GR
/Font34 FFSF
0.0457 0.5151 m
GS
[0.0000 0.0257 -0.0257 0.0000 0 0] CC
(PSR-PSR) show
GR
n
0.1500 0.1500 m
0.1500 0.8500 l
1.1500 0.8500 l
1.1500 0.1500 l
0.1500 0.1500 l
c
s
n
0.2000 0.8000 m
0.2000 0.7198 l
0.4712 0.7198 l
0.4712 0.8000 l
c
[/DeviceRGB] SCS
Color0 SC
fill
[/DeviceRGB] SCS
Color1 SC
n
0.2000 0.8000 m
0.2000 0.7198 l
0.4712 0.7198 l
0.4712 0.8000 l
0.2000 0.8000 l
c
s
/Font34 FFSF
0.3730 0.7653 m
GS
[0.0364 0.0000 0.0000 0.0364 0 0] CC
(FAST) show
GR
[/DeviceRGB] SCS
Color2 SC
[0.0060 0.0180 ] 0 SD
0.0060 SLW
n
0.2130 0.7775 m
0.3530 0.7775 l
s
/Font34 FFSF
[/DeviceRGB] SCS
Color1 SC
0.3730 0.7302 m
GS
[0.0364 0.0000 0.0000 0.0364 0 0] CC
(SKA) show
GR
[0.0300 0.0180 ] 0 SD
0.0060 SLW
n
0.2130 0.7424 m
0.3530 0.7424 l
s
showpage
%%PageTrailer
%%Trailer
%%DocumentNeededResources: font Symbol
%%+ font Times-Roman
%%EOF
