%!PS-Adobe-3.0
%%BoundingBox: 0 0 612 792
%%LanguageLevel: 2
%%Creator: Grace-5.1.25
%%CreationDate: Fri May  4 12:46:44 2018
%%DocumentData: Clean8Bit
%%Orientation: Landscape
%%Pages: 1
%%PageOrder: Ascend
%%Title: /home/bseymour/bh-pulsar/Paper_Graphs/Xmgrace Files/PPE_Wide.agr
%%For: bseymour
%%DocumentNeededResources: (atend)
%%EndComments
%%BeginProlog
/PAGE_OFFSET_X 0 def
/PAGE_OFFSET_Y 0 def
/m {moveto} def
/l {lineto} def
/s {stroke} def
/n {newpath} def
/c {closepath} def
/RL {rlineto} def
/SLW {setlinewidth} def
/GS {gsave} def
/GR {grestore} def
/SC {setcolor} def
/SGRY {setgray} def
/SRGB {setrgbcolor} def
/SD {setdash} def
/SLC {setlinecap} def
/SLJ {setlinejoin} def
/SCS {setcolorspace} def
/FFSF {findfont setfont} def
/CC {concat} def
/PXL {n m 0 0 RL s} def
/Color0 {1.0000 1.0000 1.0000} def
/Color1 {0.0000 0.0000 0.0000} def
/Color2 {1.0000 0.0000 0.0000} def
/Color3 {0.0000 1.0000 0.0000} def
/Color4 {0.0000 0.0000 1.0000} def
/Color5 {1.0000 1.0000 0.0000} def
/Color6 {0.7373 0.5608 0.5608} def
/Color7 {0.8627 0.8627 0.8627} def
/Color8 {0.5804 0.0000 0.8275} def
/Color9 {0.0000 1.0000 1.0000} def
/Color10 {1.0000 0.0000 1.0000} def
/Color11 {1.0000 0.6471 0.0000} def
/Color12 {0.4471 0.1294 0.7373} def
/Color13 {0.4039 0.0275 0.2824} def
/Color14 {0.2510 0.8784 0.8157} def
/Color15 {0.0000 0.5451 0.0000} def
/Color16 {0.7529 0.7529 0.7529} def
/Color17 {0.5059 0.5059 0.5059} def
/Color18 {0.2588 0.2588 0.2588} def
/PTRN {
 /pat_bits exch def 
 <<
  /PaintType 2
  /PatternType 1 /TilingType 1
  /BBox[0 0 16 16]
  /XStep 16 /YStep 16
  /PaintProc {
   pop
   16 16 true [-1 0 0 -1 16 16] pat_bits imagemask
  }
 >>
 [0.0016 0 0 0.0016 0 0]
 makepattern
} def
/Pattern0 {<0000000000000000000000000000000000000000000000000000000000000000> PTRN} bind def
/Pattern1 {<ffffffffffffffffffffffffffffffffffffffffffffffffffffffffffffffff> PTRN} bind def
/Pattern2 {<eeeeffffbbbbffffeeeeffffbbbbffffeeeeffffbbbbffffeeeeffffbbbbffff> PTRN} bind def
/Pattern3 {<eeeebbbbeeeebbbbeeeebbbbeeeebbbbeeeebbbbeeeebbbbeeeebbbbeeeebbbb> PTRN} bind def
/Pattern4 {<5555aaaa5555aaaa5555aaaa5555aaaa5555aaaa5555aaaa5555aaaa5555aaaa> PTRN} bind def
/Pattern5 {<1111444411114444111144441111444411114444111144441111444411114444> PTRN} bind def
/Pattern6 {<1111000044440000111100004444000011110000444400001111000044440000> PTRN} bind def
/Pattern7 {<1010000000000000010100000000000010100000000000000101000000000000> PTRN} bind def
/Pattern8 {<0000000000000000000000000000000000000000000000000000000000000000> PTRN} bind def
/Pattern9 {<1e1e0f0f8787c3c3e1e1f0f078783c3c1e1e0f0f8787c3c3e1e1f0f078783c3c> PTRN} bind def
/Pattern10 {<7878f0f0e1e1c3c387870f0f1e1e3c3c7878f0f0e1e1c3c387870f0f1e1e3c3c> PTRN} bind def
/Pattern11 {<3333333333333333333333333333333333333333333333333333333333333333> PTRN} bind def
/Pattern12 {<ffffffff00000000ffffffff00000000ffffffff00000000ffffffff00000000> PTRN} bind def
/Pattern13 {<8181424224241818181824244242818181814242242418181818242442428181> PTRN} bind def
/Pattern14 {<8080404020201010080804040202010180804040202010100808040402020101> PTRN} bind def
/Pattern15 {<0101020204040808101020204040808001010202040408081010202040408080> PTRN} bind def
/Pattern16 {<2222222222222222222222222222222222222222222222222222222222222222> PTRN} bind def
/Pattern17 {<0000ffff000000000000ffff000000000000ffff000000000000ffff00000000> PTRN} bind def
/Pattern18 {<2222ffff222222222222ffff222222222222ffff222222222222ffff22222222> PTRN} bind def
/Pattern19 {<ffffffff33333333ffffffff33333333ffffffff33333333ffffffff33333333> PTRN} bind def
/Pattern20 {<0f0f0f0f0f0f0f0ff0f0f0f0f0f0f0f00f0f0f0f0f0f0f0ff0f0f0f0f0f0f0f0> PTRN} bind def
/Pattern21 {<ff00ff00ff00ff00ff00ff00ff00ff0000ff00ff00ff00ff00ff00ff00ff00ff> PTRN} bind def
/Pattern22 {<8001800180018001800180018001ffffffff8001800180018001800180018001> PTRN} bind def
/Pattern23 {<c003c003c003c003c003c003ffffffffffffffffc003c003c003c003c003c003> PTRN} bind def
/Pattern24 {<040404040404ffff404040404040ffff040404040404ffff404040404040ffff> PTRN} bind def
/Pattern25 {<180018001800180018001800ffffffff001800180018001800180018ffffffff> PTRN} bind def
/Pattern26 {<1111b8b87c7c3a3a1111a3a3c7c78b8b1111b8b87c7c3a3a1111a3a3c7c78b8b> PTRN} bind def
/Pattern27 {<101010102828c7c70101010182827c7c101010102828c7c70101010182827c7c> PTRN} bind def
/Pattern28 {<1c1c121211112121c1c12121111112121c1c121211112121c1c1212111111212> PTRN} bind def
/Pattern29 {<3e3e414180808080e3e31414080808083e3e414180808080e3e3141408080808> PTRN} bind def
/Pattern30 {<4848888884848383848488884848383848488888848483838484888848483838> PTRN} bind def
/Pattern31 {<03030404080808080c0c12122121c0c003030404080808080c0c12122121c0c0> PTRN} bind def
/ellipsedict 8 dict def
ellipsedict /mtrx matrix put
/EARC {
 ellipsedict begin
  /endangle exch def
  /startangle exch def
  /yrad exch def
  /xrad exch def
  /y exch def
  /x exch def
  /savematrix mtrx currentmatrix def
  x y translate
  xrad yrad scale
  0 0 1 startangle endangle arc
  savematrix setmatrix
 end
} def
/TL {
  /kcomp exch def
  /linewidth exch def
  /offset exch def
  GS
  0 offset rmoveto
  linewidth SLW
  dup stringwidth exch kcomp add exch RL s
  GR
} def
/KINIT
{
 /kvector exch def
 /kid 0 def
} def
/KPROC
{
 pop pop
 kvector kid get
 0 rmoveto
 /kid 1 kid add def
} def
/DefEncoding [
 /.notdef
 /.notdef
 /.notdef
 /.notdef
 /.notdef
 /.notdef
 /.notdef
 /.notdef
 /.notdef
 /.notdef
 /.notdef
 /.notdef
 /.notdef
 /.notdef
 /.notdef
 /.notdef
 /.notdef
 /.notdef
 /.notdef
 /.notdef
 /.notdef
 /.notdef
 /.notdef
 /.notdef
 /.notdef
 /.notdef
 /.notdef
 /.notdef
 /.notdef
 /.notdef
 /.notdef
 /.notdef
 /space
 /exclam
 /quotedbl
 /numbersign
 /dollar
 /percent
 /ampersand
 /quoteright
 /parenleft
 /parenright
 /asterisk
 /plus
 /comma
 /hyphen
 /period
 /slash
 /zero
 /one
 /two
 /three
 /four
 /five
 /six
 /seven
 /eight
 /nine
 /colon
 /semicolon
 /less
 /equal
 /greater
 /question
 /at
 /A
 /B
 /C
 /D
 /E
 /F
 /G
 /H
 /I
 /J
 /K
 /L
 /M
 /N
 /O
 /P
 /Q
 /R
 /S
 /T
 /U
 /V
 /W
 /X
 /Y
 /Z
 /bracketleft
 /backslash
 /bracketright
 /asciicircum
 /underscore
 /grave
 /a
 /b
 /c
 /d
 /e
 /f
 /g
 /h
 /i
 /j
 /k
 /l
 /m
 /n
 /o
 /p
 /q
 /r
 /s
 /t
 /u
 /v
 /w
 /x
 /y
 /z
 /braceleft
 /bar
 /braceright
 /asciitilde
 /.notdef
 /.notdef
 /.notdef
 /.notdef
 /.notdef
 /.notdef
 /.notdef
 /.notdef
 /.notdef
 /.notdef
 /.notdef
 /.notdef
 /.notdef
 /.notdef
 /.notdef
 /.notdef
 /.notdef
 /.notdef
 /.notdef
 /.notdef
 /.notdef
 /.notdef
 /.notdef
 /.notdef
 /.notdef
 /.notdef
 /.notdef
 /.notdef
 /.notdef
 /.notdef
 /.notdef
 /.notdef
 /.notdef
 /space
 /exclamdown
 /cent
 /sterling
 /currency
 /yen
 /brokenbar
 /section
 /dieresis
 /copyright
 /ordfeminine
 /guillemotleft
 /logicalnot
 /hyphen
 /registered
 /macron
 /degree
 /plusminus
 /twosuperior
 /threesuperior
 /acute
 /mu
 /paragraph
 /periodcentered
 /cedilla
 /onesuperior
 /ordmasculine
 /guillemotright
 /onequarter
 /onehalf
 /threequarters
 /questiondown
 /Agrave
 /Aacute
 /Acircumflex
 /Atilde
 /Adieresis
 /Aring
 /AE
 /Ccedilla
 /Egrave
 /Eacute
 /Ecircumflex
 /Edieresis
 /Igrave
 /Iacute
 /Icircumflex
 /Idieresis
 /Eth
 /Ntilde
 /Ograve
 /Oacute
 /Ocircumflex
 /Otilde
 /Odieresis
 /multiply
 /Oslash
 /Ugrave
 /Uacute
 /Ucircumflex
 /Udieresis
 /Yacute
 /Thorn
 /germandbls
 /agrave
 /aacute
 /acircumflex
 /atilde
 /adieresis
 /aring
 /ae
 /ccedilla
 /egrave
 /eacute
 /ecircumflex
 /edieresis
 /igrave
 /iacute
 /icircumflex
 /idieresis
 /eth
 /ntilde
 /ograve
 /oacute
 /ocircumflex
 /otilde
 /odieresis
 /divide
 /oslash
 /ugrave
 /uacute
 /ucircumflex
 /udieresis
 /yacute
 /thorn
 /ydieresis
] def
%%EndProlog
%%BeginSetup
%%EndSetup
%%Page: 1 1
PAGE_OFFSET_X PAGE_OFFSET_Y translate
612.00 612.00 scale
90 rotate
0.0 -1.0 translate
n
0.0000 0.0000 m
0.0000 1.0000 l
1.2941 1.0000 l
1.2941 0.0000 l
c
[/DeviceRGB] SCS
Color0 SC
fill
[/DeviceRGB] SCS
Color6 SC
[0.0060 0.0180 0.0300 0.0180 ] 0 SD
0.0060 SLW
0 SLC
0 SLJ
n
0.1500 0.1524 m
0.1767 0.1706 l
0.2033 0.1889 l
0.2300 0.2072 l
0.2567 0.2254 l
0.2833 0.2437 l
0.3100 0.2619 l
0.3367 0.2802 l
0.3633 0.2984 l
0.3900 0.3167 l
0.4167 0.3349 l
0.4433 0.3532 l
0.4700 0.3715 l
0.4967 0.3897 l
0.5233 0.4080 l
0.5500 0.4262 l
0.5767 0.4445 l
0.6033 0.4627 l
0.6300 0.4810 l
0.6567 0.4992 l
0.6833 0.5175 l
0.7100 0.5358 l
0.7367 0.5540 l
0.7633 0.5723 l
0.7900 0.5905 l
0.8167 0.6088 l
0.8433 0.6270 l
0.8700 0.6453 l
0.8967 0.6635 l
0.9233 0.6818 l
0.9500 0.7001 l
1.1100 0.8096 l
1.1167 0.8142 l
1.1233 0.8187 l
1.1300 0.8233 l
1.1367 0.8278 l
1.1433 0.8324 l
1.1500 0.8370 l
1.1501 0.8370 l
s
[/DeviceRGB] SCS
Color2 SC
[0.0060 0.0180 ] 0 SD
0.0060 SLW
n
0.1886 0.1499 m
0.2033 0.1613 l
0.2300 0.1820 l
0.2567 0.2027 l
0.2833 0.2234 l
0.3100 0.2441 l
0.3367 0.2647 l
0.3633 0.2854 l
0.3900 0.3061 l
0.4167 0.3268 l
0.4433 0.3475 l
0.4700 0.3682 l
0.4967 0.3889 l
0.5233 0.4096 l
0.5500 0.4302 l
0.5767 0.4509 l
0.6033 0.4716 l
0.6300 0.4923 l
0.6567 0.5130 l
0.6833 0.5337 l
0.7100 0.5544 l
0.7367 0.5751 l
0.7633 0.5957 l
0.7900 0.6164 l
0.8167 0.6371 l
0.8433 0.6578 l
0.8700 0.6785 l
0.8967 0.6992 l
0.9233 0.7199 l
0.9500 0.7406 l
1.0912 0.8501 l
s
[/DeviceRGB] SCS
Color1 SC
[0.0300 0.0180 ] 0 SD
0.0060 SLW
n
0.2034 0.1499 m
0.2300 0.1706 l
0.2567 0.1913 l
0.2833 0.2119 l
0.3100 0.2326 l
0.3367 0.2533 l
0.3633 0.2740 l
0.3900 0.2947 l
0.4167 0.3154 l
0.4433 0.3361 l
0.4700 0.3568 l
0.4967 0.3774 l
0.5233 0.3981 l
0.5500 0.4188 l
0.5767 0.4395 l
0.6033 0.4602 l
0.6300 0.4809 l
0.6567 0.5016 l
0.6833 0.5223 l
0.7100 0.5429 l
0.7367 0.5636 l
0.7633 0.5843 l
0.7900 0.6050 l
0.8167 0.6257 l
0.8433 0.6464 l
0.8700 0.6671 l
0.8967 0.6878 l
0.9233 0.7084 l
0.9500 0.7291 l
1.1059 0.8501 l
s
[/DeviceRGB] SCS
Color4 SC
[] 0 SD
0.0030 SLW
n 0.1500 0.4799 0.0080 0.0080 0 360 EARC s
n 0.2167 0.4877 0.0080 0.0080 0 360 EARC s
n 0.2833 0.4955 0.0080 0.0080 0 360 EARC s
n 0.3500 0.5032 0.0080 0.0080 0 360 EARC s
n 0.4167 0.5108 0.0080 0.0080 0 360 EARC s
n 0.4833 0.5184 0.0080 0.0080 0 360 EARC s
n 0.5500 0.5258 0.0080 0.0080 0 360 EARC s
n 0.6167 0.5330 0.0080 0.0080 0 360 EARC s
n 0.6833 0.5401 0.0080 0.0080 0 360 EARC s
n 0.7500 0.5469 0.0080 0.0080 0 360 EARC s
n 0.8167 0.5536 0.0080 0.0080 0 360 EARC s
n 0.8833 0.5601 0.0080 0.0080 0 360 EARC s
n 0.9500 0.5664 0.0080 0.0080 0 360 EARC s
n 1.0833 0.5790 0.0080 0.0080 0 360 EARC s
n 1.1500 0.5853 0.0080 0.0080 0 360 EARC s
[/DeviceRGB] SCS
Color10 SC
n
0.1432 0.4381 m
0.1432 0.4517 l
0.1568 0.4517 l
0.1568 0.4381 l
0.1432 0.4381 l
c
s
n
0.2099 0.4490 m
0.2099 0.4626 l
0.2235 0.4626 l
0.2235 0.4490 l
0.2099 0.4490 l
c
s
n
0.2765 0.4601 m
0.2765 0.4737 l
0.2901 0.4737 l
0.2901 0.4601 l
0.2765 0.4601 l
c
s
n
0.3432 0.4713 m
0.3432 0.4849 l
0.3568 0.4849 l
0.3568 0.4713 l
0.3432 0.4713 l
c
s
n
0.4099 0.4830 m
0.4099 0.4966 l
0.4235 0.4966 l
0.4235 0.4830 l
0.4099 0.4830 l
c
s
n
0.4765 0.4952 m
0.4765 0.5088 l
0.4901 0.5088 l
0.4901 0.4952 l
0.4765 0.4952 l
c
s
n
0.5432 0.5089 m
0.5432 0.5225 l
0.5568 0.5225 l
0.5568 0.5089 l
0.5432 0.5089 l
c
s
n
0.6099 0.5265 m
0.6099 0.5401 l
0.6235 0.5401 l
0.6235 0.5265 l
0.6099 0.5265 l
c
s
n
0.6765 0.5310 m
0.6765 0.5446 l
0.6901 0.5446 l
0.6901 0.5310 l
0.6765 0.5310 l
c
s
n
0.7432 0.5344 m
0.7432 0.5480 l
0.7568 0.5480 l
0.7568 0.5344 l
0.7432 0.5344 l
c
s
n
0.8099 0.5402 m
0.8099 0.5538 l
0.8235 0.5538 l
0.8235 0.5402 l
0.8099 0.5402 l
c
s
n
0.8765 0.5469 m
0.8765 0.5605 l
0.8901 0.5605 l
0.8901 0.5469 l
0.8765 0.5469 l
c
s
n
0.9432 0.5540 m
0.9432 0.5676 l
0.9568 0.5676 l
0.9568 0.5540 l
0.9432 0.5540 l
c
s
n
1.0765 0.5685 m
1.0765 0.5821 l
1.0901 0.5821 l
1.0901 0.5685 l
1.0765 0.5685 l
c
s
n
1.1432 0.5758 m
1.1432 0.5894 l
1.1568 0.5894 l
1.1568 0.5758 l
1.1432 0.5758 l
c
s
[/DeviceRGB] SCS
Color1 SC
[] 0 SD
0.0015 SLW
n
0.1500 0.1500 m
1.1500 0.1500 l
s
n
0.1500 0.8500 m
1.1500 0.8500 l
s
n
0.2833 0.1500 m
0.2833 0.1600 l
s
n
0.2833 0.8500 m
0.2833 0.8400 l
s
n
0.5500 0.1500 m
0.5500 0.1600 l
s
n
0.5500 0.8500 m
0.5500 0.8400 l
s
n
0.8167 0.1500 m
0.8167 0.1600 l
s
n
0.8167 0.8500 m
0.8167 0.8400 l
s
n
1.0833 0.1500 m
1.0833 0.1600 l
s
n
1.0833 0.8500 m
1.0833 0.8400 l
s
n
0.1500 0.1500 m
0.1500 0.1700 l
s
n
0.1500 0.8500 m
0.1500 0.8300 l
s
n
0.4167 0.1500 m
0.4167 0.1700 l
s
n
0.4167 0.8500 m
0.4167 0.8300 l
s
n
0.6833 0.1500 m
0.6833 0.1700 l
s
n
0.6833 0.8500 m
0.6833 0.8300 l
s
n
0.9500 0.1500 m
0.9500 0.1700 l
s
n
0.9500 0.8500 m
0.9500 0.8300 l
s
/Times-Roman findfont
dup length dict begin
 {1 index /FID ne {def} {pop pop} ifelse} forall
 /Encoding DefEncoding def
 currentdict
end
/Font34 exch definefont pop
/Font34 FFSF
0.1363 0.1173 m
GS
[0.0339 0.0000 0.0000 0.0339 0 0] CC
(-4) show
GR
/Font34 FFSF
0.4029 0.1173 m
GS
[0.0339 0.0000 0.0000 0.0339 0 0] CC
(-2) show
GR
/Font34 FFSF
0.6753 0.1173 m
GS
[0.0339 0.0000 0.0000 0.0339 0 0] CC
(0) show
GR
/Font34 FFSF
0.9420 0.1173 m
GS
[0.0339 0.0000 0.0000 0.0339 0 0] CC
(2) show
GR
/Font34 FFSF
0.6025 0.0829 m
GS
[0.0364 0.0000 0.0000 0.0364 0 0] CC
(n [PN]) show
GR
n
0.1500 0.1500 m
0.1500 0.8500 l
s
n
1.1500 0.1500 m
1.1500 0.8500 l
s
n
0.1500 0.1850 m
0.1700 0.1850 l
s
n
1.1500 0.1850 m
1.1300 0.1850 l
s
n
0.1500 0.2375 m
0.1700 0.2375 l
s
n
1.1500 0.2375 m
1.1300 0.2375 l
s
n
0.1500 0.2900 m
0.1700 0.2900 l
s
n
1.1500 0.2900 m
1.1300 0.2900 l
s
n
0.1500 0.3425 m
0.1700 0.3425 l
s
n
1.1500 0.3425 m
1.1300 0.3425 l
s
n
0.1500 0.3950 m
0.1700 0.3950 l
s
n
1.1500 0.3950 m
1.1300 0.3950 l
s
n
0.1500 0.4475 m
0.1700 0.4475 l
s
n
1.1500 0.4475 m
1.1300 0.4475 l
s
n
0.1500 0.5000 m
0.1700 0.5000 l
s
n
1.1500 0.5000 m
1.1300 0.5000 l
s
n
0.1500 0.5525 m
0.1700 0.5525 l
s
n
1.1500 0.5525 m
1.1300 0.5525 l
s
n
0.1500 0.6050 m
0.1700 0.6050 l
s
n
1.1500 0.6050 m
1.1300 0.6050 l
s
n
0.1500 0.6575 m
0.1700 0.6575 l
s
n
1.1500 0.6575 m
1.1300 0.6575 l
s
n
0.1500 0.7100 m
0.1700 0.7100 l
s
n
1.1500 0.7100 m
1.1300 0.7100 l
s
n
0.1500 0.7625 m
0.1700 0.7625 l
s
n
1.1500 0.7625 m
1.1300 0.7625 l
s
n
0.1500 0.8150 m
0.1700 0.8150 l
s
n
1.1500 0.8150 m
1.1300 0.8150 l
s
/Font34 FFSF
0.0769 0.1670 m
GS
[0.0339 0.0000 0.0000 0.0339 0 0] CC
(10) show
GR
/Font34 FFSF
0.1106 0.1873 m
GS
[0.0240 0.0000 0.0000 0.0240 0 0] CC
(-21) show
GR
/Font34 FFSF
0.0757 0.2195 m
GS
[0.0339 0.0000 0.0000 0.0339 0 0] CC
(10) show
GR
/Font34 FFSF
0.1094 0.2398 m
GS
[0.0240 0.0000 0.0000 0.0240 0 0] CC
(-18) show
GR
/Font34 FFSF
0.0757 0.2718 m
GS
[0.0339 0.0000 0.0000 0.0339 0 0] CC
(10) show
GR
/Font34 FFSF
0.1094 0.2921 m
GS
[0.0240 0.0000 0.0000 0.0240 0 0] CC
(-15) show
GR
/Font34 FFSF
0.0749 0.3245 m
GS
[0.0339 0.0000 0.0000 0.0339 0 0] CC
(10) show
GR
/Font34 FFSF
0.1086 0.3448 m
GS
[0.0240 0.0000 0.0000 0.0240 0 0] CC
(-12) show
GR
/Font34 FFSF
0.0875 0.3770 m
GS
[0.0339 0.0000 0.0000 0.0339 0 0] CC
(10) show
GR
/Font34 FFSF
0.1212 0.3973 m
GS
[0.0240 0.0000 0.0000 0.0240 0 0] CC
(-9) show
GR
/Font34 FFSF
0.0871 0.4293 m
GS
[0.0339 0.0000 0.0000 0.0339 0 0] CC
(10) show
GR
/Font34 FFSF
0.1208 0.4496 m
GS
[0.0240 0.0000 0.0000 0.0240 0 0] CC
(-6) show
GR
/Font34 FFSF
0.0878 0.4820 m
GS
[0.0339 0.0000 0.0000 0.0339 0 0] CC
(10) show
GR
/Font34 FFSF
0.1216 0.5023 m
GS
[0.0240 0.0000 0.0000 0.0240 0 0] CC
(-3) show
GR
/Font34 FFSF
0.0949 0.5345 m
GS
[0.0339 0.0000 0.0000 0.0339 0 0] CC
(10) show
GR
/Font34 FFSF
0.1286 0.5548 m
GS
[0.0240 0.0000 0.0000 0.0240 0 0] CC
(0) show
GR
/Font34 FFSF
0.0957 0.5870 m
GS
[0.0339 0.0000 0.0000 0.0339 0 0] CC
(10) show
GR
/Font34 FFSF
0.1294 0.6073 m
GS
[0.0240 0.0000 0.0000 0.0240 0 0] CC
(3) show
GR
/Font34 FFSF
0.0949 0.6393 m
GS
[0.0339 0.0000 0.0000 0.0339 0 0] CC
(10) show
GR
/Font34 FFSF
0.1286 0.6596 m
GS
[0.0240 0.0000 0.0000 0.0240 0 0] CC
(6) show
GR
/Font34 FFSF
0.0953 0.6920 m
GS
[0.0339 0.0000 0.0000 0.0339 0 0] CC
(10) show
GR
/Font34 FFSF
0.1290 0.7123 m
GS
[0.0240 0.0000 0.0000 0.0240 0 0] CC
(9) show
GR
/Font34 FFSF
0.0827 0.7445 m
GS
[0.0339 0.0000 0.0000 0.0339 0 0] CC
(10) show
GR
/Font34 FFSF
0.1165 0.7648 m
GS
[0.0240 0.0000 0.0000 0.0240 0 0] CC
(12) show
GR
/Font34 FFSF
0.0835 0.7968 m
GS
[0.0339 0.0000 0.0000 0.0339 0 0] CC
(10) show
GR
/Font34 FFSF
0.1173 0.8171 m
GS
[0.0240 0.0000 0.0000 0.0240 0 0] CC
(15) show
GR
/Symbol findfont
/Font30 exch definefont pop
/Font30 FFSF
0.0571 0.4867 m
GS
[0.0000 0.0364 -0.0364 0.0000 0 0] CC
( g) show
GR
n
0.1500 0.1500 m
0.1500 0.8500 l
1.1500 0.8500 l
1.1500 0.1500 l
0.1500 0.1500 l
c
s
n
0.2000 0.8000 m
0.2000 0.6133 l
0.5520 0.6133 l
0.5520 0.8000 l
c
[/DeviceRGB] SCS
Color0 SC
fill
[/DeviceRGB] SCS
Color1 SC
n
0.2000 0.8000 m
0.2000 0.6133 l
0.5520 0.6133 l
0.5520 0.8000 l
0.2000 0.8000 l
c
s
/Font34 FFSF
0.3730 0.7653 m
GS
[0.0364 0.0000 0.0000 0.0364 0 0] CC
(Pulsar) show
GR
[/DeviceRGB] SCS
Color6 SC
[0.0060 0.0180 0.0300 0.0180 ] 0 SD
0.0060 SLW
n
0.2130 0.7775 m
0.3530 0.7775 l
s
/Font34 FFSF
[/DeviceRGB] SCS
Color1 SC
0.3730 0.7302 m
GS
[0.0364 0.0000 0.0000 0.0364 0 0] CC
(FAST) show
GR
[/DeviceRGB] SCS
Color2 SC
[0.0060 0.0180 ] 0 SD
0.0060 SLW
n
0.2130 0.7424 m
0.3530 0.7424 l
s
/Font34 FFSF
[/DeviceRGB] SCS
Color1 SC
0.3730 0.6951 m
GS
[0.0364 0.0000 0.0000 0.0364 0 0] CC
(SKA) show
GR
[0.0300 0.0180 ] 0 SD
0.0060 SLW
n
0.2130 0.7073 m
0.3530 0.7073 l
s
/Font34 FFSF
0.3730 0.6596 m
GS
[0.0364 0.0000 0.0000 0.0364 0 0] CC
(GW150914) show
GR
[/DeviceRGB] SCS
Color4 SC
[] 0 SD
0.0030 SLW
n 0.2830 0.6718 0.0080 0.0080 0 360 EARC s
/Font34 FFSF
[/DeviceRGB] SCS
Color1 SC
0.3730 0.6237 m
GS
[0.0364 0.0000 0.0000 0.0364 0 0] CC
(GW151226) show
GR
[/DeviceRGB] SCS
Color10 SC
n
0.2762 0.6293 m
0.2762 0.6429 l
0.2898 0.6429 l
0.2898 0.6293 l
0.2762 0.6293 l
c
s
showpage
%%PageTrailer
%%Trailer
%%DocumentNeededResources: font Symbol
%%+ font Times-Roman
%%EOF
