47.57526444263628, 0.19817767653758542
50.05695687550855, 0.1826879271070615
52.57933279088691, 0.17061503416856488
55.101708706265256, 0.15876993166287012
57.58340113913751, 0.14829157175398627
60.10577705451587, 0.13872437357630976
62.62815296989423, 0.1300683371298405
65.15052888527258, 0.12255125284738036
67.63222131814483, 0.11571753986332574
70.1545972335232, 0.10728929384965828
72.63628966639546, 0.10410022779043275
75.1586655817738, 0.09886104783599084
77.64035801464605, 0.09384965831435077
