0.2763	6.715113272568223e-13
0.303047	6.920407728036305e-13
0.332383	7.124050715676975e-13
0.364558	7.341849913066504e-13
0.399848	7.573523192724153e-13
0.438555	7.800412353448746e-13
0.481008	8.040755821695202e-13
0.527571	8.289138369536903e-13
0.578641	8.550075436969616e-13
0.634655	8.815439466901493e-13
0.696091	9.087810145839649e-13
0.763474	9.371600523632272e-13
0.83738	9.666828293277967e-13
0.918441	9.965411378306636e-13
1.007348	1.0276605685776037e-12
1.104862	1.0600716411902117e-12
1.211816	1.093122662819787e-12
1.329122	1.1273952513452688e-12
1.457785	1.1624802663929227e-12
1.598902	1.1985863140365322e-12
1.75368	1.2363840583079399e-12
1.923441	1.2749152937792018e-12
2.109635	1.3147006641317925e-12
2.313853	1.3558578309072445e-12
2.537839	1.3987094405988984e-12
2.783509	1.441911412258841e-12
3.052959	1.4873104789975158e-12
3.348493	1.533750961504674e-12
