%!PS-Adobe-3.0 EPSF-3.0
%%BoundingBox: (atend)
%%LanguageLevel: 2
%%Creator: Grace-5.1.25
%%CreationDate: Tue Jul  3 15:33:50 2018
%%DocumentData: Clean8Bit
%%Orientation: Portrait
%%Title: /home/bseymour/bh-pulsar/Paper_Graphs/Xmgrace Files/dCS-EdGB.agr
%%For: bseymour
%%DocumentNeededResources: (atend)
%%EndComments
%%BeginProlog
/m {moveto} def
/l {lineto} def
/s {stroke} def
/n {newpath} def
/c {closepath} def
/RL {rlineto} def
/SLW {setlinewidth} def
/GS {gsave} def
/GR {grestore} def
/SC {setcolor} def
/SGRY {setgray} def
/SRGB {setrgbcolor} def
/SD {setdash} def
/SLC {setlinecap} def
/SLJ {setlinejoin} def
/SCS {setcolorspace} def
/FFSF {findfont setfont} def
/CC {concat} def
/PXL {n m 0 0 RL s} def
/Color0 {1.0000 1.0000 1.0000} def
/Color1 {0.0000 0.0000 0.0000} def
/Color2 {1.0000 0.0000 0.0000} def
/Color3 {0.0000 1.0000 0.0000} def
/Color4 {0.0000 0.0000 1.0000} def
/Color5 {1.0000 1.0000 0.0000} def
/Color6 {0.7373 0.5608 0.5608} def
/Color7 {0.8627 0.8627 0.8627} def
/Color8 {0.5804 0.0000 0.8275} def
/Color9 {0.0000 1.0000 1.0000} def
/Color10 {1.0000 0.0000 1.0000} def
/Color11 {1.0000 0.6471 0.0000} def
/Color12 {0.4471 0.1294 0.7373} def
/Color13 {0.4039 0.0275 0.2824} def
/Color14 {0.2510 0.8784 0.8157} def
/Color15 {0.0000 0.5451 0.0000} def
/Color16 {0.7529 0.7529 0.7529} def
/Color17 {0.5059 0.5059 0.5059} def
/Color18 {0.2588 0.2588 0.2588} def
/PTRN {
 /pat_bits exch def 
 <<
  /PaintType 2
  /PatternType 1 /TilingType 1
  /BBox[0 0 16 16]
  /XStep 16 /YStep 16
  /PaintProc {
   pop
   16 16 true [-1 0 0 -1 16 16] pat_bits imagemask
  }
 >>
 [0.0016 0 0 0.0016 0 0]
 makepattern
} def
/Pattern0 {<0000000000000000000000000000000000000000000000000000000000000000> PTRN} bind def
/Pattern1 {<ffffffffffffffffffffffffffffffffffffffffffffffffffffffffffffffff> PTRN} bind def
/Pattern2 {<eeeeffffbbbbffffeeeeffffbbbbffffeeeeffffbbbbffffeeeeffffbbbbffff> PTRN} bind def
/Pattern3 {<eeeebbbbeeeebbbbeeeebbbbeeeebbbbeeeebbbbeeeebbbbeeeebbbbeeeebbbb> PTRN} bind def
/Pattern4 {<5555aaaa5555aaaa5555aaaa5555aaaa5555aaaa5555aaaa5555aaaa5555aaaa> PTRN} bind def
/Pattern5 {<1111444411114444111144441111444411114444111144441111444411114444> PTRN} bind def
/Pattern6 {<1111000044440000111100004444000011110000444400001111000044440000> PTRN} bind def
/Pattern7 {<1010000000000000010100000000000010100000000000000101000000000000> PTRN} bind def
/Pattern8 {<0000000000000000000000000000000000000000000000000000000000000000> PTRN} bind def
/Pattern9 {<1e1e0f0f8787c3c3e1e1f0f078783c3c1e1e0f0f8787c3c3e1e1f0f078783c3c> PTRN} bind def
/Pattern10 {<7878f0f0e1e1c3c387870f0f1e1e3c3c7878f0f0e1e1c3c387870f0f1e1e3c3c> PTRN} bind def
/Pattern11 {<3333333333333333333333333333333333333333333333333333333333333333> PTRN} bind def
/Pattern12 {<ffffffff00000000ffffffff00000000ffffffff00000000ffffffff00000000> PTRN} bind def
/Pattern13 {<8181424224241818181824244242818181814242242418181818242442428181> PTRN} bind def
/Pattern14 {<8080404020201010080804040202010180804040202010100808040402020101> PTRN} bind def
/Pattern15 {<0101020204040808101020204040808001010202040408081010202040408080> PTRN} bind def
/Pattern16 {<2222222222222222222222222222222222222222222222222222222222222222> PTRN} bind def
/Pattern17 {<0000ffff000000000000ffff000000000000ffff000000000000ffff00000000> PTRN} bind def
/Pattern18 {<2222ffff222222222222ffff222222222222ffff222222222222ffff22222222> PTRN} bind def
/Pattern19 {<ffffffff33333333ffffffff33333333ffffffff33333333ffffffff33333333> PTRN} bind def
/Pattern20 {<0f0f0f0f0f0f0f0ff0f0f0f0f0f0f0f00f0f0f0f0f0f0f0ff0f0f0f0f0f0f0f0> PTRN} bind def
/Pattern21 {<ff00ff00ff00ff00ff00ff00ff00ff0000ff00ff00ff00ff00ff00ff00ff00ff> PTRN} bind def
/Pattern22 {<8001800180018001800180018001ffffffff8001800180018001800180018001> PTRN} bind def
/Pattern23 {<c003c003c003c003c003c003ffffffffffffffffc003c003c003c003c003c003> PTRN} bind def
/Pattern24 {<040404040404ffff404040404040ffff040404040404ffff404040404040ffff> PTRN} bind def
/Pattern25 {<180018001800180018001800ffffffff001800180018001800180018ffffffff> PTRN} bind def
/Pattern26 {<1111b8b87c7c3a3a1111a3a3c7c78b8b1111b8b87c7c3a3a1111a3a3c7c78b8b> PTRN} bind def
/Pattern27 {<101010102828c7c70101010182827c7c101010102828c7c70101010182827c7c> PTRN} bind def
/Pattern28 {<1c1c121211112121c1c12121111112121c1c121211112121c1c1212111111212> PTRN} bind def
/Pattern29 {<3e3e414180808080e3e31414080808083e3e414180808080e3e3141408080808> PTRN} bind def
/Pattern30 {<4848888884848383848488884848383848488888848483838484888848483838> PTRN} bind def
/Pattern31 {<03030404080808080c0c12122121c0c003030404080808080c0c12122121c0c0> PTRN} bind def
/ellipsedict 8 dict def
ellipsedict /mtrx matrix put
/EARC {
 ellipsedict begin
  /endangle exch def
  /startangle exch def
  /yrad exch def
  /xrad exch def
  /y exch def
  /x exch def
  /savematrix mtrx currentmatrix def
  x y translate
  xrad yrad scale
  0 0 1 startangle endangle arc
  savematrix setmatrix
 end
} def
/TL {
  /kcomp exch def
  /linewidth exch def
  /offset exch def
  GS
  0 offset rmoveto
  linewidth SLW
  dup stringwidth exch kcomp add exch RL s
  GR
} def
/KINIT
{
 /kvector exch def
 /kid 0 def
} def
/KPROC
{
 pop pop
 kvector kid get
 0 rmoveto
 /kid 1 kid add def
} def
/DefEncoding [
 /.notdef
 /.notdef
 /.notdef
 /.notdef
 /.notdef
 /.notdef
 /.notdef
 /.notdef
 /.notdef
 /.notdef
 /.notdef
 /.notdef
 /.notdef
 /.notdef
 /.notdef
 /.notdef
 /.notdef
 /.notdef
 /.notdef
 /.notdef
 /.notdef
 /.notdef
 /.notdef
 /.notdef
 /.notdef
 /.notdef
 /.notdef
 /.notdef
 /.notdef
 /.notdef
 /.notdef
 /.notdef
 /space
 /exclam
 /quotedbl
 /numbersign
 /dollar
 /percent
 /ampersand
 /quoteright
 /parenleft
 /parenright
 /asterisk
 /plus
 /comma
 /hyphen
 /period
 /slash
 /zero
 /one
 /two
 /three
 /four
 /five
 /six
 /seven
 /eight
 /nine
 /colon
 /semicolon
 /less
 /equal
 /greater
 /question
 /at
 /A
 /B
 /C
 /D
 /E
 /F
 /G
 /H
 /I
 /J
 /K
 /L
 /M
 /N
 /O
 /P
 /Q
 /R
 /S
 /T
 /U
 /V
 /W
 /X
 /Y
 /Z
 /bracketleft
 /backslash
 /bracketright
 /asciicircum
 /underscore
 /grave
 /a
 /b
 /c
 /d
 /e
 /f
 /g
 /h
 /i
 /j
 /k
 /l
 /m
 /n
 /o
 /p
 /q
 /r
 /s
 /t
 /u
 /v
 /w
 /x
 /y
 /z
 /braceleft
 /bar
 /braceright
 /asciitilde
 /.notdef
 /.notdef
 /.notdef
 /.notdef
 /.notdef
 /.notdef
 /.notdef
 /.notdef
 /.notdef
 /.notdef
 /.notdef
 /.notdef
 /.notdef
 /.notdef
 /.notdef
 /.notdef
 /.notdef
 /.notdef
 /.notdef
 /.notdef
 /.notdef
 /.notdef
 /.notdef
 /.notdef
 /.notdef
 /.notdef
 /.notdef
 /.notdef
 /.notdef
 /.notdef
 /.notdef
 /.notdef
 /.notdef
 /space
 /exclamdown
 /cent
 /sterling
 /currency
 /yen
 /brokenbar
 /section
 /dieresis
 /copyright
 /ordfeminine
 /guillemotleft
 /logicalnot
 /hyphen
 /registered
 /macron
 /degree
 /plusminus
 /twosuperior
 /threesuperior
 /acute
 /mu
 /paragraph
 /periodcentered
 /cedilla
 /onesuperior
 /ordmasculine
 /guillemotright
 /onequarter
 /onehalf
 /threequarters
 /questiondown
 /Agrave
 /Aacute
 /Acircumflex
 /Atilde
 /Adieresis
 /Aring
 /AE
 /Ccedilla
 /Egrave
 /Eacute
 /Ecircumflex
 /Edieresis
 /Igrave
 /Iacute
 /Icircumflex
 /Idieresis
 /Eth
 /Ntilde
 /Ograve
 /Oacute
 /Ocircumflex
 /Otilde
 /Odieresis
 /multiply
 /Oslash
 /Ugrave
 /Uacute
 /Ucircumflex
 /Udieresis
 /Yacute
 /Thorn
 /germandbls
 /agrave
 /aacute
 /acircumflex
 /atilde
 /adieresis
 /aring
 /ae
 /ccedilla
 /egrave
 /eacute
 /ecircumflex
 /edieresis
 /igrave
 /iacute
 /icircumflex
 /idieresis
 /eth
 /ntilde
 /ograve
 /oacute
 /ocircumflex
 /otilde
 /odieresis
 /divide
 /oslash
 /ugrave
 /uacute
 /ucircumflex
 /udieresis
 /yacute
 /thorn
 /ydieresis
] def
%%EndProlog
%%BeginSetup
%%EndSetup
612.00 612.00 scale
n
0.0000 0.0000 m
0.0000 1.0000 l
1.2941 1.0000 l
1.2941 0.0000 l
c
[/DeviceRGB] SCS
Color0 SC
fill
n
0.1501 0.1000 m
0.1501 0.1941 l
0.2088 0.2081 l
0.2674 0.2221 l
0.3261 0.2361 l
0.3838 0.2498 l
0.4424 0.2638 l
0.5002 0.2776 l
0.5588 0.2916 l
0.6175 0.3056 l
0.6752 0.3193 l
0.7339 0.3333 l
0.7925 0.3473 l
0.8512 0.3613 l
0.9089 0.3751 l
0.9666 0.3888 l
1.0253 0.4028 l
1.0849 0.4170 l
1.1416 0.4306 l
1.1416 0.1000 l
c
GS
Color0 SRGB
fill
GR
[/Pattern /DeviceRGB] SCS
Color9 Pattern14 SC
fill
[/DeviceRGB] SCS
Color14 SC
[0.0060 0.0180 0.0300 0.0180 ] 0 SD
0.0060 SLW
0 SLC
0 SLJ
n
0.1501 0.1941 m
0.2088 0.2081 l
0.2674 0.2221 l
0.3261 0.2361 l
0.3838 0.2498 l
0.4424 0.2638 l
0.5002 0.2776 l
0.5588 0.2916 l
0.6175 0.3056 l
0.6752 0.3193 l
0.7339 0.3333 l
0.7925 0.3473 l
0.8512 0.3613 l
0.9089 0.3751 l
0.9666 0.3888 l
1.0253 0.4028 l
1.0849 0.4170 l
1.1416 0.4306 l
s
[/DeviceRGB] SCS
Color2 SC
[] 0 SD
0.0030 SLW
n
0.6175 0.1934 m
0.6752 0.1988 l
0.7329 0.2040 l
0.7916 0.2092 l
0.8512 0.2147 l
0.9089 0.2196 l
0.9675 0.2247 l
1.0253 0.2295 l
1.0839 0.2342 l
1.1416 0.2389 l
s
n
0.6175 0.1934 0.0100 0.0100 0 360 EARC c
fill
[] 0 SD
0.0015 SLW
n 0.6175 0.1934 0.0100 0.0100 0 360 EARC s
n
0.6752 0.1988 0.0100 0.0100 0 360 EARC c
fill
n 0.6752 0.1988 0.0100 0.0100 0 360 EARC s
n
0.7329 0.2040 0.0100 0.0100 0 360 EARC c
fill
n 0.7329 0.2040 0.0100 0.0100 0 360 EARC s
n
0.7916 0.2092 0.0100 0.0100 0 360 EARC c
fill
n 0.7916 0.2092 0.0100 0.0100 0 360 EARC s
n
0.8512 0.2147 0.0100 0.0100 0 360 EARC c
fill
n 0.8512 0.2147 0.0100 0.0100 0 360 EARC s
n
0.9089 0.2196 0.0100 0.0100 0 360 EARC c
fill
n 0.9089 0.2196 0.0100 0.0100 0 360 EARC s
n
0.9675 0.2247 0.0100 0.0100 0 360 EARC c
fill
n 0.9675 0.2247 0.0100 0.0100 0 360 EARC s
n
1.0253 0.2295 0.0100 0.0100 0 360 EARC c
fill
n 1.0253 0.2295 0.0100 0.0100 0 360 EARC s
n
1.0839 0.2342 0.0100 0.0100 0 360 EARC c
fill
n 1.0839 0.2342 0.0100 0.0100 0 360 EARC s
n
1.1416 0.2389 0.0100 0.0100 0 360 EARC c
fill
n 1.1416 0.2389 0.0100 0.0100 0 360 EARC s
[/DeviceRGB] SCS
Color4 SC
[] 0 SD
0.0030 SLW
n
0.1501 0.1220 m
0.2088 0.1274 l
0.2674 0.1325 l
0.3261 0.1375 l
0.3838 0.1423 l
0.4424 0.1472 l
0.5002 0.1519 l
0.5588 0.1567 l
0.6175 0.1613 l
0.6752 0.1657 l
0.7339 0.1702 l
0.7925 0.1746 l
0.8512 0.1790 l
0.9089 0.1831 l
0.9666 0.1873 l
1.0253 0.1912 l
1.0849 0.1955 l
1.1416 0.1993 l
s
n
0.1416 0.1135 m
0.1416 0.1305 l
0.1586 0.1305 l
0.1586 0.1135 l
c
fill
[] 0 SD
0.0015 SLW
n
0.1416 0.1135 m
0.1416 0.1305 l
0.1586 0.1305 l
0.1586 0.1135 l
0.1416 0.1135 l
c
s
n
0.2003 0.1189 m
0.2003 0.1359 l
0.2173 0.1359 l
0.2173 0.1189 l
c
fill
n
0.2003 0.1189 m
0.2003 0.1359 l
0.2173 0.1359 l
0.2173 0.1189 l
0.2003 0.1189 l
c
s
n
0.2589 0.1240 m
0.2589 0.1410 l
0.2759 0.1410 l
0.2759 0.1240 l
c
fill
n
0.2589 0.1240 m
0.2589 0.1410 l
0.2759 0.1410 l
0.2759 0.1240 l
0.2589 0.1240 l
c
s
n
0.3176 0.1290 m
0.3176 0.1460 l
0.3346 0.1460 l
0.3346 0.1290 l
c
fill
n
0.3176 0.1290 m
0.3176 0.1460 l
0.3346 0.1460 l
0.3346 0.1290 l
0.3176 0.1290 l
c
s
n
0.3753 0.1338 m
0.3753 0.1508 l
0.3923 0.1508 l
0.3923 0.1338 l
c
fill
n
0.3753 0.1338 m
0.3753 0.1508 l
0.3923 0.1508 l
0.3923 0.1338 l
0.3753 0.1338 l
c
s
n
0.4339 0.1387 m
0.4339 0.1557 l
0.4509 0.1557 l
0.4509 0.1387 l
c
fill
n
0.4339 0.1387 m
0.4339 0.1557 l
0.4509 0.1557 l
0.4509 0.1387 l
0.4339 0.1387 l
c
s
n
0.4917 0.1434 m
0.4917 0.1604 l
0.5087 0.1604 l
0.5087 0.1434 l
c
fill
n
0.4917 0.1434 m
0.4917 0.1604 l
0.5087 0.1604 l
0.5087 0.1434 l
0.4917 0.1434 l
c
s
n
0.5503 0.1482 m
0.5503 0.1652 l
0.5673 0.1652 l
0.5673 0.1482 l
c
fill
n
0.5503 0.1482 m
0.5503 0.1652 l
0.5673 0.1652 l
0.5673 0.1482 l
0.5503 0.1482 l
c
s
n
0.6090 0.1528 m
0.6090 0.1698 l
0.6260 0.1698 l
0.6260 0.1528 l
c
fill
n
0.6090 0.1528 m
0.6090 0.1698 l
0.6260 0.1698 l
0.6260 0.1528 l
0.6090 0.1528 l
c
s
n
0.6667 0.1572 m
0.6667 0.1742 l
0.6837 0.1742 l
0.6837 0.1572 l
c
fill
n
0.6667 0.1572 m
0.6667 0.1742 l
0.6837 0.1742 l
0.6837 0.1572 l
0.6667 0.1572 l
c
s
n
0.7254 0.1617 m
0.7254 0.1787 l
0.7424 0.1787 l
0.7424 0.1617 l
c
fill
n
0.7254 0.1617 m
0.7254 0.1787 l
0.7424 0.1787 l
0.7424 0.1617 l
0.7254 0.1617 l
c
s
n
0.7840 0.1661 m
0.7840 0.1831 l
0.8010 0.1831 l
0.8010 0.1661 l
c
fill
n
0.7840 0.1661 m
0.7840 0.1831 l
0.8010 0.1831 l
0.8010 0.1661 l
0.7840 0.1661 l
c
s
n
0.8427 0.1705 m
0.8427 0.1875 l
0.8597 0.1875 l
0.8597 0.1705 l
c
fill
n
0.8427 0.1705 m
0.8427 0.1875 l
0.8597 0.1875 l
0.8597 0.1705 l
0.8427 0.1705 l
c
s
n
0.9004 0.1746 m
0.9004 0.1916 l
0.9174 0.1916 l
0.9174 0.1746 l
c
fill
n
0.9004 0.1746 m
0.9004 0.1916 l
0.9174 0.1916 l
0.9174 0.1746 l
0.9004 0.1746 l
c
s
n
0.9581 0.1788 m
0.9581 0.1958 l
0.9751 0.1958 l
0.9751 0.1788 l
c
fill
n
0.9581 0.1788 m
0.9581 0.1958 l
0.9751 0.1958 l
0.9751 0.1788 l
0.9581 0.1788 l
c
s
n
1.0168 0.1827 m
1.0168 0.1997 l
1.0338 0.1997 l
1.0338 0.1827 l
c
fill
n
1.0168 0.1827 m
1.0168 0.1997 l
1.0338 0.1997 l
1.0338 0.1827 l
1.0168 0.1827 l
c
s
n
1.0764 0.1870 m
1.0764 0.2040 l
1.0934 0.2040 l
1.0934 0.1870 l
c
fill
n
1.0764 0.1870 m
1.0764 0.2040 l
1.0934 0.2040 l
1.0934 0.1870 l
1.0764 0.1870 l
c
s
n
1.1331 0.1908 m
1.1331 0.2078 l
1.1501 0.2078 l
1.1501 0.1908 l
c
fill
n
1.1331 0.1908 m
1.1331 0.2078 l
1.1501 0.2078 l
1.1501 0.1908 l
1.1331 0.1908 l
c
s
[/DeviceRGB] SCS
Color2 SC
[] 0 SD
0.0030 SLW
n
0.6175 0.1775 m
0.6752 0.1824 l
0.7329 0.1872 l
0.7916 0.1920 l
0.8512 0.1970 l
0.9089 0.2016 l
0.9675 0.2062 l
1.0253 0.2106 l
1.0839 0.2150 l
1.1416 0.2193 l
s
n 0.6175 0.1775 0.0100 0.0100 0 360 EARC s
n 0.6752 0.1824 0.0100 0.0100 0 360 EARC s
n 0.7329 0.1872 0.0100 0.0100 0 360 EARC s
n 0.7916 0.1920 0.0100 0.0100 0 360 EARC s
n 0.8512 0.1970 0.0100 0.0100 0 360 EARC s
n 0.9089 0.2016 0.0100 0.0100 0 360 EARC s
n 0.9675 0.2062 0.0100 0.0100 0 360 EARC s
n 1.0253 0.2106 0.0100 0.0100 0 360 EARC s
n 1.0839 0.2150 0.0100 0.0100 0 360 EARC s
n 1.1416 0.2193 0.0100 0.0100 0 360 EARC s
[/DeviceRGB] SCS
Color4 SC
n
0.1501 0.1120 m
0.2088 0.1169 l
0.2674 0.1216 l
0.3261 0.1262 l
0.3838 0.1306 l
0.4424 0.1351 l
0.5002 0.1394 l
0.5588 0.1438 l
0.6175 0.1480 l
0.6752 0.1521 l
0.7339 0.1562 l
0.7925 0.1602 l
0.8512 0.1643 l
0.9089 0.1681 l
0.9666 0.1719 l
1.0253 0.1755 l
1.0849 0.1795 l
1.1416 0.1829 l
s
n
0.1416 0.1035 m
0.1416 0.1205 l
0.1586 0.1205 l
0.1586 0.1035 l
0.1416 0.1035 l
c
s
n
0.2003 0.1084 m
0.2003 0.1254 l
0.2173 0.1254 l
0.2173 0.1084 l
0.2003 0.1084 l
c
s
n
0.2589 0.1131 m
0.2589 0.1301 l
0.2759 0.1301 l
0.2759 0.1131 l
0.2589 0.1131 l
c
s
n
0.3176 0.1177 m
0.3176 0.1347 l
0.3346 0.1347 l
0.3346 0.1177 l
0.3176 0.1177 l
c
s
n
0.3753 0.1221 m
0.3753 0.1391 l
0.3923 0.1391 l
0.3923 0.1221 l
0.3753 0.1221 l
c
s
n
0.4339 0.1266 m
0.4339 0.1436 l
0.4509 0.1436 l
0.4509 0.1266 l
0.4339 0.1266 l
c
s
n
0.4917 0.1309 m
0.4917 0.1479 l
0.5087 0.1479 l
0.5087 0.1309 l
0.4917 0.1309 l
c
s
n
0.5503 0.1353 m
0.5503 0.1523 l
0.5673 0.1523 l
0.5673 0.1353 l
0.5503 0.1353 l
c
s
n
0.6090 0.1395 m
0.6090 0.1565 l
0.6260 0.1565 l
0.6260 0.1395 l
0.6090 0.1395 l
c
s
n
0.6667 0.1436 m
0.6667 0.1606 l
0.6837 0.1606 l
0.6837 0.1436 l
0.6667 0.1436 l
c
s
n
0.7254 0.1477 m
0.7254 0.1647 l
0.7424 0.1647 l
0.7424 0.1477 l
0.7254 0.1477 l
c
s
n
0.7840 0.1517 m
0.7840 0.1687 l
0.8010 0.1687 l
0.8010 0.1517 l
0.7840 0.1517 l
c
s
n
0.8427 0.1558 m
0.8427 0.1728 l
0.8597 0.1728 l
0.8597 0.1558 l
0.8427 0.1558 l
c
s
n
0.9004 0.1596 m
0.9004 0.1766 l
0.9174 0.1766 l
0.9174 0.1596 l
0.9004 0.1596 l
c
s
n
0.9581 0.1634 m
0.9581 0.1804 l
0.9751 0.1804 l
0.9751 0.1634 l
0.9581 0.1634 l
c
s
n
1.0168 0.1670 m
1.0168 0.1840 l
1.0338 0.1840 l
1.0338 0.1670 l
1.0168 0.1670 l
c
s
n
1.0764 0.1710 m
1.0764 0.1880 l
1.0934 0.1880 l
1.0934 0.1710 l
1.0764 0.1710 l
c
s
n
1.1331 0.1744 m
1.1331 0.1914 l
1.1501 0.1914 l
1.1501 0.1744 l
1.1331 0.1744 l
c
s
[/DeviceRGB] SCS
Color1 SC
[] 0 SD
0.0015 SLW
n
0.1500 0.1000 m
1.1500 0.1000 l
s
n
0.1500 0.5000 m
1.1500 0.5000 l
s
n
0.1500 0.1000 m
0.1500 0.1100 l
s
n
0.1500 0.5000 m
0.1500 0.4900 l
s
n
0.3826 0.1000 m
0.3826 0.1100 l
s
n
0.3826 0.5000 m
0.3826 0.4900 l
s
n
0.6151 0.1000 m
0.6151 0.1100 l
s
n
0.6151 0.5000 m
0.6151 0.4900 l
s
n
0.8477 0.1000 m
0.8477 0.1100 l
s
n
0.8477 0.5000 m
0.8477 0.4900 l
s
n
1.0802 0.1000 m
1.0802 0.1100 l
s
n
1.0802 0.5000 m
1.0802 0.4900 l
s
n
0.2663 0.1000 m
0.2663 0.1200 l
s
n
0.2663 0.5000 m
0.2663 0.4800 l
s
n
0.4988 0.1000 m
0.4988 0.1200 l
s
n
0.4988 0.5000 m
0.4988 0.4800 l
s
n
0.7314 0.1000 m
0.7314 0.1200 l
s
n
0.7314 0.5000 m
0.7314 0.4800 l
s
n
0.9640 0.1000 m
0.9640 0.1200 l
s
n
0.9640 0.5000 m
0.9640 0.4800 l
s
/Times-Roman findfont
dup length dict begin
 {1 index /FID ne {def} {pop pop} ifelse} forall
 /Encoding DefEncoding def
 currentdict
end
/Font34 exch definefont pop
/Font34 FFSF
0.2498 0.0673 m
GS
[0.0336 0.0000 0.0000 0.0336 0 0] CC
(40) show
GR
/Font34 FFSF
0.4824 0.0669 m
GS
[0.0336 0.0000 0.0000 0.0336 0 0] CC
(50) show
GR
/Font34 FFSF
0.7149 0.0669 m
GS
[0.0336 0.0000 0.0000 0.0336 0 0] CC
(60) show
GR
/Font34 FFSF
0.9475 0.0673 m
GS
[0.0336 0.0000 0.0000 0.0336 0 0] CC
(70) show
GR
/Font34 FFSF
0.5775 0.0325 m
GS
[0.0364 0.0000 0.0000 0.0364 0 0] CC
(m) show
GR
/Font34 FFSF
0.6057 0.0180 m
GS
[0.0257 0.0000 0.0000 0.0257 0 0] CC
(BH) show
GR
/Font34 FFSF
0.6414 0.0325 m
GS
[0.0364 0.0000 0.0000 0.0364 0 0] CC
( [M) show
GR
/Font34 FFSF
0.6951 0.0180 m
GS
[0.0257 0.0000 0.0000 0.0257 0 0] CC
(O) show
GR
/Font34 FFSF
0.7135 0.0325 m
GS
[0.0364 0.0000 0.0000 0.0364 0 0] CC
(]) show
GR
/Font34 FFSF
0.7002 0.0253 m
GS
[0.0364 0.0000 0.0000 0.0364 0 0] CC
(.) show
GR
n
0.1500 0.1000 m
0.1500 0.5000 l
s
n
1.1500 0.1000 m
1.1500 0.5000 l
s
n
0.1500 0.1200 m
0.1600 0.1200 l
s
n
1.1500 0.1200 m
1.1400 0.1200 l
s
n
0.1500 0.1400 m
0.1600 0.1400 l
s
n
1.1500 0.1400 m
1.1400 0.1400 l
s
n
0.1500 0.1600 m
0.1600 0.1600 l
s
n
1.1500 0.1600 m
1.1400 0.1600 l
s
n
0.1500 0.1800 m
0.1600 0.1800 l
s
n
1.1500 0.1800 m
1.1400 0.1800 l
s
n
0.1500 0.2200 m
0.1600 0.2200 l
s
n
1.1500 0.2200 m
1.1400 0.2200 l
s
n
0.1500 0.2400 m
0.1600 0.2400 l
s
n
1.1500 0.2400 m
1.1400 0.2400 l
s
n
0.1500 0.2600 m
0.1600 0.2600 l
s
n
1.1500 0.2600 m
1.1400 0.2600 l
s
n
0.1500 0.2800 m
0.1600 0.2800 l
s
n
1.1500 0.2800 m
1.1400 0.2800 l
s
n
0.1500 0.3200 m
0.1600 0.3200 l
s
n
1.1500 0.3200 m
1.1400 0.3200 l
s
n
0.1500 0.3400 m
0.1600 0.3400 l
s
n
1.1500 0.3400 m
1.1400 0.3400 l
s
n
0.1500 0.3600 m
0.1600 0.3600 l
s
n
1.1500 0.3600 m
1.1400 0.3600 l
s
n
0.1500 0.3800 m
0.1600 0.3800 l
s
n
1.1500 0.3800 m
1.1400 0.3800 l
s
n
0.1500 0.4200 m
0.1600 0.4200 l
s
n
1.1500 0.4200 m
1.1400 0.4200 l
s
n
0.1500 0.4400 m
0.1600 0.4400 l
s
n
1.1500 0.4400 m
1.1400 0.4400 l
s
n
0.1500 0.4600 m
0.1600 0.4600 l
s
n
1.1500 0.4600 m
1.1400 0.4600 l
s
n
0.1500 0.4800 m
0.1600 0.4800 l
s
n
1.1500 0.4800 m
1.1400 0.4800 l
s
n
0.1500 0.1000 m
0.1700 0.1000 l
s
n
1.1500 0.1000 m
1.1300 0.1000 l
s
n
0.1500 0.2000 m
0.1700 0.2000 l
s
n
1.1500 0.2000 m
1.1300 0.2000 l
s
n
0.1500 0.3000 m
0.1700 0.3000 l
s
n
1.1500 0.3000 m
1.1300 0.3000 l
s
n
0.1500 0.4000 m
0.1700 0.4000 l
s
n
1.1500 0.4000 m
1.1300 0.4000 l
s
/Font34 FFSF
0.1071 0.0888 m
GS
[0.0336 0.0000 0.0000 0.0336 0 0] CC
(10) show
GR
/Font34 FFSF
0.1071 0.1888 m
GS
[0.0336 0.0000 0.0000 0.0336 0 0] CC
(20) show
GR
/Font34 FFSF
0.1071 0.2888 m
GS
[0.0336 0.0000 0.0000 0.0336 0 0] CC
(30) show
GR
/Font34 FFSF
0.1071 0.3888 m
GS
[0.0336 0.0000 0.0000 0.0336 0 0] CC
(40) show
GR
/Font34 FFSF
0.0821 0.1939 m
GS
[0.0000 0.0364 -0.0364 0.0000 0 0] CC
(|) show
GR
/Symbol findfont
/Font30 exch definefont pop
/Font30 FFSF
0.0821 0.2014 m
GS
[0.0000 0.0364 -0.0364 0.0000 0 0] CC
(a) show
GR
/Font34 FFSF
0.0967 0.2245 m
GS
[0.0000 0.0257 -0.0257 0.0000 0 0] CC
(EdGB) show
GR
/Font34 FFSF
0.0821 0.2888 m
GS
[0.0000 0.0364 -0.0364 0.0000 0 0] CC
(|) show
GR
/Font34 FFSF
0.0603 0.2963 m
GS
[0.0000 0.0257 -0.0257 0.0000 0 0] CC
(1/2) show
GR
/Font34 FFSF
0.0821 0.3292 m
GS
[0.0000 0.0364 -0.0364 0.0000 0 0] CC
( [km]) show
GR
n
0.1500 0.1000 m
0.1500 0.5000 l
1.1500 0.5000 l
1.1500 0.1000 l
0.1500 0.1000 l
c
s
/Font34 FFSF
0.7314 0.4000 m
GS
[0.0423 0.0000 0.0000 0.0423 0 0] CC
(EdGB) show
GR
/Font34 FFSF
0.7314 0.8300 m
GS
[0.0423 0.0000 0.0000 0.0423 0 0] CC
(dCS) show
GR
n
0.1501 0.5000 m
0.1501 0.5941 l
0.2088 0.6081 l
0.2674 0.6221 l
0.3261 0.6361 l
0.3838 0.6498 l
0.4424 0.6638 l
0.5002 0.6776 l
0.5588 0.6916 l
0.6175 0.7056 l
0.6752 0.7193 l
0.7339 0.7333 l
0.7925 0.7473 l
0.8512 0.7613 l
0.9089 0.7751 l
0.9666 0.7888 l
1.0253 0.8028 l
1.0849 0.8170 l
1.1416 0.8306 l
1.1416 0.5000 l
c
GS
Color0 SRGB
fill
GR
[/Pattern /DeviceRGB] SCS
Color9 Pattern14 SC
fill
[/DeviceRGB] SCS
Color14 SC
[0.0060 0.0180 0.0300 0.0180 ] 0 SD
0.0060 SLW
n
0.1501 0.5941 m
0.2088 0.6081 l
0.2674 0.6221 l
0.3261 0.6361 l
0.3838 0.6498 l
0.4424 0.6638 l
0.5002 0.6776 l
0.5588 0.6916 l
0.6175 0.7056 l
0.6752 0.7193 l
0.7339 0.7333 l
0.7925 0.7473 l
0.8512 0.7613 l
0.9089 0.7751 l
0.9666 0.7888 l
1.0253 0.8028 l
1.0849 0.8170 l
1.1416 0.8306 l
s
[/DeviceRGB] SCS
Color2 SC
[] 0 SD
0.0030 SLW
n
0.6175 0.7503 m
0.6752 0.7600 l
0.7329 0.7694 l
0.7916 0.7789 l
0.8512 0.7887 l
0.9089 0.7978 l
0.9675 0.8069 l
1.0253 0.8156 l
1.0839 0.8241 l
1.1416 0.8326 l
s
n 0.6175 0.7503 0.0100 0.0100 0 360 EARC s
n 0.6752 0.7600 0.0100 0.0100 0 360 EARC s
n 0.7329 0.7694 0.0100 0.0100 0 360 EARC s
n 0.7916 0.7789 0.0100 0.0100 0 360 EARC s
n 0.8512 0.7887 0.0100 0.0100 0 360 EARC s
n 0.9089 0.7978 0.0100 0.0100 0 360 EARC s
n 0.9675 0.8069 0.0100 0.0100 0 360 EARC s
n 1.0253 0.8156 0.0100 0.0100 0 360 EARC s
n 1.0839 0.8241 0.0100 0.0100 0 360 EARC s
n 1.1416 0.8326 0.0100 0.0100 0 360 EARC s
n
0.6175 0.7812 m
0.6752 0.7918 l
0.7329 0.8021 l
0.7916 0.8123 l
0.8512 0.8231 l
0.9089 0.8329 l
0.9675 0.8428 l
1.0253 0.8523 l
1.0839 0.8616 l
1.1416 0.8709 l
s
n
0.6175 0.7812 0.0100 0.0100 0 360 EARC c
fill
[] 0 SD
0.0015 SLW
n 0.6175 0.7812 0.0100 0.0100 0 360 EARC s
n
0.6752 0.7918 0.0100 0.0100 0 360 EARC c
fill
n 0.6752 0.7918 0.0100 0.0100 0 360 EARC s
n
0.7329 0.8021 0.0100 0.0100 0 360 EARC c
fill
n 0.7329 0.8021 0.0100 0.0100 0 360 EARC s
n
0.7916 0.8123 0.0100 0.0100 0 360 EARC c
fill
n 0.7916 0.8123 0.0100 0.0100 0 360 EARC s
n
0.8512 0.8231 0.0100 0.0100 0 360 EARC c
fill
n 0.8512 0.8231 0.0100 0.0100 0 360 EARC s
n
0.9089 0.8329 0.0100 0.0100 0 360 EARC c
fill
n 0.9089 0.8329 0.0100 0.0100 0 360 EARC s
n
0.9675 0.8428 0.0100 0.0100 0 360 EARC c
fill
n 0.9675 0.8428 0.0100 0.0100 0 360 EARC s
n
1.0253 0.8523 0.0100 0.0100 0 360 EARC c
fill
n 1.0253 0.8523 0.0100 0.0100 0 360 EARC s
n
1.0839 0.8616 0.0100 0.0100 0 360 EARC c
fill
n 1.0839 0.8616 0.0100 0.0100 0 360 EARC s
n
1.1416 0.8709 0.0100 0.0100 0 360 EARC c
fill
n 1.1416 0.8709 0.0100 0.0100 0 360 EARC s
[/DeviceRGB] SCS
Color4 SC
[] 0 SD
0.0030 SLW
n
0.1501 0.6210 m
0.2088 0.6307 l
0.2674 0.6400 l
0.3261 0.6491 l
0.3838 0.6578 l
0.4424 0.6665 l
0.5002 0.6751 l
0.5588 0.6838 l
0.6175 0.6921 l
0.6752 0.7001 l
0.7339 0.7082 l
0.7925 0.7161 l
0.8512 0.7241 l
0.9089 0.7316 l
0.9666 0.7391 l
1.0253 0.7463 l
1.0849 0.7541 l
1.1416 0.7609 l
s
n
0.1413 0.6121 m
0.1413 0.6298 l
0.1589 0.6298 l
0.1589 0.6121 l
0.1413 0.6121 l
c
s
n
0.1999 0.6219 m
0.1999 0.6396 l
0.2176 0.6396 l
0.2176 0.6219 l
0.1999 0.6219 l
c
s
n
0.2586 0.6311 m
0.2586 0.6488 l
0.2763 0.6488 l
0.2763 0.6311 l
0.2586 0.6311 l
c
s
n
0.3172 0.6402 m
0.3172 0.6579 l
0.3349 0.6579 l
0.3349 0.6402 l
0.3172 0.6402 l
c
s
n
0.3749 0.6489 m
0.3749 0.6666 l
0.3926 0.6666 l
0.3926 0.6489 l
0.3749 0.6489 l
c
s
n
0.4336 0.6577 m
0.4336 0.6754 l
0.4513 0.6754 l
0.4513 0.6577 l
0.4336 0.6577 l
c
s
n
0.4913 0.6663 m
0.4913 0.6839 l
0.5090 0.6839 l
0.5090 0.6663 l
0.4913 0.6663 l
c
s
n
0.5500 0.6750 m
0.5500 0.6927 l
0.5677 0.6927 l
0.5677 0.6750 l
0.5500 0.6750 l
c
s
n
0.6086 0.6832 m
0.6086 0.7009 l
0.6263 0.7009 l
0.6263 0.6832 l
0.6086 0.6832 l
c
s
n
0.6664 0.6912 m
0.6664 0.7089 l
0.6840 0.7089 l
0.6840 0.6912 l
0.6664 0.6912 l
c
s
n
0.7250 0.6994 m
0.7250 0.7171 l
0.7427 0.7171 l
0.7427 0.6994 l
0.7250 0.6994 l
c
s
n
0.7837 0.7073 m
0.7837 0.7250 l
0.8014 0.7250 l
0.8014 0.7073 l
0.7837 0.7073 l
c
s
n
0.8423 0.7153 m
0.8423 0.7330 l
0.8600 0.7330 l
0.8600 0.7153 l
0.8423 0.7153 l
c
s
n
0.9000 0.7228 m
0.9000 0.7405 l
0.9177 0.7405 l
0.9177 0.7228 l
0.9000 0.7228 l
c
s
n
0.9578 0.7303 m
0.9578 0.7480 l
0.9754 0.7480 l
0.9754 0.7303 l
0.9578 0.7303 l
c
s
n
1.0164 0.7375 m
1.0164 0.7551 l
1.0341 0.7551 l
1.0341 0.7375 l
1.0164 0.7375 l
c
s
n
1.0760 0.7453 m
1.0760 0.7629 l
1.0937 0.7629 l
1.0937 0.7453 l
1.0760 0.7453 l
c
s
n
1.1328 0.7520 m
1.1328 0.7697 l
1.1505 0.7697 l
1.1505 0.7520 l
1.1328 0.7520 l
c
s
n
0.1501 0.6405 m
0.2088 0.6511 l
0.2674 0.6612 l
0.3261 0.6711 l
0.3838 0.6806 l
0.4424 0.6901 l
0.5002 0.6994 l
0.5588 0.7089 l
0.6175 0.7179 l
0.6752 0.7266 l
0.7339 0.7354 l
0.7925 0.7441 l
0.8512 0.7528 l
0.9089 0.7609 l
0.9666 0.7691 l
1.0253 0.7769 l
1.0849 0.7854 l
1.1416 0.7928 l
s
n
0.1416 0.6320 m
0.1416 0.6490 l
0.1586 0.6490 l
0.1586 0.6320 l
c
fill
[] 0 SD
0.0015 SLW
n
0.1416 0.6320 m
0.1416 0.6490 l
0.1586 0.6490 l
0.1586 0.6320 l
0.1416 0.6320 l
c
s
n
0.2003 0.6426 m
0.2003 0.6596 l
0.2173 0.6596 l
0.2173 0.6426 l
c
fill
n
0.2003 0.6426 m
0.2003 0.6596 l
0.2173 0.6596 l
0.2173 0.6426 l
0.2003 0.6426 l
c
s
n
0.2589 0.6527 m
0.2589 0.6697 l
0.2759 0.6697 l
0.2759 0.6527 l
c
fill
n
0.2589 0.6527 m
0.2589 0.6697 l
0.2759 0.6697 l
0.2759 0.6527 l
0.2589 0.6527 l
c
s
n
0.3176 0.6626 m
0.3176 0.6796 l
0.3346 0.6796 l
0.3346 0.6626 l
c
fill
n
0.3176 0.6626 m
0.3176 0.6796 l
0.3346 0.6796 l
0.3346 0.6626 l
0.3176 0.6626 l
c
s
n
0.3753 0.6721 m
0.3753 0.6891 l
0.3923 0.6891 l
0.3923 0.6721 l
c
fill
n
0.3753 0.6721 m
0.3753 0.6891 l
0.3923 0.6891 l
0.3923 0.6721 l
0.3753 0.6721 l
c
s
n
0.4339 0.6816 m
0.4339 0.6986 l
0.4509 0.6986 l
0.4509 0.6816 l
c
fill
n
0.4339 0.6816 m
0.4339 0.6986 l
0.4509 0.6986 l
0.4509 0.6816 l
0.4339 0.6816 l
c
s
n
0.4917 0.6909 m
0.4917 0.7079 l
0.5087 0.7079 l
0.5087 0.6909 l
c
fill
n
0.4917 0.6909 m
0.4917 0.7079 l
0.5087 0.7079 l
0.5087 0.6909 l
0.4917 0.6909 l
c
s
n
0.5503 0.7004 m
0.5503 0.7174 l
0.5673 0.7174 l
0.5673 0.7004 l
c
fill
n
0.5503 0.7004 m
0.5503 0.7174 l
0.5673 0.7174 l
0.5673 0.7004 l
0.5503 0.7004 l
c
s
n
0.6090 0.7094 m
0.6090 0.7264 l
0.6260 0.7264 l
0.6260 0.7094 l
c
fill
n
0.6090 0.7094 m
0.6090 0.7264 l
0.6260 0.7264 l
0.6260 0.7094 l
0.6090 0.7094 l
c
s
n
0.6667 0.7181 m
0.6667 0.7351 l
0.6837 0.7351 l
0.6837 0.7181 l
c
fill
n
0.6667 0.7181 m
0.6667 0.7351 l
0.6837 0.7351 l
0.6837 0.7181 l
0.6667 0.7181 l
c
s
n
0.7254 0.7269 m
0.7254 0.7439 l
0.7424 0.7439 l
0.7424 0.7269 l
c
fill
n
0.7254 0.7269 m
0.7254 0.7439 l
0.7424 0.7439 l
0.7424 0.7269 l
0.7254 0.7269 l
c
s
n
0.7840 0.7356 m
0.7840 0.7526 l
0.8010 0.7526 l
0.8010 0.7356 l
c
fill
n
0.7840 0.7356 m
0.7840 0.7526 l
0.8010 0.7526 l
0.8010 0.7356 l
0.7840 0.7356 l
c
s
n
0.8427 0.7443 m
0.8427 0.7613 l
0.8597 0.7613 l
0.8597 0.7443 l
c
fill
n
0.8427 0.7443 m
0.8427 0.7613 l
0.8597 0.7613 l
0.8597 0.7443 l
0.8427 0.7443 l
c
s
n
0.9004 0.7524 m
0.9004 0.7694 l
0.9174 0.7694 l
0.9174 0.7524 l
c
fill
n
0.9004 0.7524 m
0.9004 0.7694 l
0.9174 0.7694 l
0.9174 0.7524 l
0.9004 0.7524 l
c
s
n
0.9581 0.7606 m
0.9581 0.7776 l
0.9751 0.7776 l
0.9751 0.7606 l
c
fill
n
0.9581 0.7606 m
0.9581 0.7776 l
0.9751 0.7776 l
0.9751 0.7606 l
0.9581 0.7606 l
c
s
n
1.0168 0.7684 m
1.0168 0.7854 l
1.0338 0.7854 l
1.0338 0.7684 l
c
fill
n
1.0168 0.7684 m
1.0168 0.7854 l
1.0338 0.7854 l
1.0338 0.7684 l
1.0168 0.7684 l
c
s
n
1.0764 0.7769 m
1.0764 0.7939 l
1.0934 0.7939 l
1.0934 0.7769 l
c
fill
n
1.0764 0.7769 m
1.0764 0.7939 l
1.0934 0.7939 l
1.0934 0.7769 l
1.0764 0.7769 l
c
s
n
1.1331 0.7843 m
1.1331 0.8013 l
1.1501 0.8013 l
1.1501 0.7843 l
c
fill
n
1.1331 0.7843 m
1.1331 0.8013 l
1.1501 0.8013 l
1.1501 0.7843 l
1.1331 0.7843 l
c
s
[/DeviceRGB] SCS
Color1 SC
n
0.1500 0.5000 m
1.1500 0.5000 l
s
n
0.1500 0.9000 m
1.1500 0.9000 l
s
n
0.1500 0.5000 m
0.1500 0.5100 l
s
n
0.1500 0.9000 m
0.1500 0.8900 l
s
n
0.3826 0.5000 m
0.3826 0.5100 l
s
n
0.3826 0.9000 m
0.3826 0.8900 l
s
n
0.6151 0.5000 m
0.6151 0.5100 l
s
n
0.6151 0.9000 m
0.6151 0.8900 l
s
n
0.8477 0.5000 m
0.8477 0.5100 l
s
n
0.8477 0.9000 m
0.8477 0.8900 l
s
n
1.0802 0.5000 m
1.0802 0.5100 l
s
n
1.0802 0.9000 m
1.0802 0.8900 l
s
n
0.2663 0.5000 m
0.2663 0.5200 l
s
n
0.2663 0.9000 m
0.2663 0.8800 l
s
n
0.4988 0.5000 m
0.4988 0.5200 l
s
n
0.4988 0.9000 m
0.4988 0.8800 l
s
n
0.7314 0.5000 m
0.7314 0.5200 l
s
n
0.7314 0.9000 m
0.7314 0.8800 l
s
n
0.9640 0.5000 m
0.9640 0.5200 l
s
n
0.9640 0.9000 m
0.9640 0.8800 l
s
n
0.1500 0.5000 m
0.1500 0.9000 l
s
n
1.1500 0.5000 m
1.1500 0.9000 l
s
n
0.1500 0.5200 m
0.1600 0.5200 l
s
n
1.1500 0.5200 m
1.1400 0.5200 l
s
n
0.1500 0.5400 m
0.1600 0.5400 l
s
n
1.1500 0.5400 m
1.1400 0.5400 l
s
n
0.1500 0.5600 m
0.1600 0.5600 l
s
n
1.1500 0.5600 m
1.1400 0.5600 l
s
n
0.1500 0.5800 m
0.1600 0.5800 l
s
n
1.1500 0.5800 m
1.1400 0.5800 l
s
n
0.1500 0.6200 m
0.1600 0.6200 l
s
n
1.1500 0.6200 m
1.1400 0.6200 l
s
n
0.1500 0.6400 m
0.1600 0.6400 l
s
n
1.1500 0.6400 m
1.1400 0.6400 l
s
n
0.1500 0.6600 m
0.1600 0.6600 l
s
n
1.1500 0.6600 m
1.1400 0.6600 l
s
n
0.1500 0.6800 m
0.1600 0.6800 l
s
n
1.1500 0.6800 m
1.1400 0.6800 l
s
n
0.1500 0.7200 m
0.1600 0.7200 l
s
n
1.1500 0.7200 m
1.1400 0.7200 l
s
n
0.1500 0.7400 m
0.1600 0.7400 l
s
n
1.1500 0.7400 m
1.1400 0.7400 l
s
n
0.1500 0.7600 m
0.1600 0.7600 l
s
n
1.1500 0.7600 m
1.1400 0.7600 l
s
n
0.1500 0.7800 m
0.1600 0.7800 l
s
n
1.1500 0.7800 m
1.1400 0.7800 l
s
n
0.1500 0.8200 m
0.1600 0.8200 l
s
n
1.1500 0.8200 m
1.1400 0.8200 l
s
n
0.1500 0.8400 m
0.1600 0.8400 l
s
n
1.1500 0.8400 m
1.1400 0.8400 l
s
n
0.1500 0.8600 m
0.1600 0.8600 l
s
n
1.1500 0.8600 m
1.1400 0.8600 l
s
n
0.1500 0.8800 m
0.1600 0.8800 l
s
n
1.1500 0.8800 m
1.1400 0.8800 l
s
n
0.1500 0.6000 m
0.1700 0.6000 l
s
n
1.1500 0.6000 m
1.1300 0.6000 l
s
n
0.1500 0.7000 m
0.1700 0.7000 l
s
n
1.1500 0.7000 m
1.1300 0.7000 l
s
n
0.1500 0.8000 m
0.1700 0.8000 l
s
n
1.1500 0.8000 m
1.1300 0.8000 l
s
n
0.1500 0.9000 m
0.1700 0.9000 l
s
n
1.1500 0.9000 m
1.1300 0.9000 l
s
/Font34 FFSF
0.1071 0.5888 m
GS
[0.0336 0.0000 0.0000 0.0336 0 0] CC
(20) show
GR
/Font34 FFSF
0.1071 0.6888 m
GS
[0.0336 0.0000 0.0000 0.0336 0 0] CC
(30) show
GR
/Font34 FFSF
0.1071 0.7888 m
GS
[0.0336 0.0000 0.0000 0.0336 0 0] CC
(40) show
GR
/Font34 FFSF
0.1071 0.8886 m
GS
[0.0336 0.0000 0.0000 0.0336 0 0] CC
(50) show
GR
/Font34 FFSF
0.0821 0.6039 m
GS
[0.0000 0.0364 -0.0364 0.0000 0 0] CC
(|) show
GR
/Font30 FFSF
0.0821 0.6114 m
GS
[0.0000 0.0364 -0.0364 0.0000 0 0] CC
(a) show
GR
/Font34 FFSF
0.0967 0.6345 m
GS
[0.0000 0.0257 -0.0257 0.0000 0 0] CC
(dCS) show
GR
/Font34 FFSF
0.0821 0.6788 m
GS
[0.0000 0.0364 -0.0364 0.0000 0 0] CC
(|) show
GR
/Font34 FFSF
0.0603 0.6863 m
GS
[0.0000 0.0257 -0.0257 0.0000 0 0] CC
(1/2) show
GR
/Font34 FFSF
0.0821 0.7192 m
GS
[0.0000 0.0364 -0.0364 0.0000 0 0] CC
( [km]) show
GR
n
0.1500 0.5000 m
0.1500 0.9000 l
1.1500 0.9000 l
1.1500 0.5000 l
0.1500 0.5000 l
c
s
n
0.1700 1.1000 m
0.1700 0.8091 l
0.6580 0.8091 l
0.6580 1.1000 l
c
[/DeviceRGB] SCS
Color0 SC
fill
[/DeviceRGB] SCS
Color1 SC
n
0.1700 1.1000 m
0.1700 0.8091 l
0.6580 0.8091 l
0.6580 1.1000 l
0.1700 1.1000 l
c
s
/Font34 FFSF
0.2919 1.0669 m
GS
[0.0336 0.0000 0.0000 0.0336 0 0] CC
(Small Coupling Threshold) show
GR
[/DeviceRGB] SCS
Color14 SC
[0.0060 0.0180 0.0300 0.0180 ] 0 SD
0.0060 SLW
n
0.1915 1.0747 m
0.2715 1.0747 l
s
/Font30 FFSF
[/DeviceRGB] SCS
Color1 SC
0.2919 1.0132 m
GS
[0.0336 0.0000 0.0000 0.0336 0 0] CC
(q) show
GR
/Font34 FFSF
0.3095 0.9997 m
GS
[0.0238 0.0000 0.0000 0.0238 0 0] CC
(s) show
GR
/Font34 FFSF
0.3190 1.0132 m
GS
[0.0336 0.0000 0.0000 0.0336 0 0] CC
( = 20) show
GR
/Font34 FFSF
0.3884 1.0333 m
GS
[0.0238 0.0000 0.0000 0.0238 0 0] CC
(o) show
GR
/Font34 FFSF
0.4001 1.0132 m
GS
[0.0336 0.0000 0.0000 0.0336 0 0] CC
(, to O\() show
GR
/Font30 FFSF
0.4868 1.0132 m
GS
[0.0336 0.0000 0.0000 0.0336 0 0] CC
(c) show
GR
/Font34 FFSF
0.5052 1.0333 m
GS
[0.0238 0.0000 0.0000 0.0238 0 0] CC
(2) show
GR
/Font34 FFSF
0.5170 1.0132 m
GS
[0.0336 0.0000 0.0000 0.0336 0 0] CC
(\)) show
GR
[/DeviceRGB] SCS
Color2 SC
[] 0 SD
0.0030 SLW
n
0.1915 1.0244 m
0.2715 1.0244 l
s
n 0.1915 1.0244 0.0100 0.0100 0 360 EARC s
n 0.2715 1.0244 0.0100 0.0100 0 360 EARC s
/Font30 FFSF
[/DeviceRGB] SCS
Color1 SC
0.2919 0.9531 m
GS
[0.0336 0.0000 0.0000 0.0336 0 0] CC
(q) show
GR
/Font34 FFSF
0.3095 0.9397 m
GS
[0.0238 0.0000 0.0000 0.0238 0 0] CC
(s) show
GR
/Font34 FFSF
0.3190 0.9531 m
GS
[0.0336 0.0000 0.0000 0.0336 0 0] CC
( = 20) show
GR
/Font34 FFSF
0.3884 0.9733 m
GS
[0.0238 0.0000 0.0000 0.0238 0 0] CC
(o) show
GR
/Font34 FFSF
0.4001 0.9531 m
GS
[0.0336 0.0000 0.0000 0.0336 0 0] CC
(, to O\() show
GR
/Font30 FFSF
0.4868 0.9531 m
GS
[0.0336 0.0000 0.0000 0.0336 0 0] CC
(c) show
GR
/Font34 FFSF
0.5052 0.9733 m
GS
[0.0238 0.0000 0.0000 0.0238 0 0] CC
(4) show
GR
/Font34 FFSF
0.5170 0.9531 m
GS
[0.0336 0.0000 0.0000 0.0336 0 0] CC
(\)) show
GR
[/DeviceRGB] SCS
Color2 SC
n
0.1915 0.9643 m
0.2715 0.9643 l
s
n
0.1915 0.9643 0.0100 0.0100 0 360 EARC c
fill
[] 0 SD
0.0015 SLW
n 0.1915 0.9643 0.0100 0.0100 0 360 EARC s
n
0.2715 0.9643 0.0100 0.0100 0 360 EARC c
fill
n 0.2715 0.9643 0.0100 0.0100 0 360 EARC s
/Font30 FFSF
[/DeviceRGB] SCS
Color1 SC
0.2919 0.8930 m
GS
[0.0336 0.0000 0.0000 0.0336 0 0] CC
(q) show
GR
/Font34 FFSF
0.3095 0.8796 m
GS
[0.0238 0.0000 0.0000 0.0238 0 0] CC
(s) show
GR
/Font34 FFSF
0.3190 0.8930 m
GS
[0.0336 0.0000 0.0000 0.0336 0 0] CC
( = 45) show
GR
/Font34 FFSF
0.3884 0.9132 m
GS
[0.0238 0.0000 0.0000 0.0238 0 0] CC
(o) show
GR
/Font34 FFSF
0.4001 0.8930 m
GS
[0.0336 0.0000 0.0000 0.0336 0 0] CC
(, to O\() show
GR
/Font30 FFSF
0.4868 0.8930 m
GS
[0.0336 0.0000 0.0000 0.0336 0 0] CC
(c) show
GR
/Font34 FFSF
0.5052 0.9132 m
GS
[0.0238 0.0000 0.0000 0.0238 0 0] CC
(2) show
GR
/Font34 FFSF
0.5170 0.8930 m
GS
[0.0336 0.0000 0.0000 0.0336 0 0] CC
(\)) show
GR
[/DeviceRGB] SCS
Color4 SC
[] 0 SD
0.0030 SLW
n
0.1915 0.9042 m
0.2715 0.9042 l
s
n
0.1827 0.8954 m
0.1827 0.9131 l
0.2003 0.9131 l
0.2003 0.8954 l
0.1827 0.8954 l
c
s
n
0.2627 0.8954 m
0.2627 0.9131 l
0.2803 0.9131 l
0.2803 0.8954 l
0.2627 0.8954 l
c
s
/Font30 FFSF
[/DeviceRGB] SCS
Color1 SC
0.2919 0.8330 m
GS
[0.0336 0.0000 0.0000 0.0336 0 0] CC
(q) show
GR
/Font34 FFSF
0.3095 0.8195 m
GS
[0.0238 0.0000 0.0000 0.0238 0 0] CC
(s) show
GR
/Font34 FFSF
0.3190 0.8330 m
GS
[0.0336 0.0000 0.0000 0.0336 0 0] CC
( = 45) show
GR
/Font34 FFSF
0.3884 0.8531 m
GS
[0.0238 0.0000 0.0000 0.0238 0 0] CC
(o) show
GR
/Font34 FFSF
0.4001 0.8330 m
GS
[0.0336 0.0000 0.0000 0.0336 0 0] CC
(, to O\() show
GR
/Font30 FFSF
0.4868 0.8330 m
GS
[0.0336 0.0000 0.0000 0.0336 0 0] CC
(c) show
GR
/Font34 FFSF
0.5052 0.8531 m
GS
[0.0238 0.0000 0.0000 0.0238 0 0] CC
(4) show
GR
/Font34 FFSF
0.5170 0.8330 m
GS
[0.0336 0.0000 0.0000 0.0336 0 0] CC
(\)) show
GR
[/DeviceRGB] SCS
Color4 SC
n
0.1915 0.8442 m
0.2715 0.8442 l
s
n
0.1830 0.8357 m
0.1830 0.8527 l
0.2000 0.8527 l
0.2000 0.8357 l
c
fill
[] 0 SD
0.0015 SLW
n
0.1830 0.8357 m
0.1830 0.8527 l
0.2000 0.8527 l
0.2000 0.8357 l
0.1830 0.8357 l
c
s
n
0.2630 0.8357 m
0.2630 0.8527 l
0.2800 0.8527 l
0.2800 0.8357 l
c
fill
n
0.2630 0.8357 m
0.2630 0.8527 l
0.2800 0.8527 l
0.2800 0.8357 l
0.2630 0.8357 l
c
s
%%Trailer
%%BoundingBox: 25 9 707 675
%%DocumentNeededResources: font Symbol
%%+ font Times-Roman
%%EOF
