%!PS-Adobe-3.0 EPSF-3.0
%%BoundingBox: (atend)
%%LanguageLevel: 2
%%Creator: Grace-5.1.25
%%CreationDate: Sun Sep 16 14:25:38 2018
%%DocumentData: Clean8Bit
%%Orientation: Portrait
%%Title: Fierz_Pauli.agr
%%For: bseymour
%%DocumentNeededResources: (atend)
%%EndComments
%%BeginProlog
/m {moveto} def
/l {lineto} def
/s {stroke} def
/n {newpath} def
/c {closepath} def
/RL {rlineto} def
/SLW {setlinewidth} def
/GS {gsave} def
/GR {grestore} def
/SC {setcolor} def
/SGRY {setgray} def
/SRGB {setrgbcolor} def
/SD {setdash} def
/SLC {setlinecap} def
/SLJ {setlinejoin} def
/SCS {setcolorspace} def
/FFSF {findfont setfont} def
/CC {concat} def
/PXL {n m 0 0 RL s} def
/Color0 {1.0000 1.0000 1.0000} def
/Color1 {0.0000 0.0000 0.0000} def
/Color2 {1.0000 0.0000 0.0000} def
/Color3 {0.0000 1.0000 0.0000} def
/Color4 {0.0000 0.0000 1.0000} def
/Color5 {1.0000 1.0000 0.0000} def
/Color6 {0.7373 0.5608 0.5608} def
/Color7 {0.8627 0.8627 0.8627} def
/Color8 {0.5804 0.0000 0.8275} def
/Color9 {0.0000 1.0000 1.0000} def
/Color10 {1.0000 0.0000 1.0000} def
/Color11 {1.0000 0.6471 0.0000} def
/Color12 {0.4471 0.1294 0.7373} def
/Color13 {0.4039 0.0275 0.2824} def
/Color14 {0.2510 0.8784 0.8157} def
/Color15 {0.0000 0.5451 0.0000} def
/Color16 {0.7529 0.7529 0.7529} def
/Color17 {0.5059 0.5059 0.5059} def
/Color18 {0.2588 0.2588 0.2588} def
/PTRN {
 /pat_bits exch def 
 <<
  /PaintType 2
  /PatternType 1 /TilingType 1
  /BBox[0 0 16 16]
  /XStep 16 /YStep 16
  /PaintProc {
   pop
   16 16 true [-1 0 0 -1 16 16] pat_bits imagemask
  }
 >>
 [0.0016 0 0 0.0016 0 0]
 makepattern
} def
/Pattern0 {<0000000000000000000000000000000000000000000000000000000000000000> PTRN} bind def
/Pattern1 {<ffffffffffffffffffffffffffffffffffffffffffffffffffffffffffffffff> PTRN} bind def
/Pattern2 {<eeeeffffbbbbffffeeeeffffbbbbffffeeeeffffbbbbffffeeeeffffbbbbffff> PTRN} bind def
/Pattern3 {<eeeebbbbeeeebbbbeeeebbbbeeeebbbbeeeebbbbeeeebbbbeeeebbbbeeeebbbb> PTRN} bind def
/Pattern4 {<5555aaaa5555aaaa5555aaaa5555aaaa5555aaaa5555aaaa5555aaaa5555aaaa> PTRN} bind def
/Pattern5 {<1111444411114444111144441111444411114444111144441111444411114444> PTRN} bind def
/Pattern6 {<1111000044440000111100004444000011110000444400001111000044440000> PTRN} bind def
/Pattern7 {<1010000000000000010100000000000010100000000000000101000000000000> PTRN} bind def
/Pattern8 {<0000000000000000000000000000000000000000000000000000000000000000> PTRN} bind def
/Pattern9 {<1e1e0f0f8787c3c3e1e1f0f078783c3c1e1e0f0f8787c3c3e1e1f0f078783c3c> PTRN} bind def
/Pattern10 {<7878f0f0e1e1c3c387870f0f1e1e3c3c7878f0f0e1e1c3c387870f0f1e1e3c3c> PTRN} bind def
/Pattern11 {<3333333333333333333333333333333333333333333333333333333333333333> PTRN} bind def
/Pattern12 {<ffffffff00000000ffffffff00000000ffffffff00000000ffffffff00000000> PTRN} bind def
/Pattern13 {<8181424224241818181824244242818181814242242418181818242442428181> PTRN} bind def
/Pattern14 {<8080404020201010080804040202010180804040202010100808040402020101> PTRN} bind def
/Pattern15 {<0101020204040808101020204040808001010202040408081010202040408080> PTRN} bind def
/Pattern16 {<2222222222222222222222222222222222222222222222222222222222222222> PTRN} bind def
/Pattern17 {<0000ffff000000000000ffff000000000000ffff000000000000ffff00000000> PTRN} bind def
/Pattern18 {<2222ffff222222222222ffff222222222222ffff222222222222ffff22222222> PTRN} bind def
/Pattern19 {<ffffffff33333333ffffffff33333333ffffffff33333333ffffffff33333333> PTRN} bind def
/Pattern20 {<0f0f0f0f0f0f0f0ff0f0f0f0f0f0f0f00f0f0f0f0f0f0f0ff0f0f0f0f0f0f0f0> PTRN} bind def
/Pattern21 {<ff00ff00ff00ff00ff00ff00ff00ff0000ff00ff00ff00ff00ff00ff00ff00ff> PTRN} bind def
/Pattern22 {<8001800180018001800180018001ffffffff8001800180018001800180018001> PTRN} bind def
/Pattern23 {<c003c003c003c003c003c003ffffffffffffffffc003c003c003c003c003c003> PTRN} bind def
/Pattern24 {<040404040404ffff404040404040ffff040404040404ffff404040404040ffff> PTRN} bind def
/Pattern25 {<180018001800180018001800ffffffff001800180018001800180018ffffffff> PTRN} bind def
/Pattern26 {<1111b8b87c7c3a3a1111a3a3c7c78b8b1111b8b87c7c3a3a1111a3a3c7c78b8b> PTRN} bind def
/Pattern27 {<101010102828c7c70101010182827c7c101010102828c7c70101010182827c7c> PTRN} bind def
/Pattern28 {<1c1c121211112121c1c12121111112121c1c121211112121c1c1212111111212> PTRN} bind def
/Pattern29 {<3e3e414180808080e3e31414080808083e3e414180808080e3e3141408080808> PTRN} bind def
/Pattern30 {<4848888884848383848488884848383848488888848483838484888848483838> PTRN} bind def
/Pattern31 {<03030404080808080c0c12122121c0c003030404080808080c0c12122121c0c0> PTRN} bind def
/ellipsedict 8 dict def
ellipsedict /mtrx matrix put
/EARC {
 ellipsedict begin
  /endangle exch def
  /startangle exch def
  /yrad exch def
  /xrad exch def
  /y exch def
  /x exch def
  /savematrix mtrx currentmatrix def
  x y translate
  xrad yrad scale
  0 0 1 startangle endangle arc
  savematrix setmatrix
 end
} def
/TL {
  /kcomp exch def
  /linewidth exch def
  /offset exch def
  GS
  0 offset rmoveto
  linewidth SLW
  dup stringwidth exch kcomp add exch RL s
  GR
} def
/KINIT
{
 /kvector exch def
 /kid 0 def
} def
/KPROC
{
 pop pop
 kvector kid get
 0 rmoveto
 /kid 1 kid add def
} def
/DefEncoding [
 /.notdef
 /.notdef
 /.notdef
 /.notdef
 /.notdef
 /.notdef
 /.notdef
 /.notdef
 /.notdef
 /.notdef
 /.notdef
 /.notdef
 /.notdef
 /.notdef
 /.notdef
 /.notdef
 /.notdef
 /.notdef
 /.notdef
 /.notdef
 /.notdef
 /.notdef
 /.notdef
 /.notdef
 /.notdef
 /.notdef
 /.notdef
 /.notdef
 /.notdef
 /.notdef
 /.notdef
 /.notdef
 /space
 /exclam
 /quotedbl
 /numbersign
 /dollar
 /percent
 /ampersand
 /quoteright
 /parenleft
 /parenright
 /asterisk
 /plus
 /comma
 /hyphen
 /period
 /slash
 /zero
 /one
 /two
 /three
 /four
 /five
 /six
 /seven
 /eight
 /nine
 /colon
 /semicolon
 /less
 /equal
 /greater
 /question
 /at
 /A
 /B
 /C
 /D
 /E
 /F
 /G
 /H
 /I
 /J
 /K
 /L
 /M
 /N
 /O
 /P
 /Q
 /R
 /S
 /T
 /U
 /V
 /W
 /X
 /Y
 /Z
 /bracketleft
 /backslash
 /bracketright
 /asciicircum
 /underscore
 /grave
 /a
 /b
 /c
 /d
 /e
 /f
 /g
 /h
 /i
 /j
 /k
 /l
 /m
 /n
 /o
 /p
 /q
 /r
 /s
 /t
 /u
 /v
 /w
 /x
 /y
 /z
 /braceleft
 /bar
 /braceright
 /asciitilde
 /.notdef
 /.notdef
 /.notdef
 /.notdef
 /.notdef
 /.notdef
 /.notdef
 /.notdef
 /.notdef
 /.notdef
 /.notdef
 /.notdef
 /.notdef
 /.notdef
 /.notdef
 /.notdef
 /.notdef
 /.notdef
 /.notdef
 /.notdef
 /.notdef
 /.notdef
 /.notdef
 /.notdef
 /.notdef
 /.notdef
 /.notdef
 /.notdef
 /.notdef
 /.notdef
 /.notdef
 /.notdef
 /.notdef
 /space
 /exclamdown
 /cent
 /sterling
 /currency
 /yen
 /brokenbar
 /section
 /dieresis
 /copyright
 /ordfeminine
 /guillemotleft
 /logicalnot
 /hyphen
 /registered
 /macron
 /degree
 /plusminus
 /twosuperior
 /threesuperior
 /acute
 /mu
 /paragraph
 /periodcentered
 /cedilla
 /onesuperior
 /ordmasculine
 /guillemotright
 /onequarter
 /onehalf
 /threequarters
 /questiondown
 /Agrave
 /Aacute
 /Acircumflex
 /Atilde
 /Adieresis
 /Aring
 /AE
 /Ccedilla
 /Egrave
 /Eacute
 /Ecircumflex
 /Edieresis
 /Igrave
 /Iacute
 /Icircumflex
 /Idieresis
 /Eth
 /Ntilde
 /Ograve
 /Oacute
 /Ocircumflex
 /Otilde
 /Odieresis
 /multiply
 /Oslash
 /Ugrave
 /Uacute
 /Ucircumflex
 /Udieresis
 /Yacute
 /Thorn
 /germandbls
 /agrave
 /aacute
 /acircumflex
 /atilde
 /adieresis
 /aring
 /ae
 /ccedilla
 /egrave
 /eacute
 /ecircumflex
 /edieresis
 /igrave
 /iacute
 /icircumflex
 /idieresis
 /eth
 /ntilde
 /ograve
 /oacute
 /ocircumflex
 /otilde
 /odieresis
 /divide
 /oslash
 /ugrave
 /uacute
 /ucircumflex
 /udieresis
 /yacute
 /thorn
 /ydieresis
] def
%%EndProlog
%%BeginSetup
%%EndSetup
612.00 612.00 scale
n
0.0000 0.0000 m
0.0000 1.0000 l
1.2941 1.0000 l
1.2941 0.0000 l
c
[/DeviceRGB] SCS
Color0 SC
fill
[/DeviceRGB] SCS
Color2 SC
[0.0060 0.0180 ] 0 SD
0.0060 SLW
0 SLC
0 SLJ
n
0.2000 0.6097 m
0.2062 0.6131 l
0.2133 0.6173 l
0.2212 0.6214 l
0.2300 0.6256 l
0.2400 0.6298 l
0.2513 0.6339 l
0.2640 0.6381 l
0.2782 0.6422 l
0.2942 0.6464 l
0.3122 0.6505 l
0.3325 0.6547 l
0.3553 0.6589 l
0.3809 0.6630 l
0.4098 0.6672 l
0.4422 0.6714 l
0.4788 0.6755 l
0.5198 0.6797 l
0.5660 0.6838 l
0.6180 0.6880 l
0.6765 0.6922 l
0.7423 0.6963 l
0.8163 0.7004 l
0.8995 0.7046 l
0.9932 0.7088 l
1.0985 0.7130 l
s
[/DeviceRGB] SCS
Color1 SC
[0.0300 0.0180 ] 0 SD
0.0060 SLW
n
0.2000 0.5567 m
0.2062 0.5600 l
0.2133 0.5642 l
0.2231 0.5693 l
0.2302 0.5725 l
0.2380 0.5758 l
0.2465 0.5791 l
0.2558 0.5823 l
0.2661 0.5856 l
0.2773 0.5888 l
0.2896 0.5921 l
0.3031 0.5954 l
0.3180 0.5986 l
0.3342 0.6019 l
0.3520 0.6052 l
0.3716 0.6084 l
0.3931 0.6117 l
0.4166 0.6149 l
0.4424 0.6182 l
0.4707 0.6215 l
0.5017 0.6247 l
0.5358 0.6280 l
0.5731 0.6313 l
0.6141 0.6346 l
0.6590 0.6378 l
0.7083 0.6410 l
0.7623 0.6443 l
0.8216 0.6476 l
0.8866 0.6509 l
0.9579 0.6541 l
1.0361 0.6574 l
1.1219 0.6607 l
s
[/DeviceRGB] SCS
Color10 SC
[0.0300 0.0180 0.0060 0.0180 0.0300 0.0180 ] 0 SD
0.0060 SLW
n
0.1500 0.8306 m
1.1500 0.8306 l
s
[/DeviceRGB] SCS
Color6 SC
[0.0060 0.0180 0.0420 0.0180 ] 0 SD
0.0060 SLW
n
0.1500 0.3414 m
1.1500 0.3414 l
s
[/DeviceRGB] SCS
Color4 SC
[0.0060 0.0180 0.0300 0.0180 0.0060 0.0180 ] 0 SD
0.0060 SLW
n
0.1500 0.1832 m
1.1500 0.1832 l
s
[/DeviceRGB] SCS
Color1 SC
[] 0 SD
0.0015 SLW
n
0.1500 0.1500 m
1.1500 0.1500 l
s
n
0.1500 0.8500 m
1.1500 0.8500 l
s
n
0.2333 0.1500 m
0.2333 0.1600 l
s
n
0.2333 0.8500 m
0.2333 0.8400 l
s
n
0.4000 0.1500 m
0.4000 0.1600 l
s
n
0.4000 0.8500 m
0.4000 0.8400 l
s
n
0.5667 0.1500 m
0.5667 0.1600 l
s
n
0.5667 0.8500 m
0.5667 0.8400 l
s
n
0.7333 0.1500 m
0.7333 0.1600 l
s
n
0.7333 0.8500 m
0.7333 0.8400 l
s
n
0.9000 0.1500 m
0.9000 0.1600 l
s
n
0.9000 0.8500 m
0.9000 0.8400 l
s
n
1.0667 0.1500 m
1.0667 0.1600 l
s
n
1.0667 0.8500 m
1.0667 0.8400 l
s
n
0.1500 0.1500 m
0.1500 0.1700 l
s
n
0.1500 0.8500 m
0.1500 0.8300 l
s
n
0.3167 0.1500 m
0.3167 0.1700 l
s
n
0.3167 0.8500 m
0.3167 0.8300 l
s
n
0.4833 0.1500 m
0.4833 0.1700 l
s
n
0.4833 0.8500 m
0.4833 0.8300 l
s
n
0.6500 0.1500 m
0.6500 0.1700 l
s
n
0.6500 0.8500 m
0.6500 0.8300 l
s
n
0.8167 0.1500 m
0.8167 0.1700 l
s
n
0.8167 0.8500 m
0.8167 0.8300 l
s
n
0.9833 0.1500 m
0.9833 0.1700 l
s
n
0.9833 0.8500 m
0.9833 0.8300 l
s
n
1.1500 0.1500 m
1.1500 0.1700 l
s
n
1.1500 0.8500 m
1.1500 0.8300 l
s
/Times-Roman findfont
dup length dict begin
 {1 index /FID ne {def} {pop pop} ifelse} forall
 /Encoding DefEncoding def
 currentdict
end
/Font34 exch definefont pop
/Font34 FFSF
0.1420 0.1173 m
GS
[0.0339 0.0000 0.0000 0.0339 0 0] CC
(0) show
GR
/Font34 FFSF
0.3100 0.1173 m
GS
[0.0339 0.0000 0.0000 0.0339 0 0] CC
(1) show
GR
/Font34 FFSF
0.4753 0.1173 m
GS
[0.0339 0.0000 0.0000 0.0339 0 0] CC
(2) show
GR
/Font34 FFSF
0.6425 0.1173 m
GS
[0.0339 0.0000 0.0000 0.0339 0 0] CC
(3) show
GR
/Font34 FFSF
0.8086 0.1173 m
GS
[0.0339 0.0000 0.0000 0.0339 0 0] CC
(4) show
GR
/Font34 FFSF
0.9759 0.1169 m
GS
[0.0339 0.0000 0.0000 0.0339 0 0] CC
(5) show
GR
/Font34 FFSF
1.1420 0.1169 m
GS
[0.0339 0.0000 0.0000 0.0339 0 0] CC
(6) show
GR
/Font34 FFSF
0.5984 0.0818 m
GS
[0.0364 0.0000 0.0000 0.0364 0 0] CC
(P [day]) show
GR
n
0.1500 0.1500 m
0.1500 0.8500 l
s
n
1.1500 0.1500 m
1.1500 0.8500 l
s
n
0.1500 0.1500 m
0.1600 0.1500 l
s
n
1.1500 0.1500 m
1.1400 0.1500 l
s
n
0.1500 0.1629 m
0.1600 0.1629 l
s
n
1.1500 0.1629 m
1.1400 0.1629 l
s
n
0.1500 0.1738 m
0.1600 0.1738 l
s
n
1.1500 0.1738 m
1.1400 0.1738 l
s
n
0.1500 0.1832 m
0.1600 0.1832 l
s
n
1.1500 0.1832 m
1.1400 0.1832 l
s
n
0.1500 0.1915 m
0.1600 0.1915 l
s
n
1.1500 0.1915 m
1.1400 0.1915 l
s
n
0.1500 0.1990 m
0.1600 0.1990 l
s
n
1.1500 0.1990 m
1.1400 0.1990 l
s
n
0.1500 0.2480 m
0.1600 0.2480 l
s
n
1.1500 0.2480 m
1.1400 0.2480 l
s
n
0.1500 0.2766 m
0.1600 0.2766 l
s
n
1.1500 0.2766 m
1.1400 0.2766 l
s
n
0.1500 0.2970 m
0.1600 0.2970 l
s
n
1.1500 0.2970 m
1.1400 0.2970 l
s
n
0.1500 0.3128 m
0.1600 0.3128 l
s
n
1.1500 0.3128 m
1.1400 0.3128 l
s
n
0.1500 0.3256 m
0.1600 0.3256 l
s
n
1.1500 0.3256 m
1.1400 0.3256 l
s
n
0.1500 0.3365 m
0.1600 0.3365 l
s
n
1.1500 0.3365 m
1.1400 0.3365 l
s
n
0.1500 0.3460 m
0.1600 0.3460 l
s
n
1.1500 0.3460 m
1.1400 0.3460 l
s
n
0.1500 0.3543 m
0.1600 0.3543 l
s
n
1.1500 0.3543 m
1.1400 0.3543 l
s
n
0.1500 0.3617 m
0.1600 0.3617 l
s
n
1.1500 0.3617 m
1.1400 0.3617 l
s
n
0.1500 0.4107 m
0.1600 0.4107 l
s
n
1.1500 0.4107 m
1.1400 0.4107 l
s
n
0.1500 0.4394 m
0.1600 0.4394 l
s
n
1.1500 0.4394 m
1.1400 0.4394 l
s
n
0.1500 0.4597 m
0.1600 0.4597 l
s
n
1.1500 0.4597 m
1.1400 0.4597 l
s
n
0.1500 0.4755 m
0.1600 0.4755 l
s
n
1.1500 0.4755 m
1.1400 0.4755 l
s
n
0.1500 0.4884 m
0.1600 0.4884 l
s
n
1.1500 0.4884 m
1.1400 0.4884 l
s
n
0.1500 0.4993 m
0.1600 0.4993 l
s
n
1.1500 0.4993 m
1.1400 0.4993 l
s
n
0.1500 0.5087 m
0.1600 0.5087 l
s
n
1.1500 0.5087 m
1.1400 0.5087 l
s
n
0.1500 0.5170 m
0.1600 0.5170 l
s
n
1.1500 0.5170 m
1.1400 0.5170 l
s
n
0.1500 0.5245 m
0.1600 0.5245 l
s
n
1.1500 0.5245 m
1.1400 0.5245 l
s
n
0.1500 0.5735 m
0.1600 0.5735 l
s
n
1.1500 0.5735 m
1.1400 0.5735 l
s
n
0.1500 0.6021 m
0.1600 0.6021 l
s
n
1.1500 0.6021 m
1.1400 0.6021 l
s
n
0.1500 0.6225 m
0.1600 0.6225 l
s
n
1.1500 0.6225 m
1.1400 0.6225 l
s
n
0.1500 0.6383 m
0.1600 0.6383 l
s
n
1.1500 0.6383 m
1.1400 0.6383 l
s
n
0.1500 0.6511 m
0.1600 0.6511 l
s
n
1.1500 0.6511 m
1.1400 0.6511 l
s
n
0.1500 0.6620 m
0.1600 0.6620 l
s
n
1.1500 0.6620 m
1.1400 0.6620 l
s
n
0.1500 0.6715 m
0.1600 0.6715 l
s
n
1.1500 0.6715 m
1.1400 0.6715 l
s
n
0.1500 0.6798 m
0.1600 0.6798 l
s
n
1.1500 0.6798 m
1.1400 0.6798 l
s
n
0.1500 0.6872 m
0.1600 0.6872 l
s
n
1.1500 0.6872 m
1.1400 0.6872 l
s
n
0.1500 0.7362 m
0.1600 0.7362 l
s
n
1.1500 0.7362 m
1.1400 0.7362 l
s
n
0.1500 0.7649 m
0.1600 0.7649 l
s
n
1.1500 0.7649 m
1.1400 0.7649 l
s
n
0.1500 0.7852 m
0.1600 0.7852 l
s
n
1.1500 0.7852 m
1.1400 0.7852 l
s
n
0.1500 0.8010 m
0.1600 0.8010 l
s
n
1.1500 0.8010 m
1.1400 0.8010 l
s
n
0.1500 0.8139 m
0.1600 0.8139 l
s
n
1.1500 0.8139 m
1.1400 0.8139 l
s
n
0.1500 0.8248 m
0.1600 0.8248 l
s
n
1.1500 0.8248 m
1.1400 0.8248 l
s
n
0.1500 0.8342 m
0.1600 0.8342 l
s
n
1.1500 0.8342 m
1.1400 0.8342 l
s
n
0.1500 0.8426 m
0.1600 0.8426 l
s
n
1.1500 0.8426 m
1.1400 0.8426 l
s
n
0.1500 0.8500 m
0.1600 0.8500 l
s
n
1.1500 0.8500 m
1.1400 0.8500 l
s
n
0.1500 0.1990 m
0.1700 0.1990 l
s
n
1.1500 0.1990 m
1.1300 0.1990 l
s
n
0.1500 0.3617 m
0.1700 0.3617 l
s
n
1.1500 0.3617 m
1.1300 0.3617 l
s
n
0.1500 0.5245 m
0.1700 0.5245 l
s
n
1.1500 0.5245 m
1.1300 0.5245 l
s
n
0.1500 0.6872 m
0.1700 0.6872 l
s
n
1.1500 0.6872 m
1.1300 0.6872 l
s
n
0.1500 0.8500 m
0.1700 0.8500 l
s
n
1.1500 0.8500 m
1.1300 0.8500 l
s
/Font34 FFSF
0.0757 0.1810 m
GS
[0.0339 0.0000 0.0000 0.0339 0 0] CC
(10) show
GR
/Font34 FFSF
0.1094 0.2013 m
GS
[0.0240 0.0000 0.0000 0.0240 0 0] CC
(-23) show
GR
/Font34 FFSF
0.0749 0.3437 m
GS
[0.0339 0.0000 0.0000 0.0339 0 0] CC
(10) show
GR
/Font34 FFSF
0.1086 0.3641 m
GS
[0.0240 0.0000 0.0000 0.0240 0 0] CC
(-22) show
GR
/Font34 FFSF
0.0769 0.5065 m
GS
[0.0339 0.0000 0.0000 0.0339 0 0] CC
(10) show
GR
/Font34 FFSF
0.1106 0.5268 m
GS
[0.0240 0.0000 0.0000 0.0240 0 0] CC
(-21) show
GR
/Font34 FFSF
0.0749 0.6692 m
GS
[0.0339 0.0000 0.0000 0.0339 0 0] CC
(10) show
GR
/Font34 FFSF
0.1086 0.6896 m
GS
[0.0240 0.0000 0.0000 0.0240 0 0] CC
(-20) show
GR
/Font34 FFSF
0.0753 0.8320 m
GS
[0.0339 0.0000 0.0000 0.0339 0 0] CC
(10) show
GR
/Font34 FFSF
0.1090 0.8523 m
GS
[0.0240 0.0000 0.0000 0.0240 0 0] CC
(-19) show
GR
/Font34 FFSF
0.0449 0.4235 m
GS
[0.0000 0.0364 -0.0364 0.0000 0 0] CC
(m) show
GR
/Font34 FFSF
0.0594 0.4518 m
GS
[0.0000 0.0257 -0.0257 0.0000 0 0] CC
(g) show
GR
/Font34 FFSF
0.0449 0.4647 m
GS
[0.0000 0.0364 -0.0364 0.0000 0 0] CC
( [eV/c) show
GR
/Font34 FFSF
0.0230 0.5545 m
GS
[0.0000 0.0257 -0.0257 0.0000 0 0] CC
(2) show
GR
/Font34 FFSF
0.0449 0.5675 m
GS
[0.0000 0.0364 -0.0364 0.0000 0 0] CC
(]) show
GR
n
0.1500 0.1500 m
0.1500 0.8500 l
1.1500 0.8500 l
1.1500 0.1500 l
0.1500 0.1500 l
c
s
n
0.7000 0.3800 m
0.7000 0.1757 l
1.1308 0.1757 l
1.1308 0.3800 l
c
[/DeviceRGB] SCS
Color0 SC
fill
[/DeviceRGB] SCS
Color1 SC
n
0.7000 0.3800 m
0.7000 0.1757 l
1.1308 0.1757 l
1.1308 0.3800 l
0.7000 0.3800 l
c
s
/Font34 FFSF
0.8730 0.3453 m
GS
[0.0364 0.0000 0.0000 0.0364 0 0] CC
(BH-PSR \(FAST\)) show
GR
[/DeviceRGB] SCS
Color2 SC
[0.0060 0.0180 ] 0 SD
0.0060 SLW
n
0.7130 0.3545 m
0.8530 0.3545 l
s
/Font34 FFSF
[/DeviceRGB] SCS
Color1 SC
0.8730 0.3043 m
GS
[0.0364 0.0000 0.0000 0.0364 0 0] CC
(BH-PSR \(SKA\)) show
GR
[0.0300 0.0180 ] 0 SD
0.0060 SLW
n
0.7130 0.3135 m
0.8530 0.3135 l
s
/Font34 FFSF
0.8730 0.2633 m
GS
[0.0364 0.0000 0.0000 0.0364 0 0] CC
(NS-PSR) show
GR
[/DeviceRGB] SCS
Color10 SC
[0.0300 0.0180 0.0060 0.0180 0.0300 0.0180 ] 0 SD
0.0060 SLW
n
0.7130 0.2755 m
0.8530 0.2755 l
s
/Font34 FFSF
[/DeviceRGB] SCS
Color1 SC
0.8730 0.2286 m
GS
[0.0364 0.0000 0.0000 0.0364 0 0] CC
(GW ) show
GR
[/DeviceRGB] SCS
Color6 SC
[0.0060 0.0180 0.0420 0.0180 ] 0 SD
0.0060 SLW
n
0.7130 0.2406 m
0.8530 0.2406 l
s
/Font34 FFSF
[/DeviceRGB] SCS
Color1 SC
0.8730 0.1935 m
GS
[0.0364 0.0000 0.0000 0.0364 0 0] CC
(Solar System) show
GR
[/DeviceRGB] SCS
Color4 SC
[0.0060 0.0180 0.0300 0.0180 0.0060 0.0180 ] 0 SD
0.0060 SLW
n
0.7130 0.2020 m
0.8530 0.2020 l
s
%%Trailer
%%BoundingBox: 2 44 710 533
%%DocumentNeededResources: font Times-Roman
%%EOF
