%!PS-Adobe-3.0 EPSF-3.0
%%BoundingBox: (atend)
%%LanguageLevel: 2
%%Creator: Grace-5.1.25
%%CreationDate: Fri Oct  5 12:49:37 2018
%%DocumentData: Clean8Bit
%%Orientation: Portrait
%%Title: Gamma_Ratio.agr
%%For: brian
%%DocumentNeededResources: (atend)
%%EndComments
%%BeginProlog
/m {moveto} def
/l {lineto} def
/s {stroke} def
/n {newpath} def
/c {closepath} def
/RL {rlineto} def
/SLW {setlinewidth} def
/GS {gsave} def
/GR {grestore} def
/SC {setcolor} def
/SGRY {setgray} def
/SRGB {setrgbcolor} def
/SD {setdash} def
/SLC {setlinecap} def
/SLJ {setlinejoin} def
/SCS {setcolorspace} def
/FFSF {findfont setfont} def
/CC {concat} def
/PXL {n m 0 0 RL s} def
/Color0 {1.0000 1.0000 1.0000} def
/Color1 {0.0000 0.0000 0.0000} def
/Color2 {1.0000 0.0000 0.0000} def
/Color3 {0.0000 1.0000 0.0000} def
/Color4 {0.0000 0.0000 1.0000} def
/Color5 {1.0000 1.0000 0.0000} def
/Color6 {0.7373 0.5608 0.5608} def
/Color7 {0.8627 0.8627 0.8627} def
/Color8 {0.5804 0.0000 0.8275} def
/Color9 {0.0000 1.0000 1.0000} def
/Color10 {1.0000 0.0000 1.0000} def
/Color11 {1.0000 0.6471 0.0000} def
/Color12 {0.4471 0.1294 0.7373} def
/Color13 {0.4039 0.0275 0.2824} def
/Color14 {0.2510 0.8784 0.8157} def
/Color15 {0.0000 0.5451 0.0000} def
/Color16 {0.7529 0.7529 0.7529} def
/Color17 {0.5059 0.5059 0.5059} def
/Color18 {0.2588 0.2588 0.2588} def
/PTRN {
 /pat_bits exch def 
 <<
  /PaintType 2
  /PatternType 1 /TilingType 1
  /BBox[0 0 16 16]
  /XStep 16 /YStep 16
  /PaintProc {
   pop
   16 16 true [-1 0 0 -1 16 16] pat_bits imagemask
  }
 >>
 [0.0016 0 0 0.0016 0 0]
 makepattern
} def
/Pattern0 {<0000000000000000000000000000000000000000000000000000000000000000> PTRN} bind def
/Pattern1 {<ffffffffffffffffffffffffffffffffffffffffffffffffffffffffffffffff> PTRN} bind def
/Pattern2 {<eeeeffffbbbbffffeeeeffffbbbbffffeeeeffffbbbbffffeeeeffffbbbbffff> PTRN} bind def
/Pattern3 {<eeeebbbbeeeebbbbeeeebbbbeeeebbbbeeeebbbbeeeebbbbeeeebbbbeeeebbbb> PTRN} bind def
/Pattern4 {<5555aaaa5555aaaa5555aaaa5555aaaa5555aaaa5555aaaa5555aaaa5555aaaa> PTRN} bind def
/Pattern5 {<1111444411114444111144441111444411114444111144441111444411114444> PTRN} bind def
/Pattern6 {<1111000044440000111100004444000011110000444400001111000044440000> PTRN} bind def
/Pattern7 {<1010000000000000010100000000000010100000000000000101000000000000> PTRN} bind def
/Pattern8 {<0000000000000000000000000000000000000000000000000000000000000000> PTRN} bind def
/Pattern9 {<1e1e0f0f8787c3c3e1e1f0f078783c3c1e1e0f0f8787c3c3e1e1f0f078783c3c> PTRN} bind def
/Pattern10 {<7878f0f0e1e1c3c387870f0f1e1e3c3c7878f0f0e1e1c3c387870f0f1e1e3c3c> PTRN} bind def
/Pattern11 {<3333333333333333333333333333333333333333333333333333333333333333> PTRN} bind def
/Pattern12 {<ffffffff00000000ffffffff00000000ffffffff00000000ffffffff00000000> PTRN} bind def
/Pattern13 {<8181424224241818181824244242818181814242242418181818242442428181> PTRN} bind def
/Pattern14 {<8080404020201010080804040202010180804040202010100808040402020101> PTRN} bind def
/Pattern15 {<0101020204040808101020204040808001010202040408081010202040408080> PTRN} bind def
/Pattern16 {<2222222222222222222222222222222222222222222222222222222222222222> PTRN} bind def
/Pattern17 {<0000ffff000000000000ffff000000000000ffff000000000000ffff00000000> PTRN} bind def
/Pattern18 {<2222ffff222222222222ffff222222222222ffff222222222222ffff22222222> PTRN} bind def
/Pattern19 {<ffffffff33333333ffffffff33333333ffffffff33333333ffffffff33333333> PTRN} bind def
/Pattern20 {<0f0f0f0f0f0f0f0ff0f0f0f0f0f0f0f00f0f0f0f0f0f0f0ff0f0f0f0f0f0f0f0> PTRN} bind def
/Pattern21 {<ff00ff00ff00ff00ff00ff00ff00ff0000ff00ff00ff00ff00ff00ff00ff00ff> PTRN} bind def
/Pattern22 {<8001800180018001800180018001ffffffff8001800180018001800180018001> PTRN} bind def
/Pattern23 {<c003c003c003c003c003c003ffffffffffffffffc003c003c003c003c003c003> PTRN} bind def
/Pattern24 {<040404040404ffff404040404040ffff040404040404ffff404040404040ffff> PTRN} bind def
/Pattern25 {<180018001800180018001800ffffffff001800180018001800180018ffffffff> PTRN} bind def
/Pattern26 {<1111b8b87c7c3a3a1111a3a3c7c78b8b1111b8b87c7c3a3a1111a3a3c7c78b8b> PTRN} bind def
/Pattern27 {<101010102828c7c70101010182827c7c101010102828c7c70101010182827c7c> PTRN} bind def
/Pattern28 {<1c1c121211112121c1c12121111112121c1c121211112121c1c1212111111212> PTRN} bind def
/Pattern29 {<3e3e414180808080e3e31414080808083e3e414180808080e3e3141408080808> PTRN} bind def
/Pattern30 {<4848888884848383848488884848383848488888848483838484888848483838> PTRN} bind def
/Pattern31 {<03030404080808080c0c12122121c0c003030404080808080c0c12122121c0c0> PTRN} bind def
/ellipsedict 8 dict def
ellipsedict /mtrx matrix put
/EARC {
 ellipsedict begin
  /endangle exch def
  /startangle exch def
  /yrad exch def
  /xrad exch def
  /y exch def
  /x exch def
  /savematrix mtrx currentmatrix def
  x y translate
  xrad yrad scale
  0 0 1 startangle endangle arc
  savematrix setmatrix
 end
} def
/TL {
  /kcomp exch def
  /linewidth exch def
  /offset exch def
  GS
  0 offset rmoveto
  linewidth SLW
  dup stringwidth exch kcomp add exch RL s
  GR
} def
/KINIT
{
 /kvector exch def
 /kid 0 def
} def
/KPROC
{
 pop pop
 kvector kid get
 0 rmoveto
 /kid 1 kid add def
} def
/DefEncoding [
 /.notdef
 /.notdef
 /.notdef
 /.notdef
 /.notdef
 /.notdef
 /.notdef
 /.notdef
 /.notdef
 /.notdef
 /.notdef
 /.notdef
 /.notdef
 /.notdef
 /.notdef
 /.notdef
 /.notdef
 /.notdef
 /.notdef
 /.notdef
 /.notdef
 /.notdef
 /.notdef
 /.notdef
 /.notdef
 /.notdef
 /.notdef
 /.notdef
 /.notdef
 /.notdef
 /.notdef
 /.notdef
 /space
 /exclam
 /quotedbl
 /numbersign
 /dollar
 /percent
 /ampersand
 /quoteright
 /parenleft
 /parenright
 /asterisk
 /plus
 /comma
 /hyphen
 /period
 /slash
 /zero
 /one
 /two
 /three
 /four
 /five
 /six
 /seven
 /eight
 /nine
 /colon
 /semicolon
 /less
 /equal
 /greater
 /question
 /at
 /A
 /B
 /C
 /D
 /E
 /F
 /G
 /H
 /I
 /J
 /K
 /L
 /M
 /N
 /O
 /P
 /Q
 /R
 /S
 /T
 /U
 /V
 /W
 /X
 /Y
 /Z
 /bracketleft
 /backslash
 /bracketright
 /asciicircum
 /underscore
 /grave
 /a
 /b
 /c
 /d
 /e
 /f
 /g
 /h
 /i
 /j
 /k
 /l
 /m
 /n
 /o
 /p
 /q
 /r
 /s
 /t
 /u
 /v
 /w
 /x
 /y
 /z
 /braceleft
 /bar
 /braceright
 /asciitilde
 /.notdef
 /.notdef
 /.notdef
 /.notdef
 /.notdef
 /.notdef
 /.notdef
 /.notdef
 /.notdef
 /.notdef
 /.notdef
 /.notdef
 /.notdef
 /.notdef
 /.notdef
 /.notdef
 /.notdef
 /.notdef
 /.notdef
 /.notdef
 /.notdef
 /.notdef
 /.notdef
 /.notdef
 /.notdef
 /.notdef
 /.notdef
 /.notdef
 /.notdef
 /.notdef
 /.notdef
 /.notdef
 /.notdef
 /space
 /exclamdown
 /cent
 /sterling
 /currency
 /yen
 /brokenbar
 /section
 /dieresis
 /copyright
 /ordfeminine
 /guillemotleft
 /logicalnot
 /hyphen
 /registered
 /macron
 /degree
 /plusminus
 /twosuperior
 /threesuperior
 /acute
 /mu
 /paragraph
 /periodcentered
 /cedilla
 /onesuperior
 /ordmasculine
 /guillemotright
 /onequarter
 /onehalf
 /threequarters
 /questiondown
 /Agrave
 /Aacute
 /Acircumflex
 /Atilde
 /Adieresis
 /Aring
 /AE
 /Ccedilla
 /Egrave
 /Eacute
 /Ecircumflex
 /Edieresis
 /Igrave
 /Iacute
 /Icircumflex
 /Idieresis
 /Eth
 /Ntilde
 /Ograve
 /Oacute
 /Ocircumflex
 /Otilde
 /Odieresis
 /multiply
 /Oslash
 /Ugrave
 /Uacute
 /Ucircumflex
 /Udieresis
 /Yacute
 /Thorn
 /germandbls
 /agrave
 /aacute
 /acircumflex
 /atilde
 /adieresis
 /aring
 /ae
 /ccedilla
 /egrave
 /eacute
 /ecircumflex
 /edieresis
 /igrave
 /iacute
 /icircumflex
 /idieresis
 /eth
 /ntilde
 /ograve
 /oacute
 /ocircumflex
 /otilde
 /odieresis
 /divide
 /oslash
 /ugrave
 /uacute
 /ucircumflex
 /udieresis
 /yacute
 /thorn
 /ydieresis
] def
%%EndProlog
%%BeginSetup
%%EndSetup
612.00 612.00 scale
n
0.0000 0.0000 m
0.0000 1.0000 l
1.2941 1.0000 l
1.2941 0.0000 l
c
[/DeviceRGB] SCS
Color0 SC
fill
[/DeviceRGB] SCS
Color10 SC
[0.0300 0.0180 0.0060 0.0180 0.0300 0.0180 ] 0 SD
0.0060 SLW
0 SLC
0 SLJ
n
0.1500 0.4125 m
1.0875 0.4125 l
s
[/DeviceRGB] SCS
Color2 SC
[0.0060 0.0180 ] 0 SD
0.0060 SLW
n
0.1500 0.3377 m
0.1750 0.3499 l
0.2000 0.3620 l
0.2250 0.3742 l
0.2500 0.3864 l
0.2750 0.3985 l
0.3000 0.4107 l
0.3250 0.4228 l
0.3500 0.4350 l
0.3750 0.4472 l
0.4000 0.4593 l
0.4250 0.4715 l
0.4500 0.4836 l
0.4750 0.4958 l
0.5000 0.5080 l
0.5250 0.5201 l
0.5500 0.5323 l
0.5750 0.5444 l
0.6000 0.5566 l
0.6250 0.5688 l
0.6500 0.5809 l
0.6750 0.5931 l
0.7000 0.6052 l
0.7250 0.6174 l
0.7500 0.6295 l
0.7750 0.6417 l
0.8000 0.6539 l
0.8250 0.6660 l
0.8500 0.6782 l
0.8750 0.6903 l
0.9000 0.7025 l
1.0500 0.7755 l
1.0562 0.7785 l
1.0625 0.7815 l
1.0687 0.7846 l
1.0750 0.7876 l
1.0812 0.7907 l
1.0875 0.7937 l
1.0938 0.7967 l
1.1000 0.7998 l
1.1062 0.8028 l
1.1125 0.8059 l
s
[/DeviceRGB] SCS
Color1 SC
[0.0300 0.0180 ] 0 SD
0.0060 SLW
n
0.1500 0.2806 m
0.1750 0.2928 l
0.2000 0.3049 l
0.2250 0.3171 l
0.2500 0.3292 l
0.2750 0.3414 l
0.3000 0.3535 l
0.3250 0.3657 l
0.3500 0.3779 l
0.3750 0.3900 l
0.4000 0.4022 l
0.4250 0.4143 l
0.4500 0.4265 l
0.4750 0.4387 l
0.5000 0.4508 l
0.5250 0.4630 l
0.5500 0.4751 l
0.5750 0.4873 l
0.6000 0.4995 l
0.6250 0.5116 l
0.6500 0.5238 l
0.6750 0.5359 l
0.7000 0.5481 l
0.7250 0.5603 l
0.7500 0.5724 l
0.7750 0.5846 l
0.8000 0.5967 l
0.8250 0.6089 l
0.8500 0.6211 l
0.8750 0.6332 l
0.9000 0.6454 l
1.0500 0.7183 l
1.0562 0.7214 l
1.0625 0.7244 l
1.0687 0.7274 l
1.0750 0.7305 l
1.0812 0.7335 l
1.0875 0.7366 l
1.0938 0.7396 l
1.1000 0.7426 l
1.1062 0.7457 l
1.1125 0.7487 l
s
[] 0 SD
0.0015 SLW
n
0.1500 0.1500 m
1.1500 0.1500 l
s
n
0.1500 0.8500 m
1.1500 0.8500 l
s
n
0.2750 0.1500 m
0.2750 0.1600 l
s
n
0.2750 0.8500 m
0.2750 0.8400 l
s
n
0.5250 0.1500 m
0.5250 0.1600 l
s
n
0.5250 0.8500 m
0.5250 0.8400 l
s
n
0.7750 0.1500 m
0.7750 0.1600 l
s
n
0.7750 0.8500 m
0.7750 0.8400 l
s
n
1.0250 0.1500 m
1.0250 0.1600 l
s
n
1.0250 0.8500 m
1.0250 0.8400 l
s
n
0.1500 0.1500 m
0.1500 0.1700 l
s
n
0.1500 0.8500 m
0.1500 0.8300 l
s
n
0.4000 0.1500 m
0.4000 0.1700 l
s
n
0.4000 0.8500 m
0.4000 0.8300 l
s
n
0.6500 0.1500 m
0.6500 0.1700 l
s
n
0.6500 0.8500 m
0.6500 0.8300 l
s
n
0.9000 0.1500 m
0.9000 0.1700 l
s
n
0.9000 0.8500 m
0.9000 0.8300 l
s
n
1.1500 0.1500 m
1.1500 0.1700 l
s
n
1.1500 0.8500 m
1.1500 0.8300 l
s
/Times-Roman findfont
dup length dict begin
 {1 index /FID ne {def} {pop pop} ifelse} forall
 /Encoding DefEncoding def
 currentdict
end
/Font0 exch definefont pop
/Font0 FFSF
0.1363 0.1173 m
GS
[0.0339 0.0000 0.0000 0.0339 0 0] CC
(-4) show
GR
/Font0 FFSF
0.3863 0.1173 m
GS
[0.0339 0.0000 0.0000 0.0339 0 0] CC
(-2) show
GR
/Font0 FFSF
0.6420 0.1173 m
GS
[0.0339 0.0000 0.0000 0.0339 0 0] CC
(0) show
GR
/Font0 FFSF
0.8920 0.1173 m
GS
[0.0339 0.0000 0.0000 0.0339 0 0] CC
(2) show
GR
/Font0 FFSF
1.1420 0.1173 m
GS
[0.0339 0.0000 0.0000 0.0339 0 0] CC
(4) show
GR
/Font0 FFSF
0.6025 0.0829 m
GS
[0.0364 0.0000 0.0000 0.0364 0 0] CC
(n [PN]) show
GR
n
0.1500 0.1500 m
0.1500 0.8500 l
s
n
1.1500 0.1500 m
1.1500 0.8500 l
s
n
0.1500 0.1500 m
0.1600 0.1500 l
s
n
1.1500 0.1500 m
1.1400 0.1500 l
s
n
0.1500 0.2638 m
0.1600 0.2638 l
s
n
1.1500 0.2638 m
1.1400 0.2638 l
s
n
0.1500 0.2792 m
0.1600 0.2792 l
s
n
1.1500 0.2792 m
1.1400 0.2792 l
s
n
0.1500 0.2902 m
0.1600 0.2902 l
s
n
1.1500 0.2902 m
1.1400 0.2902 l
s
n
0.1500 0.2987 m
0.1600 0.2987 l
s
n
1.1500 0.2987 m
1.1400 0.2987 l
s
n
0.1500 0.3056 m
0.1600 0.3056 l
s
n
1.1500 0.3056 m
1.1400 0.3056 l
s
n
0.1500 0.3114 m
0.1600 0.3114 l
s
n
1.1500 0.3114 m
1.1400 0.3114 l
s
n
0.1500 0.3165 m
0.1600 0.3165 l
s
n
1.1500 0.3165 m
1.1400 0.3165 l
s
n
0.1500 0.3210 m
0.1600 0.3210 l
s
n
1.1500 0.3210 m
1.1400 0.3210 l
s
n
0.1500 0.3250 m
0.1600 0.3250 l
s
n
1.1500 0.3250 m
1.1400 0.3250 l
s
n
0.1500 0.4388 m
0.1600 0.4388 l
s
n
1.1500 0.4388 m
1.1400 0.4388 l
s
n
0.1500 0.4542 m
0.1600 0.4542 l
s
n
1.1500 0.4542 m
1.1400 0.4542 l
s
n
0.1500 0.4652 m
0.1600 0.4652 l
s
n
1.1500 0.4652 m
1.1400 0.4652 l
s
n
0.1500 0.4737 m
0.1600 0.4737 l
s
n
1.1500 0.4737 m
1.1400 0.4737 l
s
n
0.1500 0.4806 m
0.1600 0.4806 l
s
n
1.1500 0.4806 m
1.1400 0.4806 l
s
n
0.1500 0.4864 m
0.1600 0.4864 l
s
n
1.1500 0.4864 m
1.1400 0.4864 l
s
n
0.1500 0.4915 m
0.1600 0.4915 l
s
n
1.1500 0.4915 m
1.1400 0.4915 l
s
n
0.1500 0.4960 m
0.1600 0.4960 l
s
n
1.1500 0.4960 m
1.1400 0.4960 l
s
n
0.1500 0.5000 m
0.1600 0.5000 l
s
n
1.1500 0.5000 m
1.1400 0.5000 l
s
n
0.1500 0.6138 m
0.1600 0.6138 l
s
n
1.1500 0.6138 m
1.1400 0.6138 l
s
n
0.1500 0.6292 m
0.1600 0.6292 l
s
n
1.1500 0.6292 m
1.1400 0.6292 l
s
n
0.1500 0.6402 m
0.1600 0.6402 l
s
n
1.1500 0.6402 m
1.1400 0.6402 l
s
n
0.1500 0.6487 m
0.1600 0.6487 l
s
n
1.1500 0.6487 m
1.1400 0.6487 l
s
n
0.1500 0.6556 m
0.1600 0.6556 l
s
n
1.1500 0.6556 m
1.1400 0.6556 l
s
n
0.1500 0.6614 m
0.1600 0.6614 l
s
n
1.1500 0.6614 m
1.1400 0.6614 l
s
n
0.1500 0.6665 m
0.1600 0.6665 l
s
n
1.1500 0.6665 m
1.1400 0.6665 l
s
n
0.1500 0.6710 m
0.1600 0.6710 l
s
n
1.1500 0.6710 m
1.1400 0.6710 l
s
n
0.1500 0.6750 m
0.1600 0.6750 l
s
n
1.1500 0.6750 m
1.1400 0.6750 l
s
n
0.1500 0.7888 m
0.1600 0.7888 l
s
n
1.1500 0.7888 m
1.1400 0.7888 l
s
n
0.1500 0.8042 m
0.1600 0.8042 l
s
n
1.1500 0.8042 m
1.1400 0.8042 l
s
n
0.1500 0.8152 m
0.1600 0.8152 l
s
n
1.1500 0.8152 m
1.1400 0.8152 l
s
n
0.1500 0.8237 m
0.1600 0.8237 l
s
n
1.1500 0.8237 m
1.1400 0.8237 l
s
n
0.1500 0.8306 m
0.1600 0.8306 l
s
n
1.1500 0.8306 m
1.1400 0.8306 l
s
n
0.1500 0.8364 m
0.1600 0.8364 l
s
n
1.1500 0.8364 m
1.1400 0.8364 l
s
n
0.1500 0.8415 m
0.1600 0.8415 l
s
n
1.1500 0.8415 m
1.1400 0.8415 l
s
n
0.1500 0.8460 m
0.1600 0.8460 l
s
n
1.1500 0.8460 m
1.1400 0.8460 l
s
n
0.1500 0.8500 m
0.1600 0.8500 l
s
n
1.1500 0.8500 m
1.1400 0.8500 l
s
n
0.1500 0.2375 m
0.1700 0.2375 l
s
n
1.1500 0.2375 m
1.1300 0.2375 l
s
n
0.1500 0.4125 m
0.1700 0.4125 l
s
n
1.1500 0.4125 m
1.1300 0.4125 l
s
n
0.1500 0.5875 m
0.1700 0.5875 l
s
n
1.1500 0.5875 m
1.1300 0.5875 l
s
n
0.1500 0.7625 m
0.1700 0.7625 l
s
n
1.1500 0.7625 m
1.1300 0.7625 l
s
/Font0 FFSF
0.0843 0.2263 m
GS
[0.0339 0.0000 0.0000 0.0339 0 0] CC
(0.01) show
GR
/Font0 FFSF
0.1267 0.4011 m
GS
[0.0339 0.0000 0.0000 0.0339 0 0] CC
(1) show
GR
/Font0 FFSF
0.0902 0.5763 m
GS
[0.0339 0.0000 0.0000 0.0339 0 0] CC
(100) show
GR
/Font0 FFSF
0.0561 0.7513 m
GS
[0.0339 0.0000 0.0000 0.0339 0 0] CC
(10000) show
GR
/Font0 FFSF
0.0311 0.3788 m
GS
[0.0000 0.0364 -0.0364 0.0000 0 0] CC
(|) show
GR
/Symbol findfont
/Font12 exch definefont pop
/Font12 FFSF
0.0311 0.3863 m
GS
[0.0000 0.0364 -0.0364 0.0000 0 0] CC
(g) show
GR
/Font0 FFSF
0.0457 0.4012 m
GS
[0.0000 0.0257 -0.0257 0.0000 0 0] CC
(BH-PSR) show
GR
/Font0 FFSF
0.0311 0.4914 m
GS
[0.0000 0.0364 -0.0364 0.0000 0 0] CC
(/) show
GR
/Font12 FFSF
0.0311 0.5016 m
GS
[0.0000 0.0364 -0.0364 0.0000 0 0] CC
(g) show
GR
/Font0 FFSF
0.0457 0.5165 m
GS
[0.0000 0.0257 -0.0257 0.0000 0 0] CC
(PSR-PSR) show
GR
/Font0 FFSF
0.0311 0.6165 m
GS
[0.0000 0.0364 -0.0364 0.0000 0 0] CC
(|) show
GR
n
0.1500 0.1500 m
0.1500 0.8500 l
1.1500 0.8500 l
1.1500 0.1500 l
0.1500 0.1500 l
c
s
n
0.2000 0.8000 m
0.2000 0.7080 l
0.6308 0.7080 l
0.6308 0.8000 l
c
[/DeviceRGB] SCS
Color0 SC
fill
[/DeviceRGB] SCS
Color1 SC
n
0.2000 0.8000 m
0.2000 0.7080 l
0.6308 0.7080 l
0.6308 0.8000 l
0.2000 0.8000 l
c
s
/Font0 FFSF
0.3730 0.7653 m
GS
[0.0364 0.0000 0.0000 0.0364 0 0] CC
(BH-PSR \(FAST\)) show
GR
[/DeviceRGB] SCS
Color2 SC
[0.0060 0.0180 ] 0 SD
0.0060 SLW
n
0.2130 0.7745 m
0.3530 0.7745 l
s
/Font0 FFSF
[/DeviceRGB] SCS
Color1 SC
0.3730 0.7243 m
GS
[0.0364 0.0000 0.0000 0.0364 0 0] CC
(BH-PSR \(SKA\)) show
GR
[0.0300 0.0180 ] 0 SD
0.0060 SLW
n
0.2130 0.7335 m
0.3530 0.7335 l
s
%%Trailer
%%BoundingBox: 3 46 710 522
%%DocumentNeededResources: font Times-Roman
%%+ font Symbol
%%EOF
