%!PS-Adobe-3.0 EPSF-3.0
%%BoundingBox: (atend)
%%LanguageLevel: 2
%%Creator: Grace-5.1.25
%%CreationDate: Tue Oct  9 10:38:10 2018
%%DocumentData: Clean8Bit
%%Orientation: Portrait
%%Title: PPE_Wide_BNS.agr
%%For: brian
%%DocumentNeededResources: (atend)
%%EndComments
%%BeginProlog
/m {moveto} def
/l {lineto} def
/s {stroke} def
/n {newpath} def
/c {closepath} def
/RL {rlineto} def
/SLW {setlinewidth} def
/GS {gsave} def
/GR {grestore} def
/SC {setcolor} def
/SGRY {setgray} def
/SRGB {setrgbcolor} def
/SD {setdash} def
/SLC {setlinecap} def
/SLJ {setlinejoin} def
/SCS {setcolorspace} def
/FFSF {findfont setfont} def
/CC {concat} def
/PXL {n m 0 0 RL s} def
/Color0 {1.0000 1.0000 1.0000} def
/Color1 {0.0000 0.0000 0.0000} def
/Color2 {1.0000 0.0000 0.0000} def
/Color3 {0.0000 1.0000 0.0000} def
/Color4 {0.0000 0.0000 1.0000} def
/Color5 {1.0000 1.0000 0.0000} def
/Color6 {0.7373 0.5608 0.5608} def
/Color7 {0.8627 0.8627 0.8627} def
/Color8 {0.5804 0.0000 0.8275} def
/Color9 {0.0000 1.0000 1.0000} def
/Color10 {1.0000 0.0000 1.0000} def
/Color11 {1.0000 0.6471 0.0000} def
/Color12 {0.4471 0.1294 0.7373} def
/Color13 {0.4039 0.0275 0.2824} def
/Color14 {0.2510 0.8784 0.8157} def
/Color15 {0.0000 0.5451 0.0000} def
/Color16 {0.7529 0.7529 0.7529} def
/Color17 {0.5059 0.5059 0.5059} def
/Color18 {0.2588 0.2588 0.2588} def
/PTRN {
 /pat_bits exch def 
 <<
  /PaintType 2
  /PatternType 1 /TilingType 1
  /BBox[0 0 16 16]
  /XStep 16 /YStep 16
  /PaintProc {
   pop
   16 16 true [-1 0 0 -1 16 16] pat_bits imagemask
  }
 >>
 [0.0016 0 0 0.0016 0 0]
 makepattern
} def
/Pattern0 {<0000000000000000000000000000000000000000000000000000000000000000> PTRN} bind def
/Pattern1 {<ffffffffffffffffffffffffffffffffffffffffffffffffffffffffffffffff> PTRN} bind def
/Pattern2 {<eeeeffffbbbbffffeeeeffffbbbbffffeeeeffffbbbbffffeeeeffffbbbbffff> PTRN} bind def
/Pattern3 {<eeeebbbbeeeebbbbeeeebbbbeeeebbbbeeeebbbbeeeebbbbeeeebbbbeeeebbbb> PTRN} bind def
/Pattern4 {<5555aaaa5555aaaa5555aaaa5555aaaa5555aaaa5555aaaa5555aaaa5555aaaa> PTRN} bind def
/Pattern5 {<1111444411114444111144441111444411114444111144441111444411114444> PTRN} bind def
/Pattern6 {<1111000044440000111100004444000011110000444400001111000044440000> PTRN} bind def
/Pattern7 {<1010000000000000010100000000000010100000000000000101000000000000> PTRN} bind def
/Pattern8 {<0000000000000000000000000000000000000000000000000000000000000000> PTRN} bind def
/Pattern9 {<1e1e0f0f8787c3c3e1e1f0f078783c3c1e1e0f0f8787c3c3e1e1f0f078783c3c> PTRN} bind def
/Pattern10 {<7878f0f0e1e1c3c387870f0f1e1e3c3c7878f0f0e1e1c3c387870f0f1e1e3c3c> PTRN} bind def
/Pattern11 {<3333333333333333333333333333333333333333333333333333333333333333> PTRN} bind def
/Pattern12 {<ffffffff00000000ffffffff00000000ffffffff00000000ffffffff00000000> PTRN} bind def
/Pattern13 {<8181424224241818181824244242818181814242242418181818242442428181> PTRN} bind def
/Pattern14 {<8080404020201010080804040202010180804040202010100808040402020101> PTRN} bind def
/Pattern15 {<0101020204040808101020204040808001010202040408081010202040408080> PTRN} bind def
/Pattern16 {<2222222222222222222222222222222222222222222222222222222222222222> PTRN} bind def
/Pattern17 {<0000ffff000000000000ffff000000000000ffff000000000000ffff00000000> PTRN} bind def
/Pattern18 {<2222ffff222222222222ffff222222222222ffff222222222222ffff22222222> PTRN} bind def
/Pattern19 {<ffffffff33333333ffffffff33333333ffffffff33333333ffffffff33333333> PTRN} bind def
/Pattern20 {<0f0f0f0f0f0f0f0ff0f0f0f0f0f0f0f00f0f0f0f0f0f0f0ff0f0f0f0f0f0f0f0> PTRN} bind def
/Pattern21 {<ff00ff00ff00ff00ff00ff00ff00ff0000ff00ff00ff00ff00ff00ff00ff00ff> PTRN} bind def
/Pattern22 {<8001800180018001800180018001ffffffff8001800180018001800180018001> PTRN} bind def
/Pattern23 {<c003c003c003c003c003c003ffffffffffffffffc003c003c003c003c003c003> PTRN} bind def
/Pattern24 {<040404040404ffff404040404040ffff040404040404ffff404040404040ffff> PTRN} bind def
/Pattern25 {<180018001800180018001800ffffffff001800180018001800180018ffffffff> PTRN} bind def
/Pattern26 {<1111b8b87c7c3a3a1111a3a3c7c78b8b1111b8b87c7c3a3a1111a3a3c7c78b8b> PTRN} bind def
/Pattern27 {<101010102828c7c70101010182827c7c101010102828c7c70101010182827c7c> PTRN} bind def
/Pattern28 {<1c1c121211112121c1c12121111112121c1c121211112121c1c1212111111212> PTRN} bind def
/Pattern29 {<3e3e414180808080e3e31414080808083e3e414180808080e3e3141408080808> PTRN} bind def
/Pattern30 {<4848888884848383848488884848383848488888848483838484888848483838> PTRN} bind def
/Pattern31 {<03030404080808080c0c12122121c0c003030404080808080c0c12122121c0c0> PTRN} bind def
/ellipsedict 8 dict def
ellipsedict /mtrx matrix put
/EARC {
 ellipsedict begin
  /endangle exch def
  /startangle exch def
  /yrad exch def
  /xrad exch def
  /y exch def
  /x exch def
  /savematrix mtrx currentmatrix def
  x y translate
  xrad yrad scale
  0 0 1 startangle endangle arc
  savematrix setmatrix
 end
} def
/TL {
  /kcomp exch def
  /linewidth exch def
  /offset exch def
  GS
  0 offset rmoveto
  linewidth SLW
  dup stringwidth exch kcomp add exch RL s
  GR
} def
/KINIT
{
 /kvector exch def
 /kid 0 def
} def
/KPROC
{
 pop pop
 kvector kid get
 0 rmoveto
 /kid 1 kid add def
} def
/DefEncoding [
 /.notdef
 /.notdef
 /.notdef
 /.notdef
 /.notdef
 /.notdef
 /.notdef
 /.notdef
 /.notdef
 /.notdef
 /.notdef
 /.notdef
 /.notdef
 /.notdef
 /.notdef
 /.notdef
 /.notdef
 /.notdef
 /.notdef
 /.notdef
 /.notdef
 /.notdef
 /.notdef
 /.notdef
 /.notdef
 /.notdef
 /.notdef
 /.notdef
 /.notdef
 /.notdef
 /.notdef
 /.notdef
 /space
 /exclam
 /quotedbl
 /numbersign
 /dollar
 /percent
 /ampersand
 /quoteright
 /parenleft
 /parenright
 /asterisk
 /plus
 /comma
 /hyphen
 /period
 /slash
 /zero
 /one
 /two
 /three
 /four
 /five
 /six
 /seven
 /eight
 /nine
 /colon
 /semicolon
 /less
 /equal
 /greater
 /question
 /at
 /A
 /B
 /C
 /D
 /E
 /F
 /G
 /H
 /I
 /J
 /K
 /L
 /M
 /N
 /O
 /P
 /Q
 /R
 /S
 /T
 /U
 /V
 /W
 /X
 /Y
 /Z
 /bracketleft
 /backslash
 /bracketright
 /asciicircum
 /underscore
 /grave
 /a
 /b
 /c
 /d
 /e
 /f
 /g
 /h
 /i
 /j
 /k
 /l
 /m
 /n
 /o
 /p
 /q
 /r
 /s
 /t
 /u
 /v
 /w
 /x
 /y
 /z
 /braceleft
 /bar
 /braceright
 /asciitilde
 /.notdef
 /.notdef
 /.notdef
 /.notdef
 /.notdef
 /.notdef
 /.notdef
 /.notdef
 /.notdef
 /.notdef
 /.notdef
 /.notdef
 /.notdef
 /.notdef
 /.notdef
 /.notdef
 /.notdef
 /.notdef
 /.notdef
 /.notdef
 /.notdef
 /.notdef
 /.notdef
 /.notdef
 /.notdef
 /.notdef
 /.notdef
 /.notdef
 /.notdef
 /.notdef
 /.notdef
 /.notdef
 /.notdef
 /space
 /exclamdown
 /cent
 /sterling
 /currency
 /yen
 /brokenbar
 /section
 /dieresis
 /copyright
 /ordfeminine
 /guillemotleft
 /logicalnot
 /hyphen
 /registered
 /macron
 /degree
 /plusminus
 /twosuperior
 /threesuperior
 /acute
 /mu
 /paragraph
 /periodcentered
 /cedilla
 /onesuperior
 /ordmasculine
 /guillemotright
 /onequarter
 /onehalf
 /threequarters
 /questiondown
 /Agrave
 /Aacute
 /Acircumflex
 /Atilde
 /Adieresis
 /Aring
 /AE
 /Ccedilla
 /Egrave
 /Eacute
 /Ecircumflex
 /Edieresis
 /Igrave
 /Iacute
 /Icircumflex
 /Idieresis
 /Eth
 /Ntilde
 /Ograve
 /Oacute
 /Ocircumflex
 /Otilde
 /Odieresis
 /multiply
 /Oslash
 /Ugrave
 /Uacute
 /Ucircumflex
 /Udieresis
 /Yacute
 /Thorn
 /germandbls
 /agrave
 /aacute
 /acircumflex
 /atilde
 /adieresis
 /aring
 /ae
 /ccedilla
 /egrave
 /eacute
 /ecircumflex
 /edieresis
 /igrave
 /iacute
 /icircumflex
 /idieresis
 /eth
 /ntilde
 /ograve
 /oacute
 /ocircumflex
 /otilde
 /odieresis
 /divide
 /oslash
 /ugrave
 /uacute
 /ucircumflex
 /udieresis
 /yacute
 /thorn
 /ydieresis
] def
%%EndProlog
%%BeginSetup
%%EndSetup
612.00 612.00 scale
n
0.0000 0.0000 m
0.0000 1.0000 l
1.2941 1.0000 l
1.2941 0.0000 l
c
[/DeviceRGB] SCS
Color0 SC
fill
[/DeviceRGB] SCS
Color2 SC
[0.0060 0.0180 ] 0 SD
0.0060 SLW
0 SLC
0 SLJ
n
0.1500 0.2732 m
0.2167 0.3008 l
0.2833 0.3284 l
0.3500 0.3560 l
0.4167 0.3836 l
0.4833 0.4112 l
0.5500 0.4387 l
0.6167 0.4663 l
0.6833 0.4939 l
0.7500 0.5215 l
0.8167 0.5491 l
0.8833 0.5767 l
0.9500 0.6042 l
1.0167 0.6318 l
1.0833 0.6594 l
1.1500 0.6870 l
1.1501 0.6870 l
s
[/DeviceRGB] SCS
Color1 SC
[0.0300 0.0180 ] 0 SD
0.0060 SLW
n
0.1500 0.2580 m
0.2167 0.2856 l
0.2833 0.3132 l
0.3500 0.3408 l
0.4167 0.3683 l
0.4833 0.3959 l
0.5500 0.4235 l
0.6167 0.4511 l
0.6833 0.4787 l
0.7500 0.5063 l
0.8167 0.5338 l
0.8833 0.5614 l
0.9500 0.5890 l
1.0167 0.6166 l
1.0833 0.6442 l
1.1500 0.6718 l
1.1501 0.6718 l
s
[/DeviceRGB] SCS
Color6 SC
[0.0060 0.0180 0.0300 0.0180 ] 0 SD
0.0060 SLW
n
0.1500 0.2932 m
0.2167 0.3175 l
0.2833 0.3419 l
0.3500 0.3662 l
0.4167 0.3905 l
0.4833 0.4149 l
0.5500 0.4392 l
0.6167 0.4636 l
0.6833 0.4879 l
0.7500 0.5122 l
0.8167 0.5366 l
0.8833 0.5609 l
0.9500 0.5853 l
1.0167 0.6096 l
1.0833 0.6340 l
1.1500 0.6583 l
1.1501 0.6583 l
s
[/DeviceRGB] SCS
Color4 SC
[] 0 SD
0.0030 SLW
n 0.1500 0.7532 0.0080 0.0080 0 360 EARC s
n 0.3167 0.7636 0.0080 0.0080 0 360 EARC s
n 0.4833 0.7740 0.0080 0.0080 0 360 EARC s
n 0.6500 0.7843 0.0080 0.0080 0 360 EARC s
n 0.8167 0.7945 0.0080 0.0080 0 360 EARC s
n 0.9833 0.8045 0.0080 0.0080 0 360 EARC s
n 1.1500 0.8144 0.0080 0.0080 0 360 EARC s
[/DeviceRGB] SCS
Color10 SC
n
0.1432 0.6998 m
0.1432 0.7134 l
0.1568 0.7134 l
0.1568 0.6998 l
0.1432 0.6998 l
c
s
n
0.3099 0.7143 m
0.3099 0.7279 l
0.3235 0.7279 l
0.3235 0.7143 l
0.3099 0.7143 l
c
s
n
0.4765 0.7290 m
0.4765 0.7426 l
0.4901 0.7426 l
0.4901 0.7290 l
0.4765 0.7290 l
c
s
n
0.6432 0.7441 m
0.6432 0.7577 l
0.6568 0.7577 l
0.6568 0.7441 l
0.6432 0.7441 l
c
s
n
0.8099 0.7595 m
0.8099 0.7731 l
0.8235 0.7731 l
0.8235 0.7595 l
0.8099 0.7595 l
c
s
n
0.9765 0.7759 m
0.9765 0.7895 l
0.9901 0.7895 l
0.9901 0.7759 l
0.9765 0.7759 l
c
s
n
1.1432 0.7942 m
1.1432 0.8078 l
1.1568 0.8078 l
1.1568 0.7942 l
1.1432 0.7942 l
c
s
n
0.1500 0.7017 m
0.1400 0.6917 l
0.1500 0.6817 l
0.1600 0.6917 l
c
[/DeviceRGB] SCS
Color11 SC
fill
n
0.3167 0.7182 m
0.3067 0.7082 l
0.3167 0.6982 l
0.3267 0.7082 l
c
fill
n
0.4833 0.7348 m
0.4733 0.7248 l
0.4833 0.7148 l
0.4933 0.7248 l
c
fill
n
0.6500 0.7513 m
0.6400 0.7413 l
0.6500 0.7313 l
0.6600 0.7413 l
c
fill
n
0.8167 0.7678 m
0.8067 0.7578 l
0.8167 0.7478 l
0.8267 0.7578 l
c
fill
n
0.9833 0.7843 m
0.9733 0.7743 l
0.9833 0.7643 l
0.9933 0.7743 l
c
fill
n
1.1500 0.8007 m
1.1400 0.7907 l
1.1500 0.7807 l
1.1600 0.7907 l
c
fill
[/DeviceRGB] SCS
Color1 SC
[] 0 SD
0.0015 SLW
n
0.1500 0.1500 m
1.1500 0.1500 l
s
n
0.1500 0.8500 m
1.1500 0.8500 l
s
n
0.2167 0.1500 m
0.2167 0.1600 l
s
n
0.2167 0.8500 m
0.2167 0.8400 l
s
n
0.2833 0.1500 m
0.2833 0.1600 l
s
n
0.2833 0.8500 m
0.2833 0.8400 l
s
n
0.3500 0.1500 m
0.3500 0.1600 l
s
n
0.3500 0.8500 m
0.3500 0.8400 l
s
n
0.4167 0.1500 m
0.4167 0.1600 l
s
n
0.4167 0.8500 m
0.4167 0.8400 l
s
n
0.5500 0.1500 m
0.5500 0.1600 l
s
n
0.5500 0.8500 m
0.5500 0.8400 l
s
n
0.6167 0.1500 m
0.6167 0.1600 l
s
n
0.6167 0.8500 m
0.6167 0.8400 l
s
n
0.6833 0.1500 m
0.6833 0.1600 l
s
n
0.6833 0.8500 m
0.6833 0.8400 l
s
n
0.7500 0.1500 m
0.7500 0.1600 l
s
n
0.7500 0.8500 m
0.7500 0.8400 l
s
n
0.8833 0.1500 m
0.8833 0.1600 l
s
n
0.8833 0.8500 m
0.8833 0.8400 l
s
n
0.9500 0.1500 m
0.9500 0.1600 l
s
n
0.9500 0.8500 m
0.9500 0.8400 l
s
n
1.0167 0.1500 m
1.0167 0.1600 l
s
n
1.0167 0.8500 m
1.0167 0.8400 l
s
n
1.0833 0.1500 m
1.0833 0.1600 l
s
n
1.0833 0.8500 m
1.0833 0.8400 l
s
n
0.1500 0.1500 m
0.1500 0.1700 l
s
n
0.1500 0.8500 m
0.1500 0.8300 l
s
n
0.4833 0.1500 m
0.4833 0.1700 l
s
n
0.4833 0.8500 m
0.4833 0.8300 l
s
n
0.8167 0.1500 m
0.8167 0.1700 l
s
n
0.8167 0.8500 m
0.8167 0.8300 l
s
n
1.1500 0.1500 m
1.1500 0.1700 l
s
n
1.1500 0.8500 m
1.1500 0.8300 l
s
/Times-Roman findfont
dup length dict begin
 {1 index /FID ne {def} {pop pop} ifelse} forall
 /Encoding DefEncoding def
 currentdict
end
/Font0 exch definefont pop
/Font0 FFSF
0.1363 0.1173 m
GS
[0.0339 0.0000 0.0000 0.0339 0 0] CC
(-4) show
GR
/Font0 FFSF
0.4702 0.1173 m
GS
[0.0339 0.0000 0.0000 0.0339 0 0] CC
(-3) show
GR
/Font0 FFSF
0.8029 0.1173 m
GS
[0.0339 0.0000 0.0000 0.0339 0 0] CC
(-2) show
GR
/Font0 FFSF
1.1376 0.1173 m
GS
[0.0339 0.0000 0.0000 0.0339 0 0] CC
(-1) show
GR
/Font0 FFSF
0.6025 0.0829 m
GS
[0.0364 0.0000 0.0000 0.0364 0 0] CC
(n [PN]) show
GR
n
0.1500 0.1500 m
0.1500 0.8500 l
s
n
1.1500 0.1500 m
1.1500 0.8500 l
s
n
0.1500 0.1500 m
0.1700 0.1500 l
s
n
1.1500 0.1500 m
1.1300 0.1500 l
s
n
0.1500 0.2900 m
0.1700 0.2900 l
s
n
1.1500 0.2900 m
1.1300 0.2900 l
s
n
0.1500 0.4300 m
0.1700 0.4300 l
s
n
1.1500 0.4300 m
1.1300 0.4300 l
s
n
0.1500 0.5700 m
0.1700 0.5700 l
s
n
1.1500 0.5700 m
1.1300 0.5700 l
s
n
0.1500 0.7100 m
0.1700 0.7100 l
s
n
1.1500 0.7100 m
1.1300 0.7100 l
s
n
0.1500 0.8500 m
0.1700 0.8500 l
s
n
1.1500 0.8500 m
1.1300 0.8500 l
s
/Font0 FFSF
0.0749 0.1320 m
GS
[0.0339 0.0000 0.0000 0.0339 0 0] CC
(10) show
GR
/Font0 FFSF
0.1086 0.1523 m
GS
[0.0240 0.0000 0.0000 0.0240 0 0] CC
(-30) show
GR
/Font0 FFSF
0.0749 0.2720 m
GS
[0.0339 0.0000 0.0000 0.0339 0 0] CC
(10) show
GR
/Font0 FFSF
0.1086 0.2923 m
GS
[0.0240 0.0000 0.0000 0.0240 0 0] CC
(-24) show
GR
/Font0 FFSF
0.0757 0.4120 m
GS
[0.0339 0.0000 0.0000 0.0339 0 0] CC
(10) show
GR
/Font0 FFSF
0.1094 0.4323 m
GS
[0.0240 0.0000 0.0000 0.0240 0 0] CC
(-18) show
GR
/Font0 FFSF
0.0749 0.5520 m
GS
[0.0339 0.0000 0.0000 0.0339 0 0] CC
(10) show
GR
/Font0 FFSF
0.1086 0.5723 m
GS
[0.0240 0.0000 0.0000 0.0240 0 0] CC
(-12) show
GR
/Font0 FFSF
0.0871 0.6918 m
GS
[0.0339 0.0000 0.0000 0.0339 0 0] CC
(10) show
GR
/Font0 FFSF
0.1208 0.7121 m
GS
[0.0240 0.0000 0.0000 0.0240 0 0] CC
(-6) show
GR
/Font0 FFSF
0.0949 0.8320 m
GS
[0.0339 0.0000 0.0000 0.0339 0 0] CC
(10) show
GR
/Font0 FFSF
0.1286 0.8523 m
GS
[0.0240 0.0000 0.0000 0.0240 0 0] CC
(0) show
GR
/Font0 FFSF
0.0571 0.4775 m
GS
[0.0000 0.0364 -0.0364 0.0000 0 0] CC
(|) show
GR
/Symbol findfont
/Font12 exch definefont pop
/Font12 FFSF
0.0571 0.4849 m
GS
[0.0000 0.0364 -0.0364 0.0000 0 0] CC
( g) show
GR
/Font0 FFSF
0.0571 0.5088 m
GS
[0.0000 0.0364 -0.0364 0.0000 0 0] CC
( |) show
GR
n
0.1500 0.1500 m
0.1500 0.8500 l
1.1500 0.8500 l
1.1500 0.1500 l
0.1500 0.1500 l
c
s
n
0.6000 0.4000 m
0.6000 0.1606 l
1.1085 0.1606 l
1.1085 0.4000 l
c
[/DeviceRGB] SCS
Color0 SC
fill
[/DeviceRGB] SCS
Color1 SC
n
0.6000 0.4000 m
0.6000 0.1606 l
1.1085 0.1606 l
1.1085 0.4000 l
0.6000 0.4000 l
c
s
/Font0 FFSF
0.7730 0.3653 m
GS
[0.0364 0.0000 0.0000 0.0364 0 0] CC
(BH-PSR \(FAST\)) show
GR
[/DeviceRGB] SCS
Color2 SC
[0.0060 0.0180 ] 0 SD
0.0060 SLW
n
0.6130 0.3745 m
0.7530 0.3745 l
s
/Font0 FFSF
[/DeviceRGB] SCS
Color1 SC
0.7730 0.3243 m
GS
[0.0364 0.0000 0.0000 0.0364 0 0] CC
(BH-PSR \(SKA\)) show
GR
[0.0300 0.0180 ] 0 SD
0.0060 SLW
n
0.6130 0.3335 m
0.7530 0.3335 l
s
/Font0 FFSF
0.7730 0.2833 m
GS
[0.0364 0.0000 0.0000 0.0364 0 0] CC
(Double Pulsar \(J0737\)) show
GR
[/DeviceRGB] SCS
Color6 SC
[0.0060 0.0180 0.0300 0.0180 ] 0 SD
0.0060 SLW
n
0.6130 0.2925 m
0.7530 0.2925 l
s
/Font0 FFSF
[/DeviceRGB] SCS
Color1 SC
0.7730 0.2420 m
GS
[0.0364 0.0000 0.0000 0.0364 0 0] CC
(GW150914) show
GR
[/DeviceRGB] SCS
Color4 SC
[] 0 SD
0.0030 SLW
n 0.6830 0.2541 0.0080 0.0080 0 360 EARC s
/Font0 FFSF
[/DeviceRGB] SCS
Color1 SC
0.7730 0.2061 m
GS
[0.0364 0.0000 0.0000 0.0364 0 0] CC
(GW151226) show
GR
[/DeviceRGB] SCS
Color10 SC
n
0.6762 0.2116 m
0.6762 0.2252 l
0.6898 0.2252 l
0.6898 0.2116 l
0.6762 0.2116 l
c
s
/Font0 FFSF
[/DeviceRGB] SCS
Color1 SC
0.7730 0.1710 m
GS
[0.0364 0.0000 0.0000 0.0364 0 0] CC
(GW170817 Estimate) show
GR
n
0.6830 0.1931 m
0.6730 0.1831 l
0.6830 0.1731 l
0.6930 0.1831 l
c
[/DeviceRGB] SCS
Color11 SC
fill
%%Trailer
%%BoundingBox: 19 46 713 533
%%DocumentNeededResources: font Times-Roman
%%+ font Symbol
%%EOF
