%!PS-Adobe-3.0 EPSF-3.0
%%BoundingBox: (atend)
%%LanguageLevel: 2
%%Creator: Grace-5.1.25
%%CreationDate: Thu Sep 27 08:22:08 2018
%%DocumentData: Clean8Bit
%%Orientation: Portrait
%%Title: PPE_Wide_BNS.agr
%%For: brian
%%DocumentNeededResources: (atend)
%%EndComments
%%BeginProlog
/m {moveto} def
/l {lineto} def
/s {stroke} def
/n {newpath} def
/c {closepath} def
/RL {rlineto} def
/SLW {setlinewidth} def
/GS {gsave} def
/GR {grestore} def
/SC {setcolor} def
/SGRY {setgray} def
/SRGB {setrgbcolor} def
/SD {setdash} def
/SLC {setlinecap} def
/SLJ {setlinejoin} def
/SCS {setcolorspace} def
/FFSF {findfont setfont} def
/CC {concat} def
/PXL {n m 0 0 RL s} def
/Color0 {1.0000 1.0000 1.0000} def
/Color1 {0.0000 0.0000 0.0000} def
/Color2 {1.0000 0.0000 0.0000} def
/Color3 {0.0000 1.0000 0.0000} def
/Color4 {0.0000 0.0000 1.0000} def
/Color5 {1.0000 1.0000 0.0000} def
/Color6 {0.7373 0.5608 0.5608} def
/Color7 {0.8627 0.8627 0.8627} def
/Color8 {0.5804 0.0000 0.8275} def
/Color9 {0.0000 1.0000 1.0000} def
/Color10 {1.0000 0.0000 1.0000} def
/Color11 {1.0000 0.6471 0.0000} def
/Color12 {0.4471 0.1294 0.7373} def
/Color13 {0.4039 0.0275 0.2824} def
/Color14 {0.2510 0.8784 0.8157} def
/Color15 {0.0000 0.5451 0.0000} def
/Color16 {0.7529 0.7529 0.7529} def
/Color17 {0.5059 0.5059 0.5059} def
/Color18 {0.2588 0.2588 0.2588} def
/PTRN {
 /pat_bits exch def 
 <<
  /PaintType 2
  /PatternType 1 /TilingType 1
  /BBox[0 0 16 16]
  /XStep 16 /YStep 16
  /PaintProc {
   pop
   16 16 true [-1 0 0 -1 16 16] pat_bits imagemask
  }
 >>
 [0.0016 0 0 0.0016 0 0]
 makepattern
} def
/Pattern0 {<0000000000000000000000000000000000000000000000000000000000000000> PTRN} bind def
/Pattern1 {<ffffffffffffffffffffffffffffffffffffffffffffffffffffffffffffffff> PTRN} bind def
/Pattern2 {<eeeeffffbbbbffffeeeeffffbbbbffffeeeeffffbbbbffffeeeeffffbbbbffff> PTRN} bind def
/Pattern3 {<eeeebbbbeeeebbbbeeeebbbbeeeebbbbeeeebbbbeeeebbbbeeeebbbbeeeebbbb> PTRN} bind def
/Pattern4 {<5555aaaa5555aaaa5555aaaa5555aaaa5555aaaa5555aaaa5555aaaa5555aaaa> PTRN} bind def
/Pattern5 {<1111444411114444111144441111444411114444111144441111444411114444> PTRN} bind def
/Pattern6 {<1111000044440000111100004444000011110000444400001111000044440000> PTRN} bind def
/Pattern7 {<1010000000000000010100000000000010100000000000000101000000000000> PTRN} bind def
/Pattern8 {<0000000000000000000000000000000000000000000000000000000000000000> PTRN} bind def
/Pattern9 {<1e1e0f0f8787c3c3e1e1f0f078783c3c1e1e0f0f8787c3c3e1e1f0f078783c3c> PTRN} bind def
/Pattern10 {<7878f0f0e1e1c3c387870f0f1e1e3c3c7878f0f0e1e1c3c387870f0f1e1e3c3c> PTRN} bind def
/Pattern11 {<3333333333333333333333333333333333333333333333333333333333333333> PTRN} bind def
/Pattern12 {<ffffffff00000000ffffffff00000000ffffffff00000000ffffffff00000000> PTRN} bind def
/Pattern13 {<8181424224241818181824244242818181814242242418181818242442428181> PTRN} bind def
/Pattern14 {<8080404020201010080804040202010180804040202010100808040402020101> PTRN} bind def
/Pattern15 {<0101020204040808101020204040808001010202040408081010202040408080> PTRN} bind def
/Pattern16 {<2222222222222222222222222222222222222222222222222222222222222222> PTRN} bind def
/Pattern17 {<0000ffff000000000000ffff000000000000ffff000000000000ffff00000000> PTRN} bind def
/Pattern18 {<2222ffff222222222222ffff222222222222ffff222222222222ffff22222222> PTRN} bind def
/Pattern19 {<ffffffff33333333ffffffff33333333ffffffff33333333ffffffff33333333> PTRN} bind def
/Pattern20 {<0f0f0f0f0f0f0f0ff0f0f0f0f0f0f0f00f0f0f0f0f0f0f0ff0f0f0f0f0f0f0f0> PTRN} bind def
/Pattern21 {<ff00ff00ff00ff00ff00ff00ff00ff0000ff00ff00ff00ff00ff00ff00ff00ff> PTRN} bind def
/Pattern22 {<8001800180018001800180018001ffffffff8001800180018001800180018001> PTRN} bind def
/Pattern23 {<c003c003c003c003c003c003ffffffffffffffffc003c003c003c003c003c003> PTRN} bind def
/Pattern24 {<040404040404ffff404040404040ffff040404040404ffff404040404040ffff> PTRN} bind def
/Pattern25 {<180018001800180018001800ffffffff001800180018001800180018ffffffff> PTRN} bind def
/Pattern26 {<1111b8b87c7c3a3a1111a3a3c7c78b8b1111b8b87c7c3a3a1111a3a3c7c78b8b> PTRN} bind def
/Pattern27 {<101010102828c7c70101010182827c7c101010102828c7c70101010182827c7c> PTRN} bind def
/Pattern28 {<1c1c121211112121c1c12121111112121c1c121211112121c1c1212111111212> PTRN} bind def
/Pattern29 {<3e3e414180808080e3e31414080808083e3e414180808080e3e3141408080808> PTRN} bind def
/Pattern30 {<4848888884848383848488884848383848488888848483838484888848483838> PTRN} bind def
/Pattern31 {<03030404080808080c0c12122121c0c003030404080808080c0c12122121c0c0> PTRN} bind def
/ellipsedict 8 dict def
ellipsedict /mtrx matrix put
/EARC {
 ellipsedict begin
  /endangle exch def
  /startangle exch def
  /yrad exch def
  /xrad exch def
  /y exch def
  /x exch def
  /savematrix mtrx currentmatrix def
  x y translate
  xrad yrad scale
  0 0 1 startangle endangle arc
  savematrix setmatrix
 end
} def
/TL {
  /kcomp exch def
  /linewidth exch def
  /offset exch def
  GS
  0 offset rmoveto
  linewidth SLW
  dup stringwidth exch kcomp add exch RL s
  GR
} def
/KINIT
{
 /kvector exch def
 /kid 0 def
} def
/KPROC
{
 pop pop
 kvector kid get
 0 rmoveto
 /kid 1 kid add def
} def
/DefEncoding [
 /.notdef
 /.notdef
 /.notdef
 /.notdef
 /.notdef
 /.notdef
 /.notdef
 /.notdef
 /.notdef
 /.notdef
 /.notdef
 /.notdef
 /.notdef
 /.notdef
 /.notdef
 /.notdef
 /.notdef
 /.notdef
 /.notdef
 /.notdef
 /.notdef
 /.notdef
 /.notdef
 /.notdef
 /.notdef
 /.notdef
 /.notdef
 /.notdef
 /.notdef
 /.notdef
 /.notdef
 /.notdef
 /space
 /exclam
 /quotedbl
 /numbersign
 /dollar
 /percent
 /ampersand
 /quoteright
 /parenleft
 /parenright
 /asterisk
 /plus
 /comma
 /hyphen
 /period
 /slash
 /zero
 /one
 /two
 /three
 /four
 /five
 /six
 /seven
 /eight
 /nine
 /colon
 /semicolon
 /less
 /equal
 /greater
 /question
 /at
 /A
 /B
 /C
 /D
 /E
 /F
 /G
 /H
 /I
 /J
 /K
 /L
 /M
 /N
 /O
 /P
 /Q
 /R
 /S
 /T
 /U
 /V
 /W
 /X
 /Y
 /Z
 /bracketleft
 /backslash
 /bracketright
 /asciicircum
 /underscore
 /grave
 /a
 /b
 /c
 /d
 /e
 /f
 /g
 /h
 /i
 /j
 /k
 /l
 /m
 /n
 /o
 /p
 /q
 /r
 /s
 /t
 /u
 /v
 /w
 /x
 /y
 /z
 /braceleft
 /bar
 /braceright
 /asciitilde
 /.notdef
 /.notdef
 /.notdef
 /.notdef
 /.notdef
 /.notdef
 /.notdef
 /.notdef
 /.notdef
 /.notdef
 /.notdef
 /.notdef
 /.notdef
 /.notdef
 /.notdef
 /.notdef
 /.notdef
 /.notdef
 /.notdef
 /.notdef
 /.notdef
 /.notdef
 /.notdef
 /.notdef
 /.notdef
 /.notdef
 /.notdef
 /.notdef
 /.notdef
 /.notdef
 /.notdef
 /.notdef
 /.notdef
 /space
 /exclamdown
 /cent
 /sterling
 /currency
 /yen
 /brokenbar
 /section
 /dieresis
 /copyright
 /ordfeminine
 /guillemotleft
 /logicalnot
 /hyphen
 /registered
 /macron
 /degree
 /plusminus
 /twosuperior
 /threesuperior
 /acute
 /mu
 /paragraph
 /periodcentered
 /cedilla
 /onesuperior
 /ordmasculine
 /guillemotright
 /onequarter
 /onehalf
 /threequarters
 /questiondown
 /Agrave
 /Aacute
 /Acircumflex
 /Atilde
 /Adieresis
 /Aring
 /AE
 /Ccedilla
 /Egrave
 /Eacute
 /Ecircumflex
 /Edieresis
 /Igrave
 /Iacute
 /Icircumflex
 /Idieresis
 /Eth
 /Ntilde
 /Ograve
 /Oacute
 /Ocircumflex
 /Otilde
 /Odieresis
 /multiply
 /Oslash
 /Ugrave
 /Uacute
 /Ucircumflex
 /Udieresis
 /Yacute
 /Thorn
 /germandbls
 /agrave
 /aacute
 /acircumflex
 /atilde
 /adieresis
 /aring
 /ae
 /ccedilla
 /egrave
 /eacute
 /ecircumflex
 /edieresis
 /igrave
 /iacute
 /icircumflex
 /idieresis
 /eth
 /ntilde
 /ograve
 /oacute
 /ocircumflex
 /otilde
 /odieresis
 /divide
 /oslash
 /ugrave
 /uacute
 /ucircumflex
 /udieresis
 /yacute
 /thorn
 /ydieresis
] def
%%EndProlog
%%BeginSetup
%%EndSetup
612.00 612.00 scale
n
0.0000 0.0000 m
0.0000 1.0000 l
1.2941 1.0000 l
1.2941 0.0000 l
c
[/DeviceRGB] SCS
Color0 SC
fill
[/DeviceRGB] SCS
Color2 SC
[0.0060 0.0180 ] 0 SD
0.0060 SLW
0 SLC
0 SLJ
n
0.1500 0.2116 m
0.1750 0.2254 l
0.2000 0.2392 l
0.2250 0.2530 l
0.2500 0.2668 l
0.2750 0.2806 l
0.3000 0.2944 l
0.3250 0.3082 l
0.3500 0.3220 l
0.3750 0.3357 l
0.4000 0.3495 l
0.4250 0.3633 l
0.4500 0.3771 l
0.4750 0.3909 l
0.5000 0.4047 l
0.5250 0.4185 l
0.5500 0.4323 l
0.5750 0.4461 l
0.6000 0.4599 l
0.6250 0.4737 l
0.6500 0.4875 l
0.6750 0.5012 l
0.7000 0.5150 l
0.7250 0.5288 l
0.7500 0.5426 l
0.7750 0.5564 l
0.8000 0.5702 l
0.8250 0.5840 l
0.8500 0.5978 l
0.8750 0.6116 l
0.9000 0.6254 l
1.0500 0.7081 l
1.0562 0.7116 l
1.0625 0.7150 l
1.0687 0.7185 l
1.0750 0.7219 l
1.0812 0.7254 l
1.0875 0.7288 l
1.0938 0.7323 l
1.1000 0.7357 l
1.1062 0.7392 l
1.1125 0.7426 l
s
[/DeviceRGB] SCS
Color1 SC
[0.0300 0.0180 ] 0 SD
0.0060 SLW
n
0.1500 0.2040 m
0.1750 0.2178 l
0.2000 0.2316 l
0.2250 0.2454 l
0.2500 0.2592 l
0.2750 0.2730 l
0.3000 0.2868 l
0.3250 0.3005 l
0.3500 0.3143 l
0.3750 0.3281 l
0.4000 0.3419 l
0.4250 0.3557 l
0.4500 0.3695 l
0.4750 0.3833 l
0.5000 0.3971 l
0.5250 0.4109 l
0.5500 0.4247 l
0.5750 0.4385 l
0.6000 0.4523 l
0.6250 0.4660 l
0.6500 0.4798 l
0.6750 0.4936 l
0.7000 0.5074 l
0.7250 0.5212 l
0.7500 0.5350 l
0.7750 0.5488 l
0.8000 0.5626 l
0.8250 0.5764 l
0.8500 0.5902 l
0.8750 0.6040 l
0.9000 0.6178 l
1.0500 0.7005 l
1.0562 0.7040 l
1.0625 0.7074 l
1.0687 0.7108 l
1.0750 0.7143 l
1.0812 0.7177 l
1.0875 0.7212 l
1.0938 0.7246 l
1.1000 0.7281 l
1.1062 0.7315 l
1.1125 0.7350 l
s
[/DeviceRGB] SCS
Color6 SC
[0.0060 0.0180 0.0300 0.0180 ] 0 SD
0.0060 SLW
n
0.1500 0.2333 m
0.1750 0.2454 l
0.2000 0.2576 l
0.2250 0.2698 l
0.2500 0.2819 l
0.2750 0.2941 l
0.3000 0.3063 l
0.3250 0.3185 l
0.3500 0.3306 l
0.3750 0.3428 l
0.4000 0.3550 l
0.4250 0.3671 l
0.4500 0.3793 l
0.4750 0.3915 l
0.5000 0.4036 l
0.5250 0.4158 l
0.5500 0.4280 l
0.5750 0.4402 l
0.6000 0.4523 l
0.6250 0.4645 l
0.6500 0.4767 l
0.6750 0.4888 l
0.7000 0.5010 l
0.7250 0.5132 l
0.7500 0.5253 l
0.7750 0.5375 l
0.8000 0.5497 l
0.8250 0.5619 l
0.8500 0.5740 l
0.8750 0.5862 l
0.9000 0.5984 l
1.0500 0.6714 l
1.0562 0.6744 l
1.0625 0.6775 l
1.0687 0.6805 l
1.0750 0.6836 l
1.0812 0.6866 l
1.0875 0.6897 l
1.0938 0.6927 l
1.1000 0.6957 l
1.1062 0.6988 l
1.1125 0.7018 l
s
[/DeviceRGB] SCS
Color4 SC
[] 0 SD
0.0030 SLW
n 0.1500 0.4516 0.0080 0.0080 0 360 EARC s
n 0.2125 0.4568 0.0080 0.0080 0 360 EARC s
n 0.2750 0.4620 0.0080 0.0080 0 360 EARC s
n 0.3375 0.4671 0.0080 0.0080 0 360 EARC s
n 0.4000 0.4722 0.0080 0.0080 0 360 EARC s
n 0.4625 0.4773 0.0080 0.0080 0 360 EARC s
n 0.5250 0.4822 0.0080 0.0080 0 360 EARC s
n 0.5875 0.4870 0.0080 0.0080 0 360 EARC s
n 0.6500 0.4917 0.0080 0.0080 0 360 EARC s
n 0.7125 0.4963 0.0080 0.0080 0 360 EARC s
n 0.7750 0.5007 0.0080 0.0080 0 360 EARC s
n 0.8375 0.5050 0.0080 0.0080 0 360 EARC s
n 0.9000 0.5093 0.0080 0.0080 0 360 EARC s
n 1.0250 0.5177 0.0080 0.0080 0 360 EARC s
n 1.0875 0.5219 0.0080 0.0080 0 360 EARC s
[/DeviceRGB] SCS
Color10 SC
n
0.1432 0.4215 m
0.1432 0.4351 l
0.1568 0.4351 l
0.1568 0.4215 l
0.1432 0.4215 l
c
s
n
0.2057 0.4288 m
0.2057 0.4424 l
0.2193 0.4424 l
0.2193 0.4288 l
0.2057 0.4288 l
c
s
n
0.2682 0.4361 m
0.2682 0.4497 l
0.2818 0.4497 l
0.2818 0.4361 l
0.2682 0.4361 l
c
s
n
0.3307 0.4436 m
0.3307 0.4572 l
0.3443 0.4572 l
0.3443 0.4436 l
0.3307 0.4436 l
c
s
n
0.3932 0.4514 m
0.3932 0.4650 l
0.4068 0.4650 l
0.4068 0.4514 l
0.3932 0.4514 l
c
s
n
0.4557 0.4596 m
0.4557 0.4732 l
0.4693 0.4732 l
0.4693 0.4596 l
0.4557 0.4596 l
c
s
n
0.5182 0.4687 m
0.5182 0.4823 l
0.5318 0.4823 l
0.5318 0.4687 l
0.5182 0.4687 l
c
s
n
0.5807 0.4804 m
0.5807 0.4940 l
0.5943 0.4940 l
0.5943 0.4804 l
0.5807 0.4804 l
c
s
n
0.6432 0.4834 m
0.6432 0.4970 l
0.6568 0.4970 l
0.6568 0.4834 l
0.6432 0.4834 l
c
s
n
0.7057 0.4857 m
0.7057 0.4993 l
0.7193 0.4993 l
0.7193 0.4857 l
0.7057 0.4857 l
c
s
n
0.7682 0.4895 m
0.7682 0.5031 l
0.7818 0.5031 l
0.7818 0.4895 l
0.7682 0.4895 l
c
s
n
0.8307 0.4940 m
0.8307 0.5076 l
0.8443 0.5076 l
0.8443 0.4940 l
0.8307 0.4940 l
c
s
n
0.8932 0.4987 m
0.8932 0.5123 l
0.9068 0.5123 l
0.9068 0.4987 l
0.8932 0.4987 l
c
s
n
1.0182 0.5084 m
1.0182 0.5220 l
1.0318 0.5220 l
1.0318 0.5084 l
1.0182 0.5084 l
c
s
n
1.0807 0.5132 m
1.0807 0.5268 l
1.0943 0.5268 l
1.0943 0.5132 l
1.0807 0.5132 l
c
s
n
0.1500 0.4309 m
0.1400 0.4209 l
0.1500 0.4109 l
0.1600 0.4209 l
c
[/DeviceRGB] SCS
Color11 SC
fill
n
0.2125 0.4391 m
0.2025 0.4291 l
0.2125 0.4191 l
0.2225 0.4291 l
c
fill
n
0.2750 0.4474 m
0.2650 0.4374 l
0.2750 0.4274 l
0.2850 0.4374 l
c
fill
n
0.3375 0.4556 m
0.3275 0.4456 l
0.3375 0.4356 l
0.3475 0.4456 l
c
fill
n
0.4000 0.4639 m
0.3900 0.4539 l
0.4000 0.4439 l
0.4100 0.4539 l
c
fill
n
0.4625 0.4721 m
0.4525 0.4621 l
0.4625 0.4521 l
0.4725 0.4621 l
c
fill
n
0.5250 0.4803 m
0.5150 0.4703 l
0.5250 0.4603 l
0.5350 0.4703 l
c
fill
n
0.5875 0.4885 m
0.5775 0.4785 l
0.5875 0.4685 l
0.5975 0.4785 l
c
fill
n
0.6500 0.4967 m
0.6400 0.4867 l
0.6500 0.4767 l
0.6600 0.4867 l
c
fill
n
0.7125 0.5050 m
0.7025 0.4950 l
0.7125 0.4850 l
0.7225 0.4950 l
c
fill
n
0.7750 0.5134 m
0.7650 0.5034 l
0.7750 0.4934 l
0.7850 0.5034 l
c
fill
n
0.8375 0.5224 m
0.8275 0.5124 l
0.8375 0.5024 l
0.8475 0.5124 l
c
fill
n
0.9000 0.5328 m
0.8900 0.5228 l
0.9000 0.5128 l
0.9100 0.5228 l
c
fill
n
1.0250 0.5469 m
1.0150 0.5369 l
1.0250 0.5269 l
1.0350 0.5369 l
c
fill
n
1.0875 0.5516 m
1.0775 0.5416 l
1.0875 0.5316 l
1.0975 0.5416 l
c
fill
[/DeviceRGB] SCS
Color1 SC
[] 0 SD
0.0015 SLW
n
0.1500 0.1500 m
1.1500 0.1500 l
s
n
0.1500 0.8500 m
1.1500 0.8500 l
s
n
0.2750 0.1500 m
0.2750 0.1600 l
s
n
0.2750 0.8500 m
0.2750 0.8400 l
s
n
0.5250 0.1500 m
0.5250 0.1600 l
s
n
0.5250 0.8500 m
0.5250 0.8400 l
s
n
0.7750 0.1500 m
0.7750 0.1600 l
s
n
0.7750 0.8500 m
0.7750 0.8400 l
s
n
1.0250 0.1500 m
1.0250 0.1600 l
s
n
1.0250 0.8500 m
1.0250 0.8400 l
s
n
0.1500 0.1500 m
0.1500 0.1700 l
s
n
0.1500 0.8500 m
0.1500 0.8300 l
s
n
0.4000 0.1500 m
0.4000 0.1700 l
s
n
0.4000 0.8500 m
0.4000 0.8300 l
s
n
0.6500 0.1500 m
0.6500 0.1700 l
s
n
0.6500 0.8500 m
0.6500 0.8300 l
s
n
0.9000 0.1500 m
0.9000 0.1700 l
s
n
0.9000 0.8500 m
0.9000 0.8300 l
s
n
1.1500 0.1500 m
1.1500 0.1700 l
s
n
1.1500 0.8500 m
1.1500 0.8300 l
s
/Times-Roman findfont
dup length dict begin
 {1 index /FID ne {def} {pop pop} ifelse} forall
 /Encoding DefEncoding def
 currentdict
end
/Font0 exch definefont pop
/Font0 FFSF
0.1363 0.1173 m
GS
[0.0339 0.0000 0.0000 0.0339 0 0] CC
(-4) show
GR
/Font0 FFSF
0.3863 0.1173 m
GS
[0.0339 0.0000 0.0000 0.0339 0 0] CC
(-2) show
GR
/Font0 FFSF
0.6420 0.1173 m
GS
[0.0339 0.0000 0.0000 0.0339 0 0] CC
(0) show
GR
/Font0 FFSF
0.8920 0.1173 m
GS
[0.0339 0.0000 0.0000 0.0339 0 0] CC
(2) show
GR
/Font0 FFSF
1.1420 0.1173 m
GS
[0.0339 0.0000 0.0000 0.0339 0 0] CC
(4) show
GR
/Font0 FFSF
0.6025 0.0829 m
GS
[0.0364 0.0000 0.0000 0.0364 0 0] CC
(n [PN]) show
GR
n
0.1500 0.1500 m
0.1500 0.8500 l
s
n
1.1500 0.1500 m
1.1500 0.8500 l
s
n
0.1500 0.2200 m
0.1700 0.2200 l
s
n
1.1500 0.2200 m
1.1300 0.2200 l
s
n
0.1500 0.3600 m
0.1700 0.3600 l
s
n
1.1500 0.3600 m
1.1300 0.3600 l
s
n
0.1500 0.5000 m
0.1700 0.5000 l
s
n
1.1500 0.5000 m
1.1300 0.5000 l
s
n
0.1500 0.6400 m
0.1700 0.6400 l
s
n
1.1500 0.6400 m
1.1300 0.6400 l
s
n
0.1500 0.7800 m
0.1700 0.7800 l
s
n
1.1500 0.7800 m
1.1300 0.7800 l
s
/Font0 FFSF
0.0749 0.2020 m
GS
[0.0339 0.0000 0.0000 0.0339 0 0] CC
(10) show
GR
/Font0 FFSF
0.1086 0.2223 m
GS
[0.0240 0.0000 0.0000 0.0240 0 0] CC
(-24) show
GR
/Font0 FFSF
0.0749 0.3420 m
GS
[0.0339 0.0000 0.0000 0.0339 0 0] CC
(10) show
GR
/Font0 FFSF
0.1086 0.3623 m
GS
[0.0240 0.0000 0.0000 0.0240 0 0] CC
(-12) show
GR
/Font0 FFSF
0.0949 0.4820 m
GS
[0.0339 0.0000 0.0000 0.0339 0 0] CC
(10) show
GR
/Font0 FFSF
0.1286 0.5023 m
GS
[0.0240 0.0000 0.0000 0.0240 0 0] CC
(0) show
GR
/Font0 FFSF
0.0827 0.6220 m
GS
[0.0339 0.0000 0.0000 0.0339 0 0] CC
(10) show
GR
/Font0 FFSF
0.1165 0.6423 m
GS
[0.0240 0.0000 0.0000 0.0240 0 0] CC
(12) show
GR
/Font0 FFSF
0.0827 0.7620 m
GS
[0.0339 0.0000 0.0000 0.0339 0 0] CC
(10) show
GR
/Font0 FFSF
0.1165 0.7823 m
GS
[0.0240 0.0000 0.0000 0.0240 0 0] CC
(24) show
GR
/Font0 FFSF
0.0571 0.4775 m
GS
[0.0000 0.0364 -0.0364 0.0000 0 0] CC
(|) show
GR
/Symbol findfont
/Font12 exch definefont pop
/Font12 FFSF
0.0571 0.4849 m
GS
[0.0000 0.0364 -0.0364 0.0000 0 0] CC
( g) show
GR
/Font0 FFSF
0.0571 0.5088 m
GS
[0.0000 0.0364 -0.0364 0.0000 0 0] CC
( |) show
GR
n
0.1500 0.1500 m
0.1500 0.8500 l
1.1500 0.8500 l
1.1500 0.1500 l
0.1500 0.1500 l
c
s
n
0.2000 0.8000 m
0.2000 0.5594 l
0.6983 0.5594 l
0.6983 0.8000 l
c
[/DeviceRGB] SCS
Color0 SC
fill
[/DeviceRGB] SCS
Color1 SC
n
0.2000 0.8000 m
0.2000 0.5594 l
0.6983 0.5594 l
0.6983 0.8000 l
0.2000 0.8000 l
c
s
/Font0 FFSF
0.3730 0.7653 m
GS
[0.0364 0.0000 0.0000 0.0364 0 0] CC
(BH-PSR \(FAST\)) show
GR
[/DeviceRGB] SCS
Color2 SC
[0.0060 0.0180 ] 0 SD
0.0060 SLW
n
0.2130 0.7745 m
0.3530 0.7745 l
s
/Font0 FFSF
[/DeviceRGB] SCS
Color1 SC
0.3730 0.7243 m
GS
[0.0364 0.0000 0.0000 0.0364 0 0] CC
(BH-PSR \(SKA\)) show
GR
[0.0300 0.0180 ] 0 SD
0.0060 SLW
n
0.2130 0.7335 m
0.3530 0.7335 l
s
/Font0 FFSF
0.3730 0.6833 m
GS
[0.0364 0.0000 0.0000 0.0364 0 0] CC
(Double Binary Pulsar) show
GR
[/DeviceRGB] SCS
Color6 SC
[0.0060 0.0180 0.0300 0.0180 ] 0 SD
0.0060 SLW
n
0.2130 0.6918 m
0.3530 0.6918 l
s
/Font0 FFSF
[/DeviceRGB] SCS
Color1 SC
0.3730 0.6404 m
GS
[0.0364 0.0000 0.0000 0.0364 0 0] CC
(GW150914) show
GR
[/DeviceRGB] SCS
Color4 SC
[] 0 SD
0.0030 SLW
n 0.2830 0.6525 0.0080 0.0080 0 360 EARC s
/Font0 FFSF
[/DeviceRGB] SCS
Color1 SC
0.3730 0.6045 m
GS
[0.0364 0.0000 0.0000 0.0364 0 0] CC
(GW151226) show
GR
[/DeviceRGB] SCS
Color10 SC
n
0.2762 0.6101 m
0.2762 0.6237 l
0.2898 0.6237 l
0.2898 0.6101 l
0.2762 0.6101 l
c
s
/Font0 FFSF
[/DeviceRGB] SCS
Color1 SC
0.3730 0.5698 m
GS
[0.0364 0.0000 0.0000 0.0364 0 0] CC
(GW170817) show
GR
n
0.2830 0.5918 m
0.2730 0.5818 l
0.2830 0.5718 l
0.2930 0.5818 l
c
[/DeviceRGB] SCS
Color11 SC
fill
%%Trailer
%%BoundingBox: 19 46 710 522
%%DocumentNeededResources: font Times-Roman
%%+ font Symbol
%%EOF
