%!PS-Adobe-3.0 EPSF-3.0
%%BoundingBox: (atend)
%%LanguageLevel: 2
%%Creator: Grace-5.1.25
%%CreationDate: Mon Jul  9 11:52:00 2018
%%DocumentData: Clean8Bit
%%Orientation: Portrait
%%Title: /home/bseymour/bh-pulsar/Paper_Graphs/Xmgrace Files/Quadrupole_Mom_Measurability
%%For: bseymour
%%DocumentNeededResources: (atend)
%%EndComments
%%BeginProlog
/m {moveto} def
/l {lineto} def
/s {stroke} def
/n {newpath} def
/c {closepath} def
/RL {rlineto} def
/SLW {setlinewidth} def
/GS {gsave} def
/GR {grestore} def
/SC {setcolor} def
/SGRY {setgray} def
/SRGB {setrgbcolor} def
/SD {setdash} def
/SLC {setlinecap} def
/SLJ {setlinejoin} def
/SCS {setcolorspace} def
/FFSF {findfont setfont} def
/CC {concat} def
/PXL {n m 0 0 RL s} def
/Color0 {1.0000 1.0000 1.0000} def
/Color1 {0.0000 0.0000 0.0000} def
/Color2 {1.0000 0.0000 0.0000} def
/Color3 {0.0000 1.0000 0.0000} def
/Color4 {0.0000 0.0000 1.0000} def
/Color5 {1.0000 1.0000 0.0000} def
/Color6 {0.7373 0.5608 0.5608} def
/Color7 {0.8627 0.8627 0.8627} def
/Color8 {0.5804 0.0000 0.8275} def
/Color9 {0.0000 1.0000 1.0000} def
/Color10 {1.0000 0.0000 1.0000} def
/Color11 {1.0000 0.6471 0.0000} def
/Color12 {0.4471 0.1294 0.7373} def
/Color13 {0.4039 0.0275 0.2824} def
/Color14 {0.2510 0.8784 0.8157} def
/Color15 {0.0000 0.5451 0.0000} def
/Color16 {0.7529 0.7529 0.7529} def
/Color17 {0.5059 0.5059 0.5059} def
/Color18 {0.2588 0.2588 0.2588} def
/PTRN {
 /pat_bits exch def 
 <<
  /PaintType 2
  /PatternType 1 /TilingType 1
  /BBox[0 0 16 16]
  /XStep 16 /YStep 16
  /PaintProc {
   pop
   16 16 true [-1 0 0 -1 16 16] pat_bits imagemask
  }
 >>
 [0.0016 0 0 0.0016 0 0]
 makepattern
} def
/Pattern0 {<0000000000000000000000000000000000000000000000000000000000000000> PTRN} bind def
/Pattern1 {<ffffffffffffffffffffffffffffffffffffffffffffffffffffffffffffffff> PTRN} bind def
/Pattern2 {<eeeeffffbbbbffffeeeeffffbbbbffffeeeeffffbbbbffffeeeeffffbbbbffff> PTRN} bind def
/Pattern3 {<eeeebbbbeeeebbbbeeeebbbbeeeebbbbeeeebbbbeeeebbbbeeeebbbbeeeebbbb> PTRN} bind def
/Pattern4 {<5555aaaa5555aaaa5555aaaa5555aaaa5555aaaa5555aaaa5555aaaa5555aaaa> PTRN} bind def
/Pattern5 {<1111444411114444111144441111444411114444111144441111444411114444> PTRN} bind def
/Pattern6 {<1111000044440000111100004444000011110000444400001111000044440000> PTRN} bind def
/Pattern7 {<1010000000000000010100000000000010100000000000000101000000000000> PTRN} bind def
/Pattern8 {<0000000000000000000000000000000000000000000000000000000000000000> PTRN} bind def
/Pattern9 {<1e1e0f0f8787c3c3e1e1f0f078783c3c1e1e0f0f8787c3c3e1e1f0f078783c3c> PTRN} bind def
/Pattern10 {<7878f0f0e1e1c3c387870f0f1e1e3c3c7878f0f0e1e1c3c387870f0f1e1e3c3c> PTRN} bind def
/Pattern11 {<3333333333333333333333333333333333333333333333333333333333333333> PTRN} bind def
/Pattern12 {<ffffffff00000000ffffffff00000000ffffffff00000000ffffffff00000000> PTRN} bind def
/Pattern13 {<8181424224241818181824244242818181814242242418181818242442428181> PTRN} bind def
/Pattern14 {<8080404020201010080804040202010180804040202010100808040402020101> PTRN} bind def
/Pattern15 {<0101020204040808101020204040808001010202040408081010202040408080> PTRN} bind def
/Pattern16 {<2222222222222222222222222222222222222222222222222222222222222222> PTRN} bind def
/Pattern17 {<0000ffff000000000000ffff000000000000ffff000000000000ffff00000000> PTRN} bind def
/Pattern18 {<2222ffff222222222222ffff222222222222ffff222222222222ffff22222222> PTRN} bind def
/Pattern19 {<ffffffff33333333ffffffff33333333ffffffff33333333ffffffff33333333> PTRN} bind def
/Pattern20 {<0f0f0f0f0f0f0f0ff0f0f0f0f0f0f0f00f0f0f0f0f0f0f0ff0f0f0f0f0f0f0f0> PTRN} bind def
/Pattern21 {<ff00ff00ff00ff00ff00ff00ff00ff0000ff00ff00ff00ff00ff00ff00ff00ff> PTRN} bind def
/Pattern22 {<8001800180018001800180018001ffffffff8001800180018001800180018001> PTRN} bind def
/Pattern23 {<c003c003c003c003c003c003ffffffffffffffffc003c003c003c003c003c003> PTRN} bind def
/Pattern24 {<040404040404ffff404040404040ffff040404040404ffff404040404040ffff> PTRN} bind def
/Pattern25 {<180018001800180018001800ffffffff001800180018001800180018ffffffff> PTRN} bind def
/Pattern26 {<1111b8b87c7c3a3a1111a3a3c7c78b8b1111b8b87c7c3a3a1111a3a3c7c78b8b> PTRN} bind def
/Pattern27 {<101010102828c7c70101010182827c7c101010102828c7c70101010182827c7c> PTRN} bind def
/Pattern28 {<1c1c121211112121c1c12121111112121c1c121211112121c1c1212111111212> PTRN} bind def
/Pattern29 {<3e3e414180808080e3e31414080808083e3e414180808080e3e3141408080808> PTRN} bind def
/Pattern30 {<4848888884848383848488884848383848488888848483838484888848483838> PTRN} bind def
/Pattern31 {<03030404080808080c0c12122121c0c003030404080808080c0c12122121c0c0> PTRN} bind def
/ellipsedict 8 dict def
ellipsedict /mtrx matrix put
/EARC {
 ellipsedict begin
  /endangle exch def
  /startangle exch def
  /yrad exch def
  /xrad exch def
  /y exch def
  /x exch def
  /savematrix mtrx currentmatrix def
  x y translate
  xrad yrad scale
  0 0 1 startangle endangle arc
  savematrix setmatrix
 end
} def
/TL {
  /kcomp exch def
  /linewidth exch def
  /offset exch def
  GS
  0 offset rmoveto
  linewidth SLW
  dup stringwidth exch kcomp add exch RL s
  GR
} def
/KINIT
{
 /kvector exch def
 /kid 0 def
} def
/KPROC
{
 pop pop
 kvector kid get
 0 rmoveto
 /kid 1 kid add def
} def
/DefEncoding [
 /.notdef
 /.notdef
 /.notdef
 /.notdef
 /.notdef
 /.notdef
 /.notdef
 /.notdef
 /.notdef
 /.notdef
 /.notdef
 /.notdef
 /.notdef
 /.notdef
 /.notdef
 /.notdef
 /.notdef
 /.notdef
 /.notdef
 /.notdef
 /.notdef
 /.notdef
 /.notdef
 /.notdef
 /.notdef
 /.notdef
 /.notdef
 /.notdef
 /.notdef
 /.notdef
 /.notdef
 /.notdef
 /space
 /exclam
 /quotedbl
 /numbersign
 /dollar
 /percent
 /ampersand
 /quoteright
 /parenleft
 /parenright
 /asterisk
 /plus
 /comma
 /hyphen
 /period
 /slash
 /zero
 /one
 /two
 /three
 /four
 /five
 /six
 /seven
 /eight
 /nine
 /colon
 /semicolon
 /less
 /equal
 /greater
 /question
 /at
 /A
 /B
 /C
 /D
 /E
 /F
 /G
 /H
 /I
 /J
 /K
 /L
 /M
 /N
 /O
 /P
 /Q
 /R
 /S
 /T
 /U
 /V
 /W
 /X
 /Y
 /Z
 /bracketleft
 /backslash
 /bracketright
 /asciicircum
 /underscore
 /grave
 /a
 /b
 /c
 /d
 /e
 /f
 /g
 /h
 /i
 /j
 /k
 /l
 /m
 /n
 /o
 /p
 /q
 /r
 /s
 /t
 /u
 /v
 /w
 /x
 /y
 /z
 /braceleft
 /bar
 /braceright
 /asciitilde
 /.notdef
 /.notdef
 /.notdef
 /.notdef
 /.notdef
 /.notdef
 /.notdef
 /.notdef
 /.notdef
 /.notdef
 /.notdef
 /.notdef
 /.notdef
 /.notdef
 /.notdef
 /.notdef
 /.notdef
 /.notdef
 /.notdef
 /.notdef
 /.notdef
 /.notdef
 /.notdef
 /.notdef
 /.notdef
 /.notdef
 /.notdef
 /.notdef
 /.notdef
 /.notdef
 /.notdef
 /.notdef
 /.notdef
 /space
 /exclamdown
 /cent
 /sterling
 /currency
 /yen
 /brokenbar
 /section
 /dieresis
 /copyright
 /ordfeminine
 /guillemotleft
 /logicalnot
 /hyphen
 /registered
 /macron
 /degree
 /plusminus
 /twosuperior
 /threesuperior
 /acute
 /mu
 /paragraph
 /periodcentered
 /cedilla
 /onesuperior
 /ordmasculine
 /guillemotright
 /onequarter
 /onehalf
 /threequarters
 /questiondown
 /Agrave
 /Aacute
 /Acircumflex
 /Atilde
 /Adieresis
 /Aring
 /AE
 /Ccedilla
 /Egrave
 /Eacute
 /Ecircumflex
 /Edieresis
 /Igrave
 /Iacute
 /Icircumflex
 /Idieresis
 /Eth
 /Ntilde
 /Ograve
 /Oacute
 /Ocircumflex
 /Otilde
 /Odieresis
 /multiply
 /Oslash
 /Ugrave
 /Uacute
 /Ucircumflex
 /Udieresis
 /Yacute
 /Thorn
 /germandbls
 /agrave
 /aacute
 /acircumflex
 /atilde
 /adieresis
 /aring
 /ae
 /ccedilla
 /egrave
 /eacute
 /ecircumflex
 /edieresis
 /igrave
 /iacute
 /icircumflex
 /idieresis
 /eth
 /ntilde
 /ograve
 /oacute
 /ocircumflex
 /otilde
 /odieresis
 /divide
 /oslash
 /ugrave
 /uacute
 /ucircumflex
 /udieresis
 /yacute
 /thorn
 /ydieresis
] def
%%EndProlog
%%BeginSetup
%%EndSetup
612.00 612.00 scale
n
0.0000 0.0000 m
0.0000 1.0000 l
1.2941 1.0000 l
1.2941 0.0000 l
c
[/DeviceRGB] SCS
Color0 SC
fill
[/DeviceRGB] SCS
Color1 SC
[] 0 SD
0.0015 SLW
0 SLC
0 SLJ
n
0.6471 0.1500 m
0.6471 0.8500 l
1.1441 0.8500 l
1.1441 0.1500 l
0.6471 0.1500 l
c
s
[/DeviceRGB] SCS
Color2 SC
[] 0 SD
0.0060 SLW
n
0.3995 0.7502 m
0.4242 0.7461 l
0.4489 0.7422 l
0.4740 0.7383 l
0.4994 0.7348 l
0.5241 0.7313 l
0.5492 0.7279 l
0.5739 0.7246 l
0.5989 0.7212 l
0.6236 0.7182 l
s
n
0.3995 0.7502 0.0100 0.0100 0 360 EARC c
fill
[] 0 SD
0.0015 SLW
n 0.3995 0.7502 0.0100 0.0100 0 360 EARC s
n
0.4242 0.7461 0.0100 0.0100 0 360 EARC c
fill
n 0.4242 0.7461 0.0100 0.0100 0 360 EARC s
n
0.4489 0.7422 0.0100 0.0100 0 360 EARC c
fill
n 0.4489 0.7422 0.0100 0.0100 0 360 EARC s
n
0.4740 0.7383 0.0100 0.0100 0 360 EARC c
fill
n 0.4740 0.7383 0.0100 0.0100 0 360 EARC s
n
0.4994 0.7348 0.0100 0.0100 0 360 EARC c
fill
n 0.4994 0.7348 0.0100 0.0100 0 360 EARC s
n
0.5241 0.7313 0.0100 0.0100 0 360 EARC c
fill
n 0.5241 0.7313 0.0100 0.0100 0 360 EARC s
n
0.5492 0.7279 0.0100 0.0100 0 360 EARC c
fill
n 0.5492 0.7279 0.0100 0.0100 0 360 EARC s
n
0.5739 0.7246 0.0100 0.0100 0 360 EARC c
fill
n 0.5739 0.7246 0.0100 0.0100 0 360 EARC s
n
0.5989 0.7212 0.0100 0.0100 0 360 EARC c
fill
n 0.5989 0.7212 0.0100 0.0100 0 360 EARC s
n
0.6236 0.7182 0.0100 0.0100 0 360 EARC c
fill
n 0.6236 0.7182 0.0100 0.0100 0 360 EARC s
[/DeviceRGB] SCS
Color4 SC
[] 0 SD
0.0060 SLW
n
0.1997 0.7485 m
0.2248 0.7421 l
0.2499 0.7358 l
0.2750 0.7300 l
0.2996 0.7246 l
0.3247 0.7195 l
0.3494 0.7148 l
0.3745 0.7104 l
0.3995 0.7060 l
0.4242 0.7019 l
0.4493 0.6979 l
0.4744 0.6941 l
0.4994 0.6906 l
0.5241 0.6871 l
0.5488 0.6837 l
0.5739 0.6802 l
0.5993 0.6772 l
0.6236 0.6740 l
s
n
0.1912 0.7400 m
0.1912 0.7570 l
0.2082 0.7570 l
0.2082 0.7400 l
c
fill
[] 0 SD
0.0015 SLW
n
0.1912 0.7400 m
0.1912 0.7570 l
0.2082 0.7570 l
0.2082 0.7400 l
0.1912 0.7400 l
c
s
n
0.2163 0.7336 m
0.2163 0.7506 l
0.2333 0.7506 l
0.2333 0.7336 l
c
fill
n
0.2163 0.7336 m
0.2163 0.7506 l
0.2333 0.7506 l
0.2333 0.7336 l
0.2163 0.7336 l
c
s
n
0.2414 0.7273 m
0.2414 0.7443 l
0.2584 0.7443 l
0.2584 0.7273 l
c
fill
n
0.2414 0.7273 m
0.2414 0.7443 l
0.2584 0.7443 l
0.2584 0.7273 l
0.2414 0.7273 l
c
s
n
0.2665 0.7215 m
0.2665 0.7385 l
0.2835 0.7385 l
0.2835 0.7215 l
c
fill
n
0.2665 0.7215 m
0.2665 0.7385 l
0.2835 0.7385 l
0.2835 0.7215 l
0.2665 0.7215 l
c
s
n
0.2911 0.7161 m
0.2911 0.7331 l
0.3081 0.7331 l
0.3081 0.7161 l
c
fill
n
0.2911 0.7161 m
0.2911 0.7331 l
0.3081 0.7331 l
0.3081 0.7161 l
0.2911 0.7161 l
c
s
n
0.3162 0.7110 m
0.3162 0.7280 l
0.3332 0.7280 l
0.3332 0.7110 l
c
fill
n
0.3162 0.7110 m
0.3162 0.7280 l
0.3332 0.7280 l
0.3332 0.7110 l
0.3162 0.7110 l
c
s
n
0.3409 0.7063 m
0.3409 0.7233 l
0.3579 0.7233 l
0.3579 0.7063 l
c
fill
n
0.3409 0.7063 m
0.3409 0.7233 l
0.3579 0.7233 l
0.3579 0.7063 l
0.3409 0.7063 l
c
s
n
0.3660 0.7019 m
0.3660 0.7189 l
0.3830 0.7189 l
0.3830 0.7019 l
c
fill
n
0.3660 0.7019 m
0.3660 0.7189 l
0.3830 0.7189 l
0.3830 0.7019 l
0.3660 0.7019 l
c
s
n
0.3910 0.6975 m
0.3910 0.7145 l
0.4080 0.7145 l
0.4080 0.6975 l
c
fill
n
0.3910 0.6975 m
0.3910 0.7145 l
0.4080 0.7145 l
0.4080 0.6975 l
0.3910 0.6975 l
c
s
n
0.4157 0.6934 m
0.4157 0.7104 l
0.4327 0.7104 l
0.4327 0.6934 l
c
fill
n
0.4157 0.6934 m
0.4157 0.7104 l
0.4327 0.7104 l
0.4327 0.6934 l
0.4157 0.6934 l
c
s
n
0.4408 0.6894 m
0.4408 0.7064 l
0.4578 0.7064 l
0.4578 0.6894 l
c
fill
n
0.4408 0.6894 m
0.4408 0.7064 l
0.4578 0.7064 l
0.4578 0.6894 l
0.4408 0.6894 l
c
s
n
0.4659 0.6856 m
0.4659 0.7026 l
0.4829 0.7026 l
0.4829 0.6856 l
c
fill
n
0.4659 0.6856 m
0.4659 0.7026 l
0.4829 0.7026 l
0.4829 0.6856 l
0.4659 0.6856 l
c
s
n
0.4909 0.6821 m
0.4909 0.6991 l
0.5079 0.6991 l
0.5079 0.6821 l
c
fill
n
0.4909 0.6821 m
0.4909 0.6991 l
0.5079 0.6991 l
0.5079 0.6821 l
0.4909 0.6821 l
c
s
n
0.5156 0.6786 m
0.5156 0.6956 l
0.5326 0.6956 l
0.5326 0.6786 l
c
fill
n
0.5156 0.6786 m
0.5156 0.6956 l
0.5326 0.6956 l
0.5326 0.6786 l
0.5156 0.6786 l
c
s
n
0.5403 0.6752 m
0.5403 0.6922 l
0.5573 0.6922 l
0.5573 0.6752 l
c
fill
n
0.5403 0.6752 m
0.5403 0.6922 l
0.5573 0.6922 l
0.5573 0.6752 l
0.5403 0.6752 l
c
s
n
0.5654 0.6717 m
0.5654 0.6887 l
0.5824 0.6887 l
0.5824 0.6717 l
c
fill
n
0.5654 0.6717 m
0.5654 0.6887 l
0.5824 0.6887 l
0.5824 0.6717 l
0.5654 0.6717 l
c
s
n
0.5908 0.6687 m
0.5908 0.6857 l
0.6078 0.6857 l
0.6078 0.6687 l
c
fill
n
0.5908 0.6687 m
0.5908 0.6857 l
0.6078 0.6857 l
0.6078 0.6687 l
0.5908 0.6687 l
c
s
n
0.6151 0.6655 m
0.6151 0.6825 l
0.6321 0.6825 l
0.6321 0.6655 l
c
fill
n
0.6151 0.6655 m
0.6151 0.6825 l
0.6321 0.6825 l
0.6321 0.6655 l
0.6151 0.6655 l
c
s
[/DeviceRGB] SCS
Color1 SC
n
0.1500 0.1500 m
0.6471 0.1500 l
s
n
0.1500 0.8500 m
0.6471 0.8500 l
s
n
0.1997 0.1500 m
0.1997 0.1600 l
s
n
0.1997 0.8500 m
0.1997 0.8400 l
s
n
0.2991 0.1500 m
0.2991 0.1600 l
s
n
0.2991 0.8500 m
0.2991 0.8400 l
s
n
0.3985 0.1500 m
0.3985 0.1600 l
s
n
0.3985 0.8500 m
0.3985 0.8400 l
s
n
0.4979 0.1500 m
0.4979 0.1600 l
s
n
0.4979 0.8500 m
0.4979 0.8400 l
s
n
0.5974 0.1500 m
0.5974 0.1600 l
s
n
0.5974 0.8500 m
0.5974 0.8400 l
s
n
0.1500 0.1500 m
0.1500 0.1700 l
s
n
0.1500 0.8500 m
0.1500 0.8300 l
s
n
0.2494 0.1500 m
0.2494 0.1700 l
s
n
0.2494 0.8500 m
0.2494 0.8300 l
s
n
0.3488 0.1500 m
0.3488 0.1700 l
s
n
0.3488 0.8500 m
0.3488 0.8300 l
s
n
0.4482 0.1500 m
0.4482 0.1700 l
s
n
0.4482 0.8500 m
0.4482 0.8300 l
s
n
0.5476 0.1500 m
0.5476 0.1700 l
s
n
0.5476 0.8500 m
0.5476 0.8300 l
s
n
0.6471 0.1500 m
0.6471 0.1700 l
s
n
0.6471 0.8500 m
0.6471 0.8300 l
s
/Times-Roman findfont
dup length dict begin
 {1 index /FID ne {def} {pop pop} ifelse} forall
 /Encoding DefEncoding def
 currentdict
end
/Font34 exch definefont pop
/Font34 FFSF
0.1335 0.1173 m
GS
[0.0336 0.0000 0.0000 0.0336 0 0] CC
(30) show
GR
/Font34 FFSF
0.2329 0.1173 m
GS
[0.0336 0.0000 0.0000 0.0336 0 0] CC
(40) show
GR
/Font34 FFSF
0.3324 0.1169 m
GS
[0.0336 0.0000 0.0000 0.0336 0 0] CC
(50) show
GR
/Font34 FFSF
0.4318 0.1169 m
GS
[0.0336 0.0000 0.0000 0.0336 0 0] CC
(60) show
GR
/Font34 FFSF
0.5312 0.1173 m
GS
[0.0336 0.0000 0.0000 0.0336 0 0] CC
(70) show
GR
/Font34 FFSF
0.6306 0.1173 m
GS
[0.0336 0.0000 0.0000 0.0336 0 0] CC
(80) show
GR
/Font34 FFSF
0.3260 0.0825 m
GS
[0.0364 0.0000 0.0000 0.0364 0 0] CC
(m) show
GR
/Font34 FFSF
0.3542 0.0680 m
GS
[0.0257 0.0000 0.0000 0.0257 0 0] CC
(BH) show
GR
/Font34 FFSF
0.3899 0.0825 m
GS
[0.0364 0.0000 0.0000 0.0364 0 0] CC
( [M) show
GR
/Font34 FFSF
0.4436 0.0680 m
GS
[0.0257 0.0000 0.0000 0.0257 0 0] CC
(O) show
GR
/Font34 FFSF
0.4621 0.0825 m
GS
[0.0364 0.0000 0.0000 0.0364 0 0] CC
(]) show
GR
/Font34 FFSF
0.4484 0.0745 m
GS
[0.0364 0.0000 0.0000 0.0364 0 0] CC
(.) show
GR
n
0.1500 0.1500 m
0.1500 0.8500 l
s
n
0.1500 0.1921 m
0.1600 0.1921 l
s
n
0.1500 0.2168 m
0.1600 0.2168 l
s
n
0.1500 0.2343 m
0.1600 0.2343 l
s
n
0.1500 0.2479 m
0.1600 0.2479 l
s
n
0.1500 0.2589 m
0.1600 0.2589 l
s
n
0.1500 0.2683 m
0.1600 0.2683 l
s
n
0.1500 0.2764 m
0.1600 0.2764 l
s
n
0.1500 0.2836 m
0.1600 0.2836 l
s
n
0.1500 0.2900 m
0.1600 0.2900 l
s
n
0.1500 0.3321 m
0.1600 0.3321 l
s
n
0.1500 0.3568 m
0.1600 0.3568 l
s
n
0.1500 0.3743 m
0.1600 0.3743 l
s
n
0.1500 0.3879 m
0.1600 0.3879 l
s
n
0.1500 0.3989 m
0.1600 0.3989 l
s
n
0.1500 0.4083 m
0.1600 0.4083 l
s
n
0.1500 0.4164 m
0.1600 0.4164 l
s
n
0.1500 0.4236 m
0.1600 0.4236 l
s
n
0.1500 0.4300 m
0.1600 0.4300 l
s
n
0.1500 0.4721 m
0.1600 0.4721 l
s
n
0.1500 0.4968 m
0.1600 0.4968 l
s
n
0.1500 0.5143 m
0.1600 0.5143 l
s
n
0.1500 0.5279 m
0.1600 0.5279 l
s
n
0.1500 0.5389 m
0.1600 0.5389 l
s
n
0.1500 0.5483 m
0.1600 0.5483 l
s
n
0.1500 0.5564 m
0.1600 0.5564 l
s
n
0.1500 0.5636 m
0.1600 0.5636 l
s
n
0.1500 0.5700 m
0.1600 0.5700 l
s
n
0.1500 0.6121 m
0.1600 0.6121 l
s
n
0.1500 0.6368 m
0.1600 0.6368 l
s
n
0.1500 0.6543 m
0.1600 0.6543 l
s
n
0.1500 0.6679 m
0.1600 0.6679 l
s
n
0.1500 0.6789 m
0.1600 0.6789 l
s
n
0.1500 0.6883 m
0.1600 0.6883 l
s
n
0.1500 0.6964 m
0.1600 0.6964 l
s
n
0.1500 0.7036 m
0.1600 0.7036 l
s
n
0.1500 0.7100 m
0.1600 0.7100 l
s
n
0.1500 0.7521 m
0.1600 0.7521 l
s
n
0.1500 0.7768 m
0.1600 0.7768 l
s
n
0.1500 0.7943 m
0.1600 0.7943 l
s
n
0.1500 0.8079 m
0.1600 0.8079 l
s
n
0.1500 0.8189 m
0.1600 0.8189 l
s
n
0.1500 0.8283 m
0.1600 0.8283 l
s
n
0.1500 0.8364 m
0.1600 0.8364 l
s
n
0.1500 0.8436 m
0.1600 0.8436 l
s
n
0.1500 0.8500 m
0.1600 0.8500 l
s
n
0.1500 0.1500 m
0.1700 0.1500 l
s
n
0.1500 0.2900 m
0.1700 0.2900 l
s
n
0.1500 0.4300 m
0.1700 0.4300 l
s
n
0.1500 0.5700 m
0.1700 0.5700 l
s
n
0.1500 0.7100 m
0.1700 0.7100 l
s
n
0.1500 0.8500 m
0.1700 0.8500 l
s
/Font34 FFSF
0.0878 0.1319 m
GS
[0.0336 0.0000 0.0000 0.0336 0 0] CC
(10) show
GR
/Font34 FFSF
0.1216 0.1520 m
GS
[0.0238 0.0000 0.0000 0.0238 0 0] CC
(-5) show
GR
/Font34 FFSF
0.0871 0.2721 m
GS
[0.0336 0.0000 0.0000 0.0336 0 0] CC
(10) show
GR
/Font34 FFSF
0.1208 0.2922 m
GS
[0.0238 0.0000 0.0000 0.0238 0 0] CC
(-4) show
GR
/Font34 FFSF
0.0882 0.4121 m
GS
[0.0336 0.0000 0.0000 0.0336 0 0] CC
(10) show
GR
/Font34 FFSF
0.1220 0.4322 m
GS
[0.0238 0.0000 0.0000 0.0238 0 0] CC
(-3) show
GR
/Font34 FFSF
0.0871 0.5521 m
GS
[0.0336 0.0000 0.0000 0.0336 0 0] CC
(10) show
GR
/Font34 FFSF
0.1208 0.5722 m
GS
[0.0238 0.0000 0.0000 0.0238 0 0] CC
(-2) show
GR
/Font34 FFSF
0.0890 0.6921 m
GS
[0.0336 0.0000 0.0000 0.0336 0 0] CC
(10) show
GR
/Font34 FFSF
0.1227 0.7122 m
GS
[0.0238 0.0000 0.0000 0.0238 0 0] CC
(-1) show
GR
/Font34 FFSF
0.0949 0.8321 m
GS
[0.0336 0.0000 0.0000 0.0336 0 0] CC
(10) show
GR
/Font34 FFSF
0.1286 0.8522 m
GS
[0.0238 0.0000 0.0000 0.0238 0 0] CC
(0) show
GR
/Symbol findfont
/Font30 exch definefont pop
/Font30 FFSF
0.0578 0.4820 m
GS
[0.0000 0.0364 -0.0364 0.0000 0 0] CC
(d) show
GR
/Font34 FFSF
0.0724 0.5000 m
GS
[0.0000 0.0257 -0.0257 0.0000 0 0] CC
(Q) show
GR
n
0.1500 0.1500 m
0.1500 0.8500 l
0.6471 0.8500 l
0.6471 0.1500 l
0.1500 0.1500 l
c
s
n
0.2000 0.3000 m
0.2000 0.1721 l
0.4380 0.1721 l
0.4380 0.3000 l
c
[/DeviceRGB] SCS
Color0 SC
fill
[/DeviceRGB] SCS
Color1 SC
n
0.2000 0.3000 m
0.2000 0.1721 l
0.4380 0.1721 l
0.4380 0.3000 l
0.2000 0.3000 l
c
s
/Font30 FFSF
0.3108 0.2560 m
GS
[0.0364 0.0000 0.0000 0.0364 0 0] CC
(q) show
GR
/Font34 FFSF
0.3296 0.2414 m
GS
[0.0257 0.0000 0.0000 0.0257 0 0] CC
(s) show
GR
/Font34 FFSF
0.3398 0.2560 m
GS
[0.0364 0.0000 0.0000 0.0364 0 0] CC
( = 20) show
GR
/Font34 FFSF
0.4151 0.2778 m
GS
[0.0257 0.0000 0.0000 0.0257 0 0] CC
(o) show
GR
[/DeviceRGB] SCS
Color2 SC
[] 0 SD
0.0060 SLW
n
0.2208 0.2655 m
0.2908 0.2655 l
s
n
0.2208 0.2655 0.0100 0.0100 0 360 EARC c
fill
[] 0 SD
0.0015 SLW
n 0.2208 0.2655 0.0100 0.0100 0 360 EARC s
n
0.2908 0.2655 0.0100 0.0100 0 360 EARC c
fill
n 0.2908 0.2655 0.0100 0.0100 0 360 EARC s
/Font30 FFSF
[/DeviceRGB] SCS
Color1 SC
0.3108 0.1971 m
GS
[0.0364 0.0000 0.0000 0.0364 0 0] CC
(q) show
GR
/Font34 FFSF
0.3296 0.1825 m
GS
[0.0257 0.0000 0.0000 0.0257 0 0] CC
(s) show
GR
/Font34 FFSF
0.3398 0.1971 m
GS
[0.0364 0.0000 0.0000 0.0364 0 0] CC
( = 45) show
GR
/Font34 FFSF
0.4151 0.2189 m
GS
[0.0257 0.0000 0.0000 0.0257 0 0] CC
(o) show
GR
[/DeviceRGB] SCS
Color4 SC
[] 0 SD
0.0060 SLW
n
0.2208 0.2066 m
0.2908 0.2066 l
s
n
0.2123 0.1981 m
0.2123 0.2151 l
0.2293 0.2151 l
0.2293 0.1981 l
c
fill
[] 0 SD
0.0015 SLW
n
0.2123 0.1981 m
0.2123 0.2151 l
0.2293 0.2151 l
0.2293 0.1981 l
0.2123 0.1981 l
c
s
n
0.2823 0.1981 m
0.2823 0.2151 l
0.2993 0.2151 l
0.2993 0.1981 l
c
fill
n
0.2823 0.1981 m
0.2823 0.2151 l
0.2993 0.2151 l
0.2993 0.1981 l
0.2823 0.1981 l
c
s
[/DeviceRGB] SCS
Color1 SC
[] 0 SD
0.0060 SLW
n
0.6699 0.3795 m
0.6715 0.3946 l
0.6733 0.4100 l
0.6752 0.4247 l
0.6771 0.4400 l
0.6793 0.4561 l
0.6817 0.4715 l
0.6843 0.4869 l
0.6870 0.5022 l
0.6898 0.5169 l
0.6927 0.5323 l
0.6961 0.5484 l
0.6997 0.5638 l
0.7035 0.5791 l
0.7077 0.5945 l
0.7119 0.6095 l
0.7162 0.6242 l
0.7211 0.6393 l
0.7265 0.6546 l
0.7323 0.6700 l
0.7382 0.6847 l
0.7443 0.6994 l
0.7511 0.7147 l
0.7587 0.7301 l
0.7669 0.7455 l
0.7757 0.7609 l
0.7847 0.7760 l
0.7938 0.7907 l
0.8040 0.8056 l
0.8155 0.8210 l
0.8279 0.8364 l
0.8368 0.8465 l
s
[/DeviceRGB] SCS
Color15 SC
[0.0300 0.0180 ] 0 SD
0.0060 SLW
n
0.6741 0.1535 m
0.6763 0.1718 l
0.6785 0.1899 l
0.6810 0.2085 l
0.6837 0.2268 l
0.6867 0.2449 l
0.6899 0.2631 l
0.6931 0.2811 l
0.6968 0.2996 l
0.7007 0.3174 l
0.7050 0.3359 l
0.7096 0.3541 l
0.7146 0.3723 l
0.7200 0.3911 l
0.7256 0.4093 l
0.7319 0.4275 l
0.7385 0.4452 l
0.7458 0.4640 l
0.7537 0.4826 l
0.7619 0.5002 l
0.7711 0.5183 l
0.7806 0.5363 l
0.7913 0.5549 l
0.8029 0.5734 l
0.8154 0.5917 l
0.8289 0.6099 l
0.8435 0.6282 l
0.8586 0.6462 l
0.8755 0.6647 l
0.8938 0.6831 l
0.9128 0.7009 l
0.9341 0.7189 l
0.9571 0.7374 l
0.9820 0.7560 l
1.0077 0.7742 l
1.0366 0.7923 l
1.0665 0.8102 l
1.1001 0.8289 l
1.1349 0.8465 l
s
[/DeviceRGB] SCS
Color1 SC
[] 0 SD
0.0015 SLW
n
0.6471 0.1500 m
1.1441 0.1500 l
s
n
0.6471 0.8500 m
1.1441 0.8500 l
s
n
0.7600 0.1500 m
0.7600 0.1600 l
s
n
0.7600 0.8500 m
0.7600 0.8400 l
s
n
0.9860 0.1500 m
0.9860 0.1600 l
s
n
0.9860 0.8500 m
0.9860 0.8400 l
s
n
0.8730 0.1500 m
0.8730 0.1700 l
s
n
0.8730 0.8500 m
0.8730 0.8300 l
s
n
1.0989 0.1500 m
1.0989 0.1700 l
s
n
1.0989 0.8500 m
1.0989 0.8300 l
s
/Font34 FFSF
0.8530 0.1169 m
GS
[0.0336 0.0000 0.0000 0.0336 0 0] CC
(0.5) show
GR
/Font34 FFSF
1.0923 0.1173 m
GS
[0.0336 0.0000 0.0000 0.0336 0 0] CC
(1) show
GR
/Font34 FFSF
0.8440 0.0818 m
GS
[0.0364 0.0000 0.0000 0.0364 0 0] CC
(P [day]) show
GR
n
0.6471 0.1500 m
0.6471 0.8500 l
s
n
1.1441 0.1500 m
1.1441 0.8500 l
s
n
0.6471 0.1921 m
0.6571 0.1921 l
s
n
1.1441 0.1921 m
1.1341 0.1921 l
s
n
0.6471 0.2168 m
0.6571 0.2168 l
s
n
1.1441 0.2168 m
1.1341 0.2168 l
s
n
0.6471 0.2343 m
0.6571 0.2343 l
s
n
1.1441 0.2343 m
1.1341 0.2343 l
s
n
0.6471 0.2479 m
0.6571 0.2479 l
s
n
1.1441 0.2479 m
1.1341 0.2479 l
s
n
0.6471 0.2589 m
0.6571 0.2589 l
s
n
1.1441 0.2589 m
1.1341 0.2589 l
s
n
0.6471 0.2683 m
0.6571 0.2683 l
s
n
1.1441 0.2683 m
1.1341 0.2683 l
s
n
0.6471 0.2764 m
0.6571 0.2764 l
s
n
1.1441 0.2764 m
1.1341 0.2764 l
s
n
0.6471 0.2836 m
0.6571 0.2836 l
s
n
1.1441 0.2836 m
1.1341 0.2836 l
s
n
0.6471 0.2900 m
0.6571 0.2900 l
s
n
1.1441 0.2900 m
1.1341 0.2900 l
s
n
0.6471 0.3321 m
0.6571 0.3321 l
s
n
1.1441 0.3321 m
1.1341 0.3321 l
s
n
0.6471 0.3568 m
0.6571 0.3568 l
s
n
1.1441 0.3568 m
1.1341 0.3568 l
s
n
0.6471 0.3743 m
0.6571 0.3743 l
s
n
1.1441 0.3743 m
1.1341 0.3743 l
s
n
0.6471 0.3879 m
0.6571 0.3879 l
s
n
1.1441 0.3879 m
1.1341 0.3879 l
s
n
0.6471 0.3989 m
0.6571 0.3989 l
s
n
1.1441 0.3989 m
1.1341 0.3989 l
s
n
0.6471 0.4083 m
0.6571 0.4083 l
s
n
1.1441 0.4083 m
1.1341 0.4083 l
s
n
0.6471 0.4164 m
0.6571 0.4164 l
s
n
1.1441 0.4164 m
1.1341 0.4164 l
s
n
0.6471 0.4236 m
0.6571 0.4236 l
s
n
1.1441 0.4236 m
1.1341 0.4236 l
s
n
0.6471 0.4300 m
0.6571 0.4300 l
s
n
1.1441 0.4300 m
1.1341 0.4300 l
s
n
0.6471 0.4721 m
0.6571 0.4721 l
s
n
1.1441 0.4721 m
1.1341 0.4721 l
s
n
0.6471 0.4968 m
0.6571 0.4968 l
s
n
1.1441 0.4968 m
1.1341 0.4968 l
s
n
0.6471 0.5143 m
0.6571 0.5143 l
s
n
1.1441 0.5143 m
1.1341 0.5143 l
s
n
0.6471 0.5279 m
0.6571 0.5279 l
s
n
1.1441 0.5279 m
1.1341 0.5279 l
s
n
0.6471 0.5389 m
0.6571 0.5389 l
s
n
1.1441 0.5389 m
1.1341 0.5389 l
s
n
0.6471 0.5483 m
0.6571 0.5483 l
s
n
1.1441 0.5483 m
1.1341 0.5483 l
s
n
0.6471 0.5564 m
0.6571 0.5564 l
s
n
1.1441 0.5564 m
1.1341 0.5564 l
s
n
0.6471 0.5636 m
0.6571 0.5636 l
s
n
1.1441 0.5636 m
1.1341 0.5636 l
s
n
0.6471 0.5700 m
0.6571 0.5700 l
s
n
1.1441 0.5700 m
1.1341 0.5700 l
s
n
0.6471 0.6121 m
0.6571 0.6121 l
s
n
1.1441 0.6121 m
1.1341 0.6121 l
s
n
0.6471 0.6368 m
0.6571 0.6368 l
s
n
1.1441 0.6368 m
1.1341 0.6368 l
s
n
0.6471 0.6543 m
0.6571 0.6543 l
s
n
1.1441 0.6543 m
1.1341 0.6543 l
s
n
0.6471 0.6679 m
0.6571 0.6679 l
s
n
1.1441 0.6679 m
1.1341 0.6679 l
s
n
0.6471 0.6789 m
0.6571 0.6789 l
s
n
1.1441 0.6789 m
1.1341 0.6789 l
s
n
0.6471 0.6883 m
0.6571 0.6883 l
s
n
1.1441 0.6883 m
1.1341 0.6883 l
s
n
0.6471 0.6964 m
0.6571 0.6964 l
s
n
1.1441 0.6964 m
1.1341 0.6964 l
s
n
0.6471 0.7036 m
0.6571 0.7036 l
s
n
1.1441 0.7036 m
1.1341 0.7036 l
s
n
0.6471 0.7100 m
0.6571 0.7100 l
s
n
1.1441 0.7100 m
1.1341 0.7100 l
s
n
0.6471 0.7521 m
0.6571 0.7521 l
s
n
1.1441 0.7521 m
1.1341 0.7521 l
s
n
0.6471 0.7768 m
0.6571 0.7768 l
s
n
1.1441 0.7768 m
1.1341 0.7768 l
s
n
0.6471 0.7943 m
0.6571 0.7943 l
s
n
1.1441 0.7943 m
1.1341 0.7943 l
s
n
0.6471 0.8079 m
0.6571 0.8079 l
s
n
1.1441 0.8079 m
1.1341 0.8079 l
s
n
0.6471 0.8189 m
0.6571 0.8189 l
s
n
1.1441 0.8189 m
1.1341 0.8189 l
s
n
0.6471 0.8283 m
0.6571 0.8283 l
s
n
1.1441 0.8283 m
1.1341 0.8283 l
s
n
0.6471 0.8364 m
0.6571 0.8364 l
s
n
1.1441 0.8364 m
1.1341 0.8364 l
s
n
0.6471 0.8436 m
0.6571 0.8436 l
s
n
1.1441 0.8436 m
1.1341 0.8436 l
s
n
0.6471 0.8500 m
0.6571 0.8500 l
s
n
1.1441 0.8500 m
1.1341 0.8500 l
s
n
0.6471 0.1500 m
0.6671 0.1500 l
s
n
1.1441 0.1500 m
1.1241 0.1500 l
s
n
0.6471 0.2900 m
0.6671 0.2900 l
s
n
1.1441 0.2900 m
1.1241 0.2900 l
s
n
0.6471 0.4300 m
0.6671 0.4300 l
s
n
1.1441 0.4300 m
1.1241 0.4300 l
s
n
0.6471 0.5700 m
0.6671 0.5700 l
s
n
1.1441 0.5700 m
1.1241 0.5700 l
s
n
0.6471 0.7100 m
0.6671 0.7100 l
s
n
1.1441 0.7100 m
1.1241 0.7100 l
s
n
0.6471 0.8500 m
0.6671 0.8500 l
s
n
1.1441 0.8500 m
1.1241 0.8500 l
s
n
0.6471 0.1500 m
0.6471 0.8500 l
1.1441 0.8500 l
1.1441 0.1500 l
0.6471 0.1500 l
c
s
n
0.8000 0.3000 m
0.8000 0.2057 l
1.0853 0.2057 l
1.0853 0.3000 l
c
[/DeviceRGB] SCS
Color0 SC
fill
[/DeviceRGB] SCS
Color1 SC
n
0.8000 0.3000 m
0.8000 0.2057 l
1.0853 0.2057 l
1.0853 0.3000 l
0.8000 0.3000 l
c
s
/Font30 FFSF
0.9761 0.2657 m
GS
[0.0364 0.0000 0.0000 0.0364 0 0] CC
(g) show
GR
/Font34 FFSF
0.9910 0.2657 m
GS
[0.0364 0.0000 0.0000 0.0364 0 0] CC
( = 7/4) show
GR
[] 0 SD
0.0060 SLW
n
0.8130 0.2739 m
0.9530 0.2739 l
s
/Font30 FFSF
0.9761 0.2235 m
GS
[0.0364 0.0000 0.0000 0.0364 0 0] CC
(g) show
GR
/Font34 FFSF
0.9910 0.2235 m
GS
[0.0364 0.0000 0.0000 0.0364 0 0] CC
( = 2) show
GR
[/DeviceRGB] SCS
Color15 SC
[0.0300 0.0180 ] 0 SD
0.0060 SLW
n
0.8130 0.2318 m
0.9530 0.2318 l
s
/Font34 FFSF
[/DeviceRGB] SCS
Color1 SC
0.2700 0.8787 m
GS
[0.0280 0.0000 0.0000 0.0280 0 0] CC
(Stellar-mass BH-PSR) show
GR
/Font34 FFSF
0.7600 0.8800 m
GS
[0.0280 0.0000 0.0000 0.0280 0 0] CC
(Supermassive BH-PSR) show
GR
%%Trailer
%%BoundingBox: 17 40 702 552
%%DocumentNeededResources: font Symbol
%%+ font Times-Roman
%%EOF
