%!PS-Adobe-3.0 EPSF-3.0
%%BoundingBox: (atend)
%%LanguageLevel: 2
%%Creator: Grace-5.1.25
%%CreationDate: Sun Sep 16 13:29:16 2018
%%DocumentData: Clean8Bit
%%Orientation: Portrait
%%Title: Quadrupole_Mom_Measurability_rev2.agr
%%For: bseymour
%%DocumentNeededResources: (atend)
%%EndComments
%%BeginProlog
/m {moveto} def
/l {lineto} def
/s {stroke} def
/n {newpath} def
/c {closepath} def
/RL {rlineto} def
/SLW {setlinewidth} def
/GS {gsave} def
/GR {grestore} def
/SC {setcolor} def
/SGRY {setgray} def
/SRGB {setrgbcolor} def
/SD {setdash} def
/SLC {setlinecap} def
/SLJ {setlinejoin} def
/SCS {setcolorspace} def
/FFSF {findfont setfont} def
/CC {concat} def
/PXL {n m 0 0 RL s} def
/Color0 {1.0000 1.0000 1.0000} def
/Color1 {0.0000 0.0000 0.0000} def
/Color2 {1.0000 0.0000 0.0000} def
/Color3 {0.0000 1.0000 0.0000} def
/Color4 {0.0000 0.0000 1.0000} def
/Color5 {1.0000 1.0000 0.0000} def
/Color6 {0.7373 0.5608 0.5608} def
/Color7 {0.8627 0.8627 0.8627} def
/Color8 {0.5804 0.0000 0.8275} def
/Color9 {0.0000 1.0000 1.0000} def
/Color10 {1.0000 0.0000 1.0000} def
/Color11 {1.0000 0.6471 0.0000} def
/Color12 {0.4471 0.1294 0.7373} def
/Color13 {0.4039 0.0275 0.2824} def
/Color14 {0.2510 0.8784 0.8157} def
/Color15 {0.0000 0.5451 0.0000} def
/Color16 {0.7529 0.7529 0.7529} def
/Color17 {0.5059 0.5059 0.5059} def
/Color18 {0.2588 0.2588 0.2588} def
/PTRN {
 /pat_bits exch def 
 <<
  /PaintType 2
  /PatternType 1 /TilingType 1
  /BBox[0 0 16 16]
  /XStep 16 /YStep 16
  /PaintProc {
   pop
   16 16 true [-1 0 0 -1 16 16] pat_bits imagemask
  }
 >>
 [0.0016 0 0 0.0016 0 0]
 makepattern
} def
/Pattern0 {<0000000000000000000000000000000000000000000000000000000000000000> PTRN} bind def
/Pattern1 {<ffffffffffffffffffffffffffffffffffffffffffffffffffffffffffffffff> PTRN} bind def
/Pattern2 {<eeeeffffbbbbffffeeeeffffbbbbffffeeeeffffbbbbffffeeeeffffbbbbffff> PTRN} bind def
/Pattern3 {<eeeebbbbeeeebbbbeeeebbbbeeeebbbbeeeebbbbeeeebbbbeeeebbbbeeeebbbb> PTRN} bind def
/Pattern4 {<5555aaaa5555aaaa5555aaaa5555aaaa5555aaaa5555aaaa5555aaaa5555aaaa> PTRN} bind def
/Pattern5 {<1111444411114444111144441111444411114444111144441111444411114444> PTRN} bind def
/Pattern6 {<1111000044440000111100004444000011110000444400001111000044440000> PTRN} bind def
/Pattern7 {<1010000000000000010100000000000010100000000000000101000000000000> PTRN} bind def
/Pattern8 {<0000000000000000000000000000000000000000000000000000000000000000> PTRN} bind def
/Pattern9 {<1e1e0f0f8787c3c3e1e1f0f078783c3c1e1e0f0f8787c3c3e1e1f0f078783c3c> PTRN} bind def
/Pattern10 {<7878f0f0e1e1c3c387870f0f1e1e3c3c7878f0f0e1e1c3c387870f0f1e1e3c3c> PTRN} bind def
/Pattern11 {<3333333333333333333333333333333333333333333333333333333333333333> PTRN} bind def
/Pattern12 {<ffffffff00000000ffffffff00000000ffffffff00000000ffffffff00000000> PTRN} bind def
/Pattern13 {<8181424224241818181824244242818181814242242418181818242442428181> PTRN} bind def
/Pattern14 {<8080404020201010080804040202010180804040202010100808040402020101> PTRN} bind def
/Pattern15 {<0101020204040808101020204040808001010202040408081010202040408080> PTRN} bind def
/Pattern16 {<2222222222222222222222222222222222222222222222222222222222222222> PTRN} bind def
/Pattern17 {<0000ffff000000000000ffff000000000000ffff000000000000ffff00000000> PTRN} bind def
/Pattern18 {<2222ffff222222222222ffff222222222222ffff222222222222ffff22222222> PTRN} bind def
/Pattern19 {<ffffffff33333333ffffffff33333333ffffffff33333333ffffffff33333333> PTRN} bind def
/Pattern20 {<0f0f0f0f0f0f0f0ff0f0f0f0f0f0f0f00f0f0f0f0f0f0f0ff0f0f0f0f0f0f0f0> PTRN} bind def
/Pattern21 {<ff00ff00ff00ff00ff00ff00ff00ff0000ff00ff00ff00ff00ff00ff00ff00ff> PTRN} bind def
/Pattern22 {<8001800180018001800180018001ffffffff8001800180018001800180018001> PTRN} bind def
/Pattern23 {<c003c003c003c003c003c003ffffffffffffffffc003c003c003c003c003c003> PTRN} bind def
/Pattern24 {<040404040404ffff404040404040ffff040404040404ffff404040404040ffff> PTRN} bind def
/Pattern25 {<180018001800180018001800ffffffff001800180018001800180018ffffffff> PTRN} bind def
/Pattern26 {<1111b8b87c7c3a3a1111a3a3c7c78b8b1111b8b87c7c3a3a1111a3a3c7c78b8b> PTRN} bind def
/Pattern27 {<101010102828c7c70101010182827c7c101010102828c7c70101010182827c7c> PTRN} bind def
/Pattern28 {<1c1c121211112121c1c12121111112121c1c121211112121c1c1212111111212> PTRN} bind def
/Pattern29 {<3e3e414180808080e3e31414080808083e3e414180808080e3e3141408080808> PTRN} bind def
/Pattern30 {<4848888884848383848488884848383848488888848483838484888848483838> PTRN} bind def
/Pattern31 {<03030404080808080c0c12122121c0c003030404080808080c0c12122121c0c0> PTRN} bind def
/ellipsedict 8 dict def
ellipsedict /mtrx matrix put
/EARC {
 ellipsedict begin
  /endangle exch def
  /startangle exch def
  /yrad exch def
  /xrad exch def
  /y exch def
  /x exch def
  /savematrix mtrx currentmatrix def
  x y translate
  xrad yrad scale
  0 0 1 startangle endangle arc
  savematrix setmatrix
 end
} def
/TL {
  /kcomp exch def
  /linewidth exch def
  /offset exch def
  GS
  0 offset rmoveto
  linewidth SLW
  dup stringwidth exch kcomp add exch RL s
  GR
} def
/KINIT
{
 /kvector exch def
 /kid 0 def
} def
/KPROC
{
 pop pop
 kvector kid get
 0 rmoveto
 /kid 1 kid add def
} def
/DefEncoding [
 /.notdef
 /.notdef
 /.notdef
 /.notdef
 /.notdef
 /.notdef
 /.notdef
 /.notdef
 /.notdef
 /.notdef
 /.notdef
 /.notdef
 /.notdef
 /.notdef
 /.notdef
 /.notdef
 /.notdef
 /.notdef
 /.notdef
 /.notdef
 /.notdef
 /.notdef
 /.notdef
 /.notdef
 /.notdef
 /.notdef
 /.notdef
 /.notdef
 /.notdef
 /.notdef
 /.notdef
 /.notdef
 /space
 /exclam
 /quotedbl
 /numbersign
 /dollar
 /percent
 /ampersand
 /quoteright
 /parenleft
 /parenright
 /asterisk
 /plus
 /comma
 /hyphen
 /period
 /slash
 /zero
 /one
 /two
 /three
 /four
 /five
 /six
 /seven
 /eight
 /nine
 /colon
 /semicolon
 /less
 /equal
 /greater
 /question
 /at
 /A
 /B
 /C
 /D
 /E
 /F
 /G
 /H
 /I
 /J
 /K
 /L
 /M
 /N
 /O
 /P
 /Q
 /R
 /S
 /T
 /U
 /V
 /W
 /X
 /Y
 /Z
 /bracketleft
 /backslash
 /bracketright
 /asciicircum
 /underscore
 /grave
 /a
 /b
 /c
 /d
 /e
 /f
 /g
 /h
 /i
 /j
 /k
 /l
 /m
 /n
 /o
 /p
 /q
 /r
 /s
 /t
 /u
 /v
 /w
 /x
 /y
 /z
 /braceleft
 /bar
 /braceright
 /asciitilde
 /.notdef
 /.notdef
 /.notdef
 /.notdef
 /.notdef
 /.notdef
 /.notdef
 /.notdef
 /.notdef
 /.notdef
 /.notdef
 /.notdef
 /.notdef
 /.notdef
 /.notdef
 /.notdef
 /.notdef
 /.notdef
 /.notdef
 /.notdef
 /.notdef
 /.notdef
 /.notdef
 /.notdef
 /.notdef
 /.notdef
 /.notdef
 /.notdef
 /.notdef
 /.notdef
 /.notdef
 /.notdef
 /.notdef
 /space
 /exclamdown
 /cent
 /sterling
 /currency
 /yen
 /brokenbar
 /section
 /dieresis
 /copyright
 /ordfeminine
 /guillemotleft
 /logicalnot
 /hyphen
 /registered
 /macron
 /degree
 /plusminus
 /twosuperior
 /threesuperior
 /acute
 /mu
 /paragraph
 /periodcentered
 /cedilla
 /onesuperior
 /ordmasculine
 /guillemotright
 /onequarter
 /onehalf
 /threequarters
 /questiondown
 /Agrave
 /Aacute
 /Acircumflex
 /Atilde
 /Adieresis
 /Aring
 /AE
 /Ccedilla
 /Egrave
 /Eacute
 /Ecircumflex
 /Edieresis
 /Igrave
 /Iacute
 /Icircumflex
 /Idieresis
 /Eth
 /Ntilde
 /Ograve
 /Oacute
 /Ocircumflex
 /Otilde
 /Odieresis
 /multiply
 /Oslash
 /Ugrave
 /Uacute
 /Ucircumflex
 /Udieresis
 /Yacute
 /Thorn
 /germandbls
 /agrave
 /aacute
 /acircumflex
 /atilde
 /adieresis
 /aring
 /ae
 /ccedilla
 /egrave
 /eacute
 /ecircumflex
 /edieresis
 /igrave
 /iacute
 /icircumflex
 /idieresis
 /eth
 /ntilde
 /ograve
 /oacute
 /ocircumflex
 /otilde
 /odieresis
 /divide
 /oslash
 /ugrave
 /uacute
 /ucircumflex
 /udieresis
 /yacute
 /thorn
 /ydieresis
] def
%%EndProlog
%%BeginSetup
%%EndSetup
612.00 612.00 scale
n
0.0000 0.0000 m
0.0000 1.0000 l
1.2941 1.0000 l
1.2941 0.0000 l
c
[/DeviceRGB] SCS
Color0 SC
fill
[/DeviceRGB] SCS
Color2 SC
[] 0 SD
0.0060 SLW
0 SLC
0 SLJ
n
0.5945 0.2798 m
0.6493 0.2710 l
0.7042 0.2629 l
0.7600 0.2555 l
0.8167 0.2492 l
0.8715 0.2433 l
0.9273 0.2378 l
0.9822 0.2328 l
1.0380 0.2280 l
1.0928 0.2238 l
s
n
0.5945 0.2798 0.0100 0.0100 0 360 EARC c
fill
[] 0 SD
0.0015 SLW
n 0.5945 0.2798 0.0100 0.0100 0 360 EARC s
n
0.6493 0.2710 0.0100 0.0100 0 360 EARC c
fill
n 0.6493 0.2710 0.0100 0.0100 0 360 EARC s
n
0.7042 0.2629 0.0100 0.0100 0 360 EARC c
fill
n 0.7042 0.2629 0.0100 0.0100 0 360 EARC s
n
0.7600 0.2555 0.0100 0.0100 0 360 EARC c
fill
n 0.7600 0.2555 0.0100 0.0100 0 360 EARC s
n
0.8167 0.2492 0.0100 0.0100 0 360 EARC c
fill
n 0.8167 0.2492 0.0100 0.0100 0 360 EARC s
n
0.8715 0.2433 0.0100 0.0100 0 360 EARC c
fill
n 0.8715 0.2433 0.0100 0.0100 0 360 EARC s
n
0.9273 0.2378 0.0100 0.0100 0 360 EARC c
fill
n 0.9273 0.2378 0.0100 0.0100 0 360 EARC s
n
0.9822 0.2328 0.0100 0.0100 0 360 EARC c
fill
n 0.9822 0.2328 0.0100 0.0100 0 360 EARC s
n
1.0380 0.2280 0.0100 0.0100 0 360 EARC c
fill
n 1.0380 0.2280 0.0100 0.0100 0 360 EARC s
n
1.0928 0.2238 0.0100 0.0100 0 360 EARC c
fill
n 1.0928 0.2238 0.0100 0.0100 0 360 EARC s
[/DeviceRGB] SCS
Color4 SC
[] 0 SD
0.0060 SLW
n
0.1501 0.2761 m
0.2059 0.2628 l
0.2616 0.2510 l
0.3174 0.2412 l
0.3723 0.2328 l
0.4281 0.2256 l
0.4829 0.2194 l
0.5387 0.2141 l
0.5945 0.2091 l
0.6493 0.2048 l
0.7051 0.2009 l
0.7609 0.1974 l
0.8167 0.1943 l
0.8715 0.1914 l
0.9264 0.1888 l
0.9822 0.1863 l
1.0389 0.1842 l
1.0928 0.1821 l
s
n
0.1416 0.2676 m
0.1416 0.2846 l
0.1586 0.2846 l
0.1586 0.2676 l
c
fill
[] 0 SD
0.0015 SLW
n
0.1416 0.2676 m
0.1416 0.2846 l
0.1586 0.2846 l
0.1586 0.2676 l
0.1416 0.2676 l
c
s
n
0.1974 0.2543 m
0.1974 0.2713 l
0.2144 0.2713 l
0.2144 0.2543 l
c
fill
n
0.1974 0.2543 m
0.1974 0.2713 l
0.2144 0.2713 l
0.2144 0.2543 l
0.1974 0.2543 l
c
s
n
0.2531 0.2425 m
0.2531 0.2595 l
0.2701 0.2595 l
0.2701 0.2425 l
c
fill
n
0.2531 0.2425 m
0.2531 0.2595 l
0.2701 0.2595 l
0.2701 0.2425 l
0.2531 0.2425 l
c
s
n
0.3089 0.2327 m
0.3089 0.2497 l
0.3259 0.2497 l
0.3259 0.2327 l
c
fill
n
0.3089 0.2327 m
0.3089 0.2497 l
0.3259 0.2497 l
0.3259 0.2327 l
0.3089 0.2327 l
c
s
n
0.3638 0.2243 m
0.3638 0.2413 l
0.3808 0.2413 l
0.3808 0.2243 l
c
fill
n
0.3638 0.2243 m
0.3638 0.2413 l
0.3808 0.2413 l
0.3808 0.2243 l
0.3638 0.2243 l
c
s
n
0.4196 0.2171 m
0.4196 0.2341 l
0.4366 0.2341 l
0.4366 0.2171 l
c
fill
n
0.4196 0.2171 m
0.4196 0.2341 l
0.4366 0.2341 l
0.4366 0.2171 l
0.4196 0.2171 l
c
s
n
0.4744 0.2109 m
0.4744 0.2279 l
0.4914 0.2279 l
0.4914 0.2109 l
c
fill
n
0.4744 0.2109 m
0.4744 0.2279 l
0.4914 0.2279 l
0.4914 0.2109 l
0.4744 0.2109 l
c
s
n
0.5302 0.2056 m
0.5302 0.2226 l
0.5472 0.2226 l
0.5472 0.2056 l
c
fill
n
0.5302 0.2056 m
0.5302 0.2226 l
0.5472 0.2226 l
0.5472 0.2056 l
0.5302 0.2056 l
c
s
n
0.5860 0.2006 m
0.5860 0.2176 l
0.6030 0.2176 l
0.6030 0.2006 l
c
fill
n
0.5860 0.2006 m
0.5860 0.2176 l
0.6030 0.2176 l
0.6030 0.2006 l
0.5860 0.2006 l
c
s
n
0.6408 0.1963 m
0.6408 0.2133 l
0.6578 0.2133 l
0.6578 0.1963 l
c
fill
n
0.6408 0.1963 m
0.6408 0.2133 l
0.6578 0.2133 l
0.6578 0.1963 l
0.6408 0.1963 l
c
s
n
0.6966 0.1924 m
0.6966 0.2094 l
0.7136 0.2094 l
0.7136 0.1924 l
c
fill
n
0.6966 0.1924 m
0.6966 0.2094 l
0.7136 0.2094 l
0.7136 0.1924 l
0.6966 0.1924 l
c
s
n
0.7524 0.1889 m
0.7524 0.2059 l
0.7694 0.2059 l
0.7694 0.1889 l
c
fill
n
0.7524 0.1889 m
0.7524 0.2059 l
0.7694 0.2059 l
0.7694 0.1889 l
0.7524 0.1889 l
c
s
n
0.8082 0.1858 m
0.8082 0.2028 l
0.8252 0.2028 l
0.8252 0.1858 l
c
fill
n
0.8082 0.1858 m
0.8082 0.2028 l
0.8252 0.2028 l
0.8252 0.1858 l
0.8082 0.1858 l
c
s
n
0.8630 0.1829 m
0.8630 0.1999 l
0.8800 0.1999 l
0.8800 0.1829 l
c
fill
n
0.8630 0.1829 m
0.8630 0.1999 l
0.8800 0.1999 l
0.8800 0.1829 l
0.8630 0.1829 l
c
s
n
0.9179 0.1803 m
0.9179 0.1973 l
0.9349 0.1973 l
0.9349 0.1803 l
c
fill
n
0.9179 0.1803 m
0.9179 0.1973 l
0.9349 0.1973 l
0.9349 0.1803 l
0.9179 0.1803 l
c
s
n
0.9737 0.1778 m
0.9737 0.1948 l
0.9907 0.1948 l
0.9907 0.1778 l
c
fill
n
0.9737 0.1778 m
0.9737 0.1948 l
0.9907 0.1948 l
0.9907 0.1778 l
0.9737 0.1778 l
c
s
n
1.0304 0.1757 m
1.0304 0.1927 l
1.0474 0.1927 l
1.0474 0.1757 l
c
fill
n
1.0304 0.1757 m
1.0304 0.1927 l
1.0474 0.1927 l
1.0474 0.1757 l
1.0304 0.1757 l
c
s
n
1.0843 0.1736 m
1.0843 0.1906 l
1.1013 0.1906 l
1.1013 0.1736 l
c
fill
n
1.0843 0.1736 m
1.0843 0.1906 l
1.1013 0.1906 l
1.1013 0.1736 l
1.0843 0.1736 l
c
s
[/DeviceRGB] SCS
Color15 SC
[0.0300 0.0180 ] 0 SD
0.0060 SLW
n
0.1500 0.7848 m
1.1450 0.7848 l
s
[/DeviceRGB] SCS
Color10 SC
[0.0060 0.0180 0.0300 0.0180 ] 0 SD
0.0060 SLW
n
0.1500 0.2012 m
1.1450 0.2012 l
s
[/DeviceRGB] SCS
Color1 SC
[] 0 SD
0.0015 SLW
n
0.1500 0.1500 m
1.1450 0.1500 l
s
n
0.1500 0.8500 m
1.1450 0.8500 l
s
n
0.1500 0.1500 m
0.1500 0.1600 l
s
n
0.1500 0.8500 m
0.1500 0.8400 l
s
n
0.3711 0.1500 m
0.3711 0.1600 l
s
n
0.3711 0.8500 m
0.3711 0.8400 l
s
n
0.5922 0.1500 m
0.5922 0.1600 l
s
n
0.5922 0.8500 m
0.5922 0.8400 l
s
n
0.8133 0.1500 m
0.8133 0.1600 l
s
n
0.8133 0.8500 m
0.8133 0.8400 l
s
n
1.0344 0.1500 m
1.0344 0.1600 l
s
n
1.0344 0.8500 m
1.0344 0.8400 l
s
n
0.2606 0.1500 m
0.2606 0.1700 l
s
n
0.2606 0.8500 m
0.2606 0.8300 l
s
n
0.4817 0.1500 m
0.4817 0.1700 l
s
n
0.4817 0.8500 m
0.4817 0.8300 l
s
n
0.7028 0.1500 m
0.7028 0.1700 l
s
n
0.7028 0.8500 m
0.7028 0.8300 l
s
n
0.9239 0.1500 m
0.9239 0.1700 l
s
n
0.9239 0.8500 m
0.9239 0.8300 l
s
n
1.1450 0.1500 m
1.1450 0.1700 l
s
n
1.1450 0.8500 m
1.1450 0.8300 l
s
/Times-Roman findfont
dup length dict begin
 {1 index /FID ne {def} {pop pop} ifelse} forall
 /Encoding DefEncoding def
 currentdict
end
/Font34 exch definefont pop
/Font34 FFSF
0.2441 0.1173 m
GS
[0.0336 0.0000 0.0000 0.0336 0 0] CC
(40) show
GR
/Font34 FFSF
0.4652 0.1169 m
GS
[0.0336 0.0000 0.0000 0.0336 0 0] CC
(50) show
GR
/Font34 FFSF
0.6863 0.1169 m
GS
[0.0336 0.0000 0.0000 0.0336 0 0] CC
(60) show
GR
/Font34 FFSF
0.9074 0.1173 m
GS
[0.0336 0.0000 0.0000 0.0336 0 0] CC
(70) show
GR
/Font34 FFSF
1.1285 0.1173 m
GS
[0.0336 0.0000 0.0000 0.0336 0 0] CC
(80) show
GR
/Font34 FFSF
0.5750 0.0825 m
GS
[0.0364 0.0000 0.0000 0.0364 0 0] CC
(m) show
GR
/Font34 FFSF
0.6032 0.0680 m
GS
[0.0257 0.0000 0.0000 0.0257 0 0] CC
(BH) show
GR
/Font34 FFSF
0.6389 0.0825 m
GS
[0.0364 0.0000 0.0000 0.0364 0 0] CC
( [M) show
GR
/Font34 FFSF
0.6926 0.0680 m
GS
[0.0257 0.0000 0.0000 0.0257 0 0] CC
(O) show
GR
/Font34 FFSF
0.7110 0.0825 m
GS
[0.0364 0.0000 0.0000 0.0364 0 0] CC
(]) show
GR
/Font34 FFSF
0.6973 0.0745 m
GS
[0.0364 0.0000 0.0000 0.0364 0 0] CC
(.) show
GR
n
0.1500 0.1500 m
0.1500 0.8500 l
s
n
0.1500 0.1571 m
0.1600 0.1571 l
s
n
0.1500 0.1712 m
0.1600 0.1712 l
s
n
0.1500 0.1854 m
0.1600 0.1854 l
s
n
0.1500 0.1995 m
0.1600 0.1995 l
s
n
0.1500 0.2278 m
0.1600 0.2278 l
s
n
0.1500 0.2419 m
0.1600 0.2419 l
s
n
0.1500 0.2561 m
0.1600 0.2561 l
s
n
0.1500 0.2702 m
0.1600 0.2702 l
s
n
0.1500 0.2985 m
0.1600 0.2985 l
s
n
0.1500 0.3126 m
0.1600 0.3126 l
s
n
0.1500 0.3268 m
0.1600 0.3268 l
s
n
0.1500 0.3409 m
0.1600 0.3409 l
s
n
0.1500 0.3692 m
0.1600 0.3692 l
s
n
0.1500 0.3833 m
0.1600 0.3833 l
s
n
0.1500 0.3975 m
0.1600 0.3975 l
s
n
0.1500 0.4116 m
0.1600 0.4116 l
s
n
0.1500 0.4399 m
0.1600 0.4399 l
s
n
0.1500 0.4540 m
0.1600 0.4540 l
s
n
0.1500 0.4682 m
0.1600 0.4682 l
s
n
0.1500 0.4823 m
0.1600 0.4823 l
s
n
0.1500 0.5106 m
0.1600 0.5106 l
s
n
0.1500 0.5247 m
0.1600 0.5247 l
s
n
0.1500 0.5389 m
0.1600 0.5389 l
s
n
0.1500 0.5530 m
0.1600 0.5530 l
s
n
0.1500 0.5813 m
0.1600 0.5813 l
s
n
0.1500 0.5955 m
0.1600 0.5955 l
s
n
0.1500 0.6096 m
0.1600 0.6096 l
s
n
0.1500 0.6237 m
0.1600 0.6237 l
s
n
0.1500 0.6520 m
0.1600 0.6520 l
s
n
0.1500 0.6662 m
0.1600 0.6662 l
s
n
0.1500 0.6803 m
0.1600 0.6803 l
s
n
0.1500 0.6944 m
0.1600 0.6944 l
s
n
0.1500 0.7227 m
0.1600 0.7227 l
s
n
0.1500 0.7369 m
0.1600 0.7369 l
s
n
0.1500 0.7510 m
0.1600 0.7510 l
s
n
0.1500 0.7652 m
0.1600 0.7652 l
s
n
0.1500 0.7934 m
0.1600 0.7934 l
s
n
0.1500 0.8076 m
0.1600 0.8076 l
s
n
0.1500 0.8217 m
0.1600 0.8217 l
s
n
0.1500 0.8359 m
0.1600 0.8359 l
s
n
0.1500 0.2136 m
0.1700 0.2136 l
s
n
0.1500 0.2843 m
0.1700 0.2843 l
s
n
0.1500 0.3551 m
0.1700 0.3551 l
s
n
0.1500 0.4258 m
0.1700 0.4258 l
s
n
0.1500 0.4965 m
0.1700 0.4965 l
s
n
0.1500 0.5672 m
0.1700 0.5672 l
s
n
0.1500 0.6379 m
0.1700 0.6379 l
s
n
0.1500 0.7086 m
0.1700 0.7086 l
s
n
0.1500 0.7793 m
0.1700 0.7793 l
s
n
0.1500 0.8500 m
0.1700 0.8500 l
s
/Font34 FFSF
0.1016 0.2025 m
GS
[0.0336 0.0000 0.0000 0.0336 0 0] CC
(0.1) show
GR
/Font34 FFSF
0.0988 0.2732 m
GS
[0.0336 0.0000 0.0000 0.0336 0 0] CC
(0.2) show
GR
/Font34 FFSF
0.1004 0.3439 m
GS
[0.0336 0.0000 0.0000 0.0336 0 0] CC
(0.3) show
GR
/Font34 FFSF
0.0992 0.4146 m
GS
[0.0336 0.0000 0.0000 0.0336 0 0] CC
(0.4) show
GR
/Font34 FFSF
0.1000 0.4851 m
GS
[0.0336 0.0000 0.0000 0.0336 0 0] CC
(0.5) show
GR
/Font34 FFSF
0.0992 0.5558 m
GS
[0.0336 0.0000 0.0000 0.0336 0 0] CC
(0.6) show
GR
/Font34 FFSF
0.1000 0.6267 m
GS
[0.0336 0.0000 0.0000 0.0336 0 0] CC
(0.7) show
GR
/Font34 FFSF
0.1000 0.6974 m
GS
[0.0336 0.0000 0.0000 0.0336 0 0] CC
(0.8) show
GR
/Font34 FFSF
0.0996 0.7683 m
GS
[0.0336 0.0000 0.0000 0.0336 0 0] CC
(0.9) show
GR
/Font34 FFSF
0.0988 0.8388 m
GS
[0.0336 0.0000 0.0000 0.0336 0 0] CC
(1.0) show
GR
/Symbol findfont
/Font30 exch definefont pop
/Font30 FFSF
0.0696 0.4820 m
GS
[0.0000 0.0364 -0.0364 0.0000 0 0] CC
(d) show
GR
/Font34 FFSF
0.0841 0.5000 m
GS
[0.0000 0.0257 -0.0257 0.0000 0 0] CC
(Q) show
GR
n
0.1500 0.1500 m
0.1500 0.8500 l
1.1450 0.8500 l
1.1450 0.1500 l
0.1500 0.1500 l
c
s
n
0.5300 0.6000 m
0.5300 0.3862 l
1.1358 0.3862 l
1.1358 0.6000 l
c
[/DeviceRGB] SCS
Color0 SC
fill
[/DeviceRGB] SCS
Color1 SC
n
0.5300 0.6000 m
0.5300 0.3862 l
1.1358 0.3862 l
1.1358 0.6000 l
0.5300 0.6000 l
c
s
/Font34 FFSF
0.6608 0.5560 m
GS
[0.0364 0.0000 0.0000 0.0364 0 0] CC
(Stellar-mass BH-PSR \() show
GR
/Font30 FFSF
0.9984 0.5560 m
GS
[0.0364 0.0000 0.0000 0.0364 0 0] CC
(q) show
GR
/Font34 FFSF
1.0172 0.5414 m
GS
[0.0257 0.0000 0.0000 0.0257 0 0] CC
(s) show
GR
/Font34 FFSF
1.0274 0.5560 m
GS
[0.0364 0.0000 0.0000 0.0364 0 0] CC
( = 20) show
GR
/Font34 FFSF
1.1027 0.5778 m
GS
[0.0257 0.0000 0.0000 0.0257 0 0] CC
(o) show
GR
/Font34 FFSF
1.1157 0.5560 m
GS
[0.0364 0.0000 0.0000 0.0364 0 0] CC
(\) ) show
GR
[/DeviceRGB] SCS
Color2 SC
[] 0 SD
0.0060 SLW
n
0.5508 0.5655 m
0.6408 0.5655 l
s
n
0.5508 0.5655 0.0100 0.0100 0 360 EARC c
fill
[] 0 SD
0.0015 SLW
n 0.5508 0.5655 0.0100 0.0100 0 360 EARC s
n
0.6408 0.5655 0.0100 0.0100 0 360 EARC c
fill
n 0.6408 0.5655 0.0100 0.0100 0 360 EARC s
/Font34 FFSF
[/DeviceRGB] SCS
Color1 SC
0.6608 0.4971 m
GS
[0.0364 0.0000 0.0000 0.0364 0 0] CC
(Stellar-mass BH-PSR \() show
GR
/Font30 FFSF
0.9984 0.4971 m
GS
[0.0364 0.0000 0.0000 0.0364 0 0] CC
(q) show
GR
/Font34 FFSF
1.0172 0.4825 m
GS
[0.0257 0.0000 0.0000 0.0257 0 0] CC
(s) show
GR
/Font34 FFSF
1.0274 0.4971 m
GS
[0.0364 0.0000 0.0000 0.0364 0 0] CC
( = 45) show
GR
/Font34 FFSF
1.1027 0.5189 m
GS
[0.0257 0.0000 0.0000 0.0257 0 0] CC
(o) show
GR
/Font34 FFSF
1.1157 0.4971 m
GS
[0.0364 0.0000 0.0000 0.0364 0 0] CC
(\)) show
GR
[/DeviceRGB] SCS
Color4 SC
[] 0 SD
0.0060 SLW
n
0.5508 0.5066 m
0.6408 0.5066 l
s
n
0.5423 0.4981 m
0.5423 0.5151 l
0.5593 0.5151 l
0.5593 0.4981 l
c
fill
[] 0 SD
0.0015 SLW
n
0.5423 0.4981 m
0.5423 0.5151 l
0.5593 0.5151 l
0.5593 0.4981 l
0.5423 0.4981 l
c
s
n
0.6323 0.4981 m
0.6323 0.5151 l
0.6492 0.5151 l
0.6492 0.4981 l
c
fill
n
0.6323 0.4981 m
0.6323 0.5151 l
0.6492 0.5151 l
0.6492 0.4981 l
0.6323 0.4981 l
c
s
/Font34 FFSF
[/DeviceRGB] SCS
Color1 SC
0.6608 0.4474 m
GS
[0.0364 0.0000 0.0000 0.0364 0 0] CC
(Sgr A*-PSR \(Periapsis Only\)) show
GR
[/DeviceRGB] SCS
Color15 SC
[0.0300 0.0180 ] 0 SD
0.0060 SLW
n
0.5508 0.4556 m
0.6408 0.4556 l
s
/Font34 FFSF
[/DeviceRGB] SCS
Color1 SC
0.6608 0.4045 m
GS
[0.0364 0.0000 0.0000 0.0364 0 0] CC
(Sgr A*-PSR \(Full Orbit\)) show
GR
[/DeviceRGB] SCS
Color10 SC
[0.0060 0.0180 0.0300 0.0180 ] 0 SD
0.0060 SLW
n
0.5508 0.4127 m
0.6408 0.4127 l
s
%%Trailer
%%BoundingBox: 25 40 712 529
%%DocumentNeededResources: font Symbol
%%+ font Times-Roman
%%EOF
