%!PS-Adobe-3.0 EPSF-3.0
%%BoundingBox: (atend)
%%LanguageLevel: 2
%%Creator: Grace-5.1.25
%%CreationDate: Tue Oct  9 08:16:20 2018
%%DocumentData: Clean8Bit
%%Orientation: Portrait
%%Title: Varying_Gravitational_Constant.agr
%%For: brian
%%DocumentNeededResources: (atend)
%%EndComments
%%BeginProlog
/m {moveto} def
/l {lineto} def
/s {stroke} def
/n {newpath} def
/c {closepath} def
/RL {rlineto} def
/SLW {setlinewidth} def
/GS {gsave} def
/GR {grestore} def
/SC {setcolor} def
/SGRY {setgray} def
/SRGB {setrgbcolor} def
/SD {setdash} def
/SLC {setlinecap} def
/SLJ {setlinejoin} def
/SCS {setcolorspace} def
/FFSF {findfont setfont} def
/CC {concat} def
/PXL {n m 0 0 RL s} def
/Color0 {1.0000 1.0000 1.0000} def
/Color1 {0.0000 0.0000 0.0000} def
/Color2 {1.0000 0.0000 0.0000} def
/Color3 {0.0000 1.0000 0.0000} def
/Color4 {0.0000 0.0000 1.0000} def
/Color5 {1.0000 1.0000 0.0000} def
/Color6 {0.7373 0.5608 0.5608} def
/Color7 {0.8627 0.8627 0.8627} def
/Color8 {0.5804 0.0000 0.8275} def
/Color9 {0.0000 1.0000 1.0000} def
/Color10 {1.0000 0.0000 1.0000} def
/Color11 {1.0000 0.6471 0.0000} def
/Color12 {0.4471 0.1294 0.7373} def
/Color13 {0.4039 0.0275 0.2824} def
/Color14 {0.2510 0.8784 0.8157} def
/Color15 {0.0000 0.5451 0.0000} def
/Color16 {0.7529 0.7529 0.7529} def
/Color17 {0.5059 0.5059 0.5059} def
/Color18 {0.2588 0.2588 0.2588} def
/PTRN {
 /pat_bits exch def 
 <<
  /PaintType 2
  /PatternType 1 /TilingType 1
  /BBox[0 0 16 16]
  /XStep 16 /YStep 16
  /PaintProc {
   pop
   16 16 true [-1 0 0 -1 16 16] pat_bits imagemask
  }
 >>
 [0.0016 0 0 0.0016 0 0]
 makepattern
} def
/Pattern0 {<0000000000000000000000000000000000000000000000000000000000000000> PTRN} bind def
/Pattern1 {<ffffffffffffffffffffffffffffffffffffffffffffffffffffffffffffffff> PTRN} bind def
/Pattern2 {<eeeeffffbbbbffffeeeeffffbbbbffffeeeeffffbbbbffffeeeeffffbbbbffff> PTRN} bind def
/Pattern3 {<eeeebbbbeeeebbbbeeeebbbbeeeebbbbeeeebbbbeeeebbbbeeeebbbbeeeebbbb> PTRN} bind def
/Pattern4 {<5555aaaa5555aaaa5555aaaa5555aaaa5555aaaa5555aaaa5555aaaa5555aaaa> PTRN} bind def
/Pattern5 {<1111444411114444111144441111444411114444111144441111444411114444> PTRN} bind def
/Pattern6 {<1111000044440000111100004444000011110000444400001111000044440000> PTRN} bind def
/Pattern7 {<1010000000000000010100000000000010100000000000000101000000000000> PTRN} bind def
/Pattern8 {<0000000000000000000000000000000000000000000000000000000000000000> PTRN} bind def
/Pattern9 {<1e1e0f0f8787c3c3e1e1f0f078783c3c1e1e0f0f8787c3c3e1e1f0f078783c3c> PTRN} bind def
/Pattern10 {<7878f0f0e1e1c3c387870f0f1e1e3c3c7878f0f0e1e1c3c387870f0f1e1e3c3c> PTRN} bind def
/Pattern11 {<3333333333333333333333333333333333333333333333333333333333333333> PTRN} bind def
/Pattern12 {<ffffffff00000000ffffffff00000000ffffffff00000000ffffffff00000000> PTRN} bind def
/Pattern13 {<8181424224241818181824244242818181814242242418181818242442428181> PTRN} bind def
/Pattern14 {<8080404020201010080804040202010180804040202010100808040402020101> PTRN} bind def
/Pattern15 {<0101020204040808101020204040808001010202040408081010202040408080> PTRN} bind def
/Pattern16 {<2222222222222222222222222222222222222222222222222222222222222222> PTRN} bind def
/Pattern17 {<0000ffff000000000000ffff000000000000ffff000000000000ffff00000000> PTRN} bind def
/Pattern18 {<2222ffff222222222222ffff222222222222ffff222222222222ffff22222222> PTRN} bind def
/Pattern19 {<ffffffff33333333ffffffff33333333ffffffff33333333ffffffff33333333> PTRN} bind def
/Pattern20 {<0f0f0f0f0f0f0f0ff0f0f0f0f0f0f0f00f0f0f0f0f0f0f0ff0f0f0f0f0f0f0f0> PTRN} bind def
/Pattern21 {<ff00ff00ff00ff00ff00ff00ff00ff0000ff00ff00ff00ff00ff00ff00ff00ff> PTRN} bind def
/Pattern22 {<8001800180018001800180018001ffffffff8001800180018001800180018001> PTRN} bind def
/Pattern23 {<c003c003c003c003c003c003ffffffffffffffffc003c003c003c003c003c003> PTRN} bind def
/Pattern24 {<040404040404ffff404040404040ffff040404040404ffff404040404040ffff> PTRN} bind def
/Pattern25 {<180018001800180018001800ffffffff001800180018001800180018ffffffff> PTRN} bind def
/Pattern26 {<1111b8b87c7c3a3a1111a3a3c7c78b8b1111b8b87c7c3a3a1111a3a3c7c78b8b> PTRN} bind def
/Pattern27 {<101010102828c7c70101010182827c7c101010102828c7c70101010182827c7c> PTRN} bind def
/Pattern28 {<1c1c121211112121c1c12121111112121c1c121211112121c1c1212111111212> PTRN} bind def
/Pattern29 {<3e3e414180808080e3e31414080808083e3e414180808080e3e3141408080808> PTRN} bind def
/Pattern30 {<4848888884848383848488884848383848488888848483838484888848483838> PTRN} bind def
/Pattern31 {<03030404080808080c0c12122121c0c003030404080808080c0c12122121c0c0> PTRN} bind def
/ellipsedict 8 dict def
ellipsedict /mtrx matrix put
/EARC {
 ellipsedict begin
  /endangle exch def
  /startangle exch def
  /yrad exch def
  /xrad exch def
  /y exch def
  /x exch def
  /savematrix mtrx currentmatrix def
  x y translate
  xrad yrad scale
  0 0 1 startangle endangle arc
  savematrix setmatrix
 end
} def
/TL {
  /kcomp exch def
  /linewidth exch def
  /offset exch def
  GS
  0 offset rmoveto
  linewidth SLW
  dup stringwidth exch kcomp add exch RL s
  GR
} def
/KINIT
{
 /kvector exch def
 /kid 0 def
} def
/KPROC
{
 pop pop
 kvector kid get
 0 rmoveto
 /kid 1 kid add def
} def
/DefEncoding [
 /.notdef
 /.notdef
 /.notdef
 /.notdef
 /.notdef
 /.notdef
 /.notdef
 /.notdef
 /.notdef
 /.notdef
 /.notdef
 /.notdef
 /.notdef
 /.notdef
 /.notdef
 /.notdef
 /.notdef
 /.notdef
 /.notdef
 /.notdef
 /.notdef
 /.notdef
 /.notdef
 /.notdef
 /.notdef
 /.notdef
 /.notdef
 /.notdef
 /.notdef
 /.notdef
 /.notdef
 /.notdef
 /space
 /exclam
 /quotedbl
 /numbersign
 /dollar
 /percent
 /ampersand
 /quoteright
 /parenleft
 /parenright
 /asterisk
 /plus
 /comma
 /hyphen
 /period
 /slash
 /zero
 /one
 /two
 /three
 /four
 /five
 /six
 /seven
 /eight
 /nine
 /colon
 /semicolon
 /less
 /equal
 /greater
 /question
 /at
 /A
 /B
 /C
 /D
 /E
 /F
 /G
 /H
 /I
 /J
 /K
 /L
 /M
 /N
 /O
 /P
 /Q
 /R
 /S
 /T
 /U
 /V
 /W
 /X
 /Y
 /Z
 /bracketleft
 /backslash
 /bracketright
 /asciicircum
 /underscore
 /grave
 /a
 /b
 /c
 /d
 /e
 /f
 /g
 /h
 /i
 /j
 /k
 /l
 /m
 /n
 /o
 /p
 /q
 /r
 /s
 /t
 /u
 /v
 /w
 /x
 /y
 /z
 /braceleft
 /bar
 /braceright
 /asciitilde
 /.notdef
 /.notdef
 /.notdef
 /.notdef
 /.notdef
 /.notdef
 /.notdef
 /.notdef
 /.notdef
 /.notdef
 /.notdef
 /.notdef
 /.notdef
 /.notdef
 /.notdef
 /.notdef
 /.notdef
 /.notdef
 /.notdef
 /.notdef
 /.notdef
 /.notdef
 /.notdef
 /.notdef
 /.notdef
 /.notdef
 /.notdef
 /.notdef
 /.notdef
 /.notdef
 /.notdef
 /.notdef
 /.notdef
 /space
 /exclamdown
 /cent
 /sterling
 /currency
 /yen
 /brokenbar
 /section
 /dieresis
 /copyright
 /ordfeminine
 /guillemotleft
 /logicalnot
 /hyphen
 /registered
 /macron
 /degree
 /plusminus
 /twosuperior
 /threesuperior
 /acute
 /mu
 /paragraph
 /periodcentered
 /cedilla
 /onesuperior
 /ordmasculine
 /guillemotright
 /onequarter
 /onehalf
 /threequarters
 /questiondown
 /Agrave
 /Aacute
 /Acircumflex
 /Atilde
 /Adieresis
 /Aring
 /AE
 /Ccedilla
 /Egrave
 /Eacute
 /Ecircumflex
 /Edieresis
 /Igrave
 /Iacute
 /Icircumflex
 /Idieresis
 /Eth
 /Ntilde
 /Ograve
 /Oacute
 /Ocircumflex
 /Otilde
 /Odieresis
 /multiply
 /Oslash
 /Ugrave
 /Uacute
 /Ucircumflex
 /Udieresis
 /Yacute
 /Thorn
 /germandbls
 /agrave
 /aacute
 /acircumflex
 /atilde
 /adieresis
 /aring
 /ae
 /ccedilla
 /egrave
 /eacute
 /ecircumflex
 /edieresis
 /igrave
 /iacute
 /icircumflex
 /idieresis
 /eth
 /ntilde
 /ograve
 /oacute
 /ocircumflex
 /otilde
 /odieresis
 /divide
 /oslash
 /ugrave
 /uacute
 /ucircumflex
 /udieresis
 /yacute
 /thorn
 /ydieresis
] def
%%EndProlog
%%BeginSetup
%%EndSetup
612.00 612.00 scale
n
0.0000 0.0000 m
0.0000 1.0000 l
1.2941 1.0000 l
1.2941 0.0000 l
c
[/DeviceRGB] SCS
Color0 SC
fill
[/DeviceRGB] SCS
Color2 SC
[0.0060 0.0180 ] 0 SD
0.0060 SLW
0 SLC
0 SLJ
n
0.2000 0.5594 m
0.2062 0.5620 l
0.2133 0.5672 l
0.2212 0.5722 l
0.2300 0.5774 l
0.2400 0.5826 l
0.2513 0.5878 l
0.2640 0.5930 l
0.2782 0.5981 l
0.2942 0.6033 l
0.3122 0.6085 l
0.3325 0.6137 l
0.3553 0.6189 l
0.3809 0.6240 l
0.4098 0.6291 l
0.4422 0.6344 l
0.4788 0.6395 l
0.5198 0.6448 l
0.5660 0.6499 l
0.6180 0.6551 l
0.6765 0.6604 l
0.7423 0.6655 l
0.8163 0.6705 l
0.8995 0.6758 l
0.9932 0.6810 l
1.0985 0.6863 l
s
[/DeviceRGB] SCS
Color1 SC
[0.0300 0.0180 ] 0 SD
0.0060 SLW
n
0.2000 0.3615 m
0.2062 0.3633 l
0.2133 0.3688 l
0.2231 0.3748 l
0.2302 0.3789 l
0.2380 0.3829 l
0.2465 0.3870 l
0.2558 0.3911 l
0.2661 0.3951 l
0.2773 0.3992 l
0.2896 0.4032 l
0.3031 0.4074 l
0.3180 0.4114 l
0.3342 0.4154 l
0.3520 0.4194 l
0.3716 0.4236 l
0.3931 0.4276 l
0.4166 0.4316 l
0.4424 0.4358 l
0.4707 0.4399 l
0.5017 0.4439 l
0.5358 0.4480 l
0.5731 0.4520 l
0.6141 0.4561 l
0.6590 0.4602 l
0.7083 0.4641 l
0.7623 0.4683 l
0.8216 0.4724 l
0.8866 0.4765 l
0.9579 0.4804 l
1.0361 0.4844 l
1.1219 0.4887 l
s
[/DeviceRGB] SCS
Color4 SC
[0.0060 0.0180 0.0300 0.0180 0.0060 0.0180 ] 0 SD
0.0060 SLW
n
0.1500 0.5243 m
1.1500 0.5243 l
s
[/DeviceRGB] SCS
Color13 SC
[0.0300 0.0180 0.0060 0.0180 0.0300 0.0180 ] 0 SD
0.0060 SLW
n
0.1500 0.3332 m
1.1500 0.3332 l
s
[/DeviceRGB] SCS
Color11 SC
[0.0060 0.0180 0.0300 0.0180 ] 0 SD
0.0060 SLW
n
0.1500 0.7584 m
1.1500 0.7584 l
s
[/DeviceRGB] SCS
Color1 SC
[] 0 SD
0.0015 SLW
n
0.1500 0.1500 m
1.1500 0.1500 l
s
n
0.1500 0.8500 m
1.1500 0.8500 l
s
n
0.2333 0.1500 m
0.2333 0.1600 l
s
n
0.2333 0.8500 m
0.2333 0.8400 l
s
n
0.4000 0.1500 m
0.4000 0.1600 l
s
n
0.4000 0.8500 m
0.4000 0.8400 l
s
n
0.5667 0.1500 m
0.5667 0.1600 l
s
n
0.5667 0.8500 m
0.5667 0.8400 l
s
n
0.7333 0.1500 m
0.7333 0.1600 l
s
n
0.7333 0.8500 m
0.7333 0.8400 l
s
n
0.9000 0.1500 m
0.9000 0.1600 l
s
n
0.9000 0.8500 m
0.9000 0.8400 l
s
n
1.0667 0.1500 m
1.0667 0.1600 l
s
n
1.0667 0.8500 m
1.0667 0.8400 l
s
n
0.1500 0.1500 m
0.1500 0.1700 l
s
n
0.1500 0.8500 m
0.1500 0.8300 l
s
n
0.3167 0.1500 m
0.3167 0.1700 l
s
n
0.3167 0.8500 m
0.3167 0.8300 l
s
n
0.4833 0.1500 m
0.4833 0.1700 l
s
n
0.4833 0.8500 m
0.4833 0.8300 l
s
n
0.6500 0.1500 m
0.6500 0.1700 l
s
n
0.6500 0.8500 m
0.6500 0.8300 l
s
n
0.8167 0.1500 m
0.8167 0.1700 l
s
n
0.8167 0.8500 m
0.8167 0.8300 l
s
n
0.9833 0.1500 m
0.9833 0.1700 l
s
n
0.9833 0.8500 m
0.9833 0.8300 l
s
n
1.1500 0.1500 m
1.1500 0.1700 l
s
n
1.1500 0.8500 m
1.1500 0.8300 l
s
/Times-Roman findfont
dup length dict begin
 {1 index /FID ne {def} {pop pop} ifelse} forall
 /Encoding DefEncoding def
 currentdict
end
/Font0 exch definefont pop
/Font0 FFSF
0.1420 0.1173 m
GS
[0.0339 0.0000 0.0000 0.0339 0 0] CC
(0) show
GR
/Font0 FFSF
0.3100 0.1173 m
GS
[0.0339 0.0000 0.0000 0.0339 0 0] CC
(1) show
GR
/Font0 FFSF
0.4753 0.1173 m
GS
[0.0339 0.0000 0.0000 0.0339 0 0] CC
(2) show
GR
/Font0 FFSF
0.6425 0.1173 m
GS
[0.0339 0.0000 0.0000 0.0339 0 0] CC
(3) show
GR
/Font0 FFSF
0.8086 0.1173 m
GS
[0.0339 0.0000 0.0000 0.0339 0 0] CC
(4) show
GR
/Font0 FFSF
0.9759 0.1169 m
GS
[0.0339 0.0000 0.0000 0.0339 0 0] CC
(5) show
GR
/Font0 FFSF
1.1420 0.1169 m
GS
[0.0339 0.0000 0.0000 0.0339 0 0] CC
(6) show
GR
/Font0 FFSF
0.5939 0.0818 m
GS
[0.0364 0.0000 0.0000 0.0364 0 0] CC
( P [day]) show
GR
n
0.1500 0.1500 m
0.1500 0.8500 l
s
n
1.1500 0.1500 m
1.1500 0.8500 l
s
n
0.1500 0.2416 m
0.1600 0.2416 l
s
n
1.1500 0.2416 m
1.1400 0.2416 l
s
n
0.1500 0.2951 m
0.1600 0.2951 l
s
n
1.1500 0.2951 m
1.1400 0.2951 l
s
n
0.1500 0.3332 m
0.1600 0.3332 l
s
n
1.1500 0.3332 m
1.1400 0.3332 l
s
n
0.1500 0.3626 m
0.1600 0.3626 l
s
n
1.1500 0.3626 m
1.1400 0.3626 l
s
n
0.1500 0.3867 m
0.1600 0.3867 l
s
n
1.1500 0.3867 m
1.1400 0.3867 l
s
n
0.1500 0.4071 m
0.1600 0.4071 l
s
n
1.1500 0.4071 m
1.1400 0.4071 l
s
n
0.1500 0.4247 m
0.1600 0.4247 l
s
n
1.1500 0.4247 m
1.1400 0.4247 l
s
n
0.1500 0.4403 m
0.1600 0.4403 l
s
n
1.1500 0.4403 m
1.1400 0.4403 l
s
n
0.1500 0.4542 m
0.1600 0.4542 l
s
n
1.1500 0.4542 m
1.1400 0.4542 l
s
n
0.1500 0.5458 m
0.1600 0.5458 l
s
n
1.1500 0.5458 m
1.1400 0.5458 l
s
n
0.1500 0.5994 m
0.1600 0.5994 l
s
n
1.1500 0.5994 m
1.1400 0.5994 l
s
n
0.1500 0.6374 m
0.1600 0.6374 l
s
n
1.1500 0.6374 m
1.1400 0.6374 l
s
n
0.1500 0.6668 m
0.1600 0.6668 l
s
n
1.1500 0.6668 m
1.1400 0.6668 l
s
n
0.1500 0.6909 m
0.1600 0.6909 l
s
n
1.1500 0.6909 m
1.1400 0.6909 l
s
n
0.1500 0.7113 m
0.1600 0.7113 l
s
n
1.1500 0.7113 m
1.1400 0.7113 l
s
n
0.1500 0.7289 m
0.1600 0.7289 l
s
n
1.1500 0.7289 m
1.1400 0.7289 l
s
n
0.1500 0.7445 m
0.1600 0.7445 l
s
n
1.1500 0.7445 m
1.1400 0.7445 l
s
n
0.1500 0.7584 m
0.1600 0.7584 l
s
n
1.1500 0.7584 m
1.1400 0.7584 l
s
n
0.1500 0.1500 m
0.1700 0.1500 l
s
n
1.1500 0.1500 m
1.1300 0.1500 l
s
n
0.1500 0.4542 m
0.1700 0.4542 l
s
n
1.1500 0.4542 m
1.1300 0.4542 l
s
n
0.1500 0.7584 m
0.1700 0.7584 l
s
n
1.1500 0.7584 m
1.1300 0.7584 l
s
/Font0 FFSF
0.0749 0.1320 m
GS
[0.0339 0.0000 0.0000 0.0339 0 0] CC
(10) show
GR
/Font0 FFSF
0.1086 0.1523 m
GS
[0.0240 0.0000 0.0000 0.0240 0 0] CC
(-14) show
GR
/Font0 FFSF
0.0757 0.4362 m
GS
[0.0339 0.0000 0.0000 0.0339 0 0] CC
(10) show
GR
/Font0 FFSF
0.1094 0.4565 m
GS
[0.0240 0.0000 0.0000 0.0240 0 0] CC
(-13) show
GR
/Font0 FFSF
0.0749 0.7404 m
GS
[0.0339 0.0000 0.0000 0.0339 0 0] CC
(10) show
GR
/Font0 FFSF
0.1086 0.7607 m
GS
[0.0240 0.0000 0.0000 0.0240 0 0] CC
(-12) show
GR
/Font0 FFSF
0.0571 0.4106 m
GS
[0.0000 0.0364 -0.0364 0.0000 0 0] CC
(|G) show
GR
/Font0 FFSF
0.0243 0.4261 m
GS
[0.0000 0.0364 -0.0364 0.0000 0 0] CC
(.) show
GR
/Font0 FFSF
0.0571 0.4388 m
GS
[0.0000 0.0364 -0.0364 0.0000 0 0] CC
( |/ G [1/yr] ) show
GR
n
0.1500 0.1500 m
0.1500 0.8500 l
1.1500 0.8500 l
1.1500 0.1500 l
0.1500 0.1500 l
c
s
n
0.4500 0.3800 m
0.4500 0.1600 l
1.0973 0.1600 l
1.0973 0.3800 l
c
[/DeviceRGB] SCS
Color0 SC
fill
[/DeviceRGB] SCS
Color1 SC
n
0.4500 0.3800 m
0.4500 0.1600 l
1.0973 0.1600 l
1.0973 0.3800 l
0.4500 0.3800 l
c
s
/Font0 FFSF
0.6230 0.3453 m
GS
[0.0364 0.0000 0.0000 0.0364 0 0] CC
(BH-PSR \(FAST\)) show
GR
[/DeviceRGB] SCS
Color2 SC
[0.0060 0.0180 ] 0 SD
0.0060 SLW
n
0.4630 0.3545 m
0.6030 0.3545 l
s
/Font0 FFSF
[/DeviceRGB] SCS
Color1 SC
0.6230 0.3043 m
GS
[0.0364 0.0000 0.0000 0.0364 0 0] CC
(BH-PSR \(SKA\)) show
GR
[0.0300 0.0180 ] 0 SD
0.0060 SLW
n
0.4630 0.3135 m
0.6030 0.3135 l
s
/Font0 FFSF
0.6230 0.2633 m
GS
[0.0364 0.0000 0.0000 0.0364 0 0] CC
(Solar System \(Mars Ephemeris\)) show
GR
[/DeviceRGB] SCS
Color4 SC
[0.0060 0.0180 0.0300 0.0180 0.0060 0.0180 ] 0 SD
0.0060 SLW
n
0.4630 0.2718 m
0.6030 0.2718 l
s
/Font0 FFSF
[/DeviceRGB] SCS
Color1 SC
0.6230 0.2208 m
GS
[0.0364 0.0000 0.0000 0.0364 0 0] CC
(Solar System \(Messenger\)) show
GR
[/DeviceRGB] SCS
Color13 SC
[0.0300 0.0180 0.0060 0.0180 0.0300 0.0180 ] 0 SD
0.0060 SLW
n
0.4630 0.2290 m
0.6030 0.2290 l
s
/Font0 FFSF
[/DeviceRGB] SCS
Color1 SC
0.6230 0.1778 m
GS
[0.0364 0.0000 0.0000 0.0364 0 0] CC
(Binary Pulsar \(J1713\)) show
GR
[/DeviceRGB] SCS
Color11 SC
[0.0060 0.0180 0.0300 0.0180 ] 0 SD
0.0060 SLW
n
0.4630 0.1863 m
0.6030 0.1863 l
s
%%Trailer
%%BoundingBox: 11 44 710 522
%%DocumentNeededResources: font Times-Roman
%%EOF
