0.059816854215267376, 0.000010584059622317672
0.06461428214022889, 0.000014312425328647247
0.0695726006277509, 0.000019274851812269177
0.07515251874583154, 0.000026161150068683072
0.08117990400803213, 0.00003539126634254246
0.08769060392710959, 0.00004764261623669717
0.09472350154558688, 0.00006424041810334456
0.10199228507772304, 0.00008638972131323577
0.11017233334156967, 0.00011715780564724427
0.1186265163244097, 0.00015697124936423607
0.1281406506031438, 0.0002127025234326005
0.13841769325193293, 0.000286804128662057
0.1495190211389379, 0.00038735700341428357
0.1615109822260581, 0.0005274772222370367
0.17390492783277997, 0.0007112404811723484
0.1878523235402294, 0.0009590234435392358
0.2022673483852679, 0.0012846622211131204
0.21848991426721792, 0.0017493682931579168
0.2360134195011338, 0.0023743625574111395
0.2541240292916804, 0.003174712120268515
0.2745050128832417, 0.004274575643848169
0.295569624471525, 0.005744857355840572
0.3192751391117971, 0.0077973141829114564
0.3448819026553178, 0.010583049273664052
0.3725420015467387, 0.014293442262341314
0.4024203424193669, 0.019273011845255386
0.4346951193257206, 0.026030085933465803
0.4680523597926352, 0.03504088784880896
0.5055912263781669, 0.04745261578942194
0.5461407956661708, 0.0642606647118684
0.5880493711324049, 0.08604519603343298
0.6352114494796087, 0.11583135268331633
0.6861569481167862, 0.15695626497298082
0.7411886639373467, 0.21303180134253527
0.7980656134707284, 0.28724812087485474
0.8620714875439904, 0.3873200265225396
0.928223685916401, 0.519688299266701
1.0026701925002417, 0.7065159650353141
1.0796104551590915, 0.944086578621633
